1,3.21202e-07,-1.19459e-07,2.55218e-07,130.271,-17.3577,40.6406,98.6766,428.979,103.796,110.043,867.622,94.627,-129.569,16.5028,-40.2143,-147.588,460.018,43.7635,-134.893,900.025,3.69574,-0.274826,-248.005,-58.6633,-4.06039,-501.828,-87.8213,14.2215,-681.417,-61.7899,-159.781,-490.952,-152.256,-412.03,-477.635,-187.874,-654.697,-528.186,-215.028,154.893,-479.399,-73.8112,416.287,-438.754,-6.93079,625.128,-472.033,58.3226
2,4.52681e-07,-2.47431e-07,4.36676e-07,130.432,-16.7832,38.8871,107.118,428.475,100.807,118.443,870.08,84.9463,-129.245,15.591,-37.8315,-145.255,457.85,40.6543,-135.882,896.339,1.80383,-0.206436,-243.491,-59.0967,-5.65704,-496.71,-83.2504,31.4135,-669.063,-59.2283,-158.574,-486.61,-128.908,-404.984,-493.25,-91.0207,-635.947,-555.628,-101.283,146.896,-466.577,-74.5345,402.188,-414.821,-3.35657,618.708,-443.748,53.489
3,-4.23316e-08,-2.12764e-08,4.72259e-08,131.754,-13.4676,31.8438,95.6871,367.539,246.216,125.35,811.137,303.223,-131.781,13.335,-31.6271,-113.53,458.557,15.7603,-61.2877,894.952,-69.1833,7.49387,-234.499,-70.2464,16.5794,-483.768,-55.5369,50.4463,-668.584,-41.5086,-126.754,-431.353,-92.9867,-259.523,-186.697,-30.2834,-335.584,-47.8654,137.911,148.515,-404.98,-11.2577,194.52,-161.656,127.824,123.255,-48.247,308.385
4,-3.86016e-07,2.84852e-07,-2.23242e-07,132.85,-2.29904,25.6294,123.207,399.024,220.794,147.616,827.593,109.133,-133.826,3.10359,-26.0643,-165.525,431.708,121.919,-96.5243,871.894,17.3277,45.071,-222.607,-94.317,86.8424,-468.507,-92.5601,96.0958,-660.361,-61.9669,-59.9194,-434.906,-119.715,-240.055,-205.077,-66.4807,-376.967,-36.6713,50.5676,215.557,-376.979,-58.2108,276.483,-112.626,48.1375,281.523,45.2173,233.413
5,-2.49262e-07,3.16793e-07,-1.12225e-07,122.57,-16.605,52.1693,80.2462,432.944,116.824,105.117,876.133,115.582,-123.077,17.4952,-52.2282,-193.882,460.742,36.7859,-205.717,912.103,-13.9895,22.242,-219.112,-88.1273,13.6767,-470.696,-145.876,56.7619,-634.106,-105.8,-111.877,-409.296,-193.653,-245.5,-181.593,-215.683,-201.301,-95.9246,-5.30554,163.09,-455.871,-111.888,415.15,-501.263,0.72937,306.127,-525.8,206.969
6,4.50807e-07,-5.12157e-07,1.96032e-07,127.921,-19.839,45.5859,124.565,427.701,142.604,163.129,881.534,166.655,-126.299,18.3617,-44.4701,-144.14,462.095,31.8818,-144.178,918.779,17.078,22.249,-230.1,-82.7514,21.8475,-477.949,-121.679,8.85199,-643.991,-61.0514,-117.537,-447.324,-163.276,-354.166,-512.319,-126.965,-359.048,-508.606,59.8099,171.626,-444.908,-100.574,429.98,-494.453,10.5641,340.241,-524.121,198.64
7,1.91474e-07,-1.37842e-07,2.76828e-07,125.154,-20.3297,46.1602,136.065,424.96,134.403,189.235,885.679,145.841,-124.387,19.904,-44.9608,-142.198,460.293,32.1987,-122.557,922.593,16.4446,18.6906,-227.847,-78.9956,23.7791,-472.818,-139.979,65.0957,-651.166,-115.385,-116.146,-438.433,-182.61,-377.073,-470.167,-157.19,-427.013,-466.329,17.8237,169.888,-436.852,-114.701,421.672,-479.438,-6.55145,296.665,-509.447,160.464
8,-1.81961e-07,2.97828e-08,-1.03008e-07,106.086,-15.8831,88.8441,46.5562,424.831,158.474,73.8437,861.443,103.219,-106.229,16.0969,-88.7662,-293.12,411.556,62.4739,-290.057,848.406,59.1713,66.9755,-228.283,-80.3222,90.4249,-478.288,-79.4866,61.5762,-665.971,-29.3433,-23.3755,-445.535,-178.005,-240.145,-259.101,-223.244,-440.274,-247.56,-114.844,195.036,-398.322,17.4759,195.542,-156.233,166.982,-14.395,-164.374,179.229
9,-1.47705e-07,1.88958e-07,-2.64221e-08,91.2432,-16.7516,112.401,109.104,429.532,199.87,282.755,839.379,155.522,-90.7425,17.3869,-111.481,-277.914,419.656,4.83392,-365.135,858.384,104.146,95.9496,-230.148,-41.676,110.192,-478.078,-1.53378,116.555,-635.631,35.7433,28.927,-458.67,-118.423,-173.59,-296.88,-227.151,-427.719,-273.478,-189.506,172.685,-385.994,103.547,62.5958,-161.935,228.554,-184.106,-202.583,139.707
10,4.90109e-08,3.41789e-09,1.1593e-07,129.536,-7.57013,43.8913,97.4575,421.929,167.858,101.645,862.02,164.776,-129.445,7.56169,-43.6277,-175.276,442.472,69.9838,-158.438,883.994,47.8185,20.5062,-231.725,-57.105,25.7183,-479.602,-15.0247,31.6801,-644.17,44.7041,-113.012,-440.667,-58.5788,-278.913,-225.835,-33.989,-297.726,-384.889,140.785,160.558,-406.987,11.1227,260.535,-154.73,77.8466,168.958,-285.311,242.985
11,1.81523e-07,1.10273e-08,3.10666e-07,129.826,-7.61963,31.5067,128.74,421.232,145.728,154.021,869.044,161.446,-129.294,7.66913,-30.6259,-143.717,444.847,66.4921,-124.449,895.194,52.1094,33.6522,-229.731,-55.5546,48.5769,-476.181,-18.4514,83.4833,-641.549,10.5468,-92.133,-436.167,-47.8336,-280.541,-229.304,-25.8099,-390.95,-328.582,151.382,177.83,-392.414,-8.95874,285.953,-126.169,17.9413,254.585,-229.24,234.888
12,-9.15713e-08,2.26902e-07,1.46392e-07,127.953,-9.69268,47.2929,102.738,423.892,164.889,114.322,869.862,163.473,-128.262,10.2881,-46.9417,-163.202,445.198,64.7472,-147.806,894.536,35.6814,19.3793,-236.489,-50.3471,40.1074,-483.572,-10.7722,78.061,-662.403,34.0261,-101.479,-446.123,-62.7948,-260.05,-217.632,-78.6182,-257.491,-161.477,146.489,174.294,-399.229,18.0949,277.038,-137.716,64.4989,164.845,-194.879,255.91
13,-4.4499e-07,1.55608e-07,-4.80776e-07,66.5968,-19.0753,120.577,31.8819,428.788,228.091,224.47,836.03,193.476,-67.7856,19.4698,-121.985,-131.914,468.508,-27.1373,-23.6548,899.799,17.7213,138.028,-196.122,-88.1892,210.092,-441.761,-110.838,197.292,-599.187,-56.9758,122.288,-404.089,-208.286,-96.1559,-272.499,-86.8759,-6.32819,-278.344,48.3792,266.457,-385.481,19.7623,206.702,-170.036,163.652,83.7657,-76.3651,179.08
14,3.77699e-07,-5.54363e-07,3.42828e-08,124.442,12.7469,-56.1503,143.576,417.314,111.909,109.391,863.22,117.46,-123.239,-14.3374,56.518,-178.07,412.694,138.246,-405.553,786.143,-23.6033,21.3598,-232.846,-69.8069,40.6863,-488.414,-49.7522,78.3085,-657.067,-11.2925,-94.4333,-444.629,5.10876,-189.481,-187.411,90.7691,-161.79,-10.0754,197.108,160.269,-418.775,-104.955,286.605,-213.29,28.5576,174.255,-412.277,72.1259
15,1.69403e-07,-2.76697e-08,2.91459e-07,117.01,27.136,-57.1513,157.52,416.796,153.924,-6.62378,783.418,-22.4047,-116.564,-27.3253,57.8783,-60.4859,295.349,356.077,-114.751,725.498,452.492,46.9683,-222.279,-13.4805,93.521,-472.332,39.0427,124.682,-637.524,56.968,-38.7832,-424.917,89.373,-149.022,-200.691,209.516,26.535,-129.147,295.572,198.929,-405.914,-29.4698,307.652,-154.582,-65.3128,272.354,-268.734,135.999
16,6.69567e-08,2.09063e-07,2.95184e-07,133.53,34.4451,-57.4808,208.343,439.297,177.506,20.0343,634.585,-139.293,-133.565,-34.0419,58.1707,32.6396,142.332,462.778,-70.4681,576.768,423.903,74.9018,-238.438,9.49576,152.562,-467.125,88.5886,204.114,-642.661,117.369,7.54901,-459.281,145.636,-176.324,-271.739,282.326,-25.2367,-203.041,368.238,257.992,-395.12,-3.01654,363.902,-131.076,-18.3416,322.663,-239.784,166.036
17,-7.80532e-08,2.84654e-07,5.29856e-08,134.88,10.4376,14.6623,56.8031,404.214,205.75,-42.4672,835.792,145.417,-135.256,-9.4722,-14.5669,-245.166,312.697,289.795,-211.968,757.492,241.349,57.5759,-229.085,-39.6002,78.0035,-472.117,14.6101,94.0378,-630.505,46.2693,-60.0507,-436.243,-4.01361,-216.472,-207.969,11.8281,-133.029,-118.696,193.686,204.412,-396.785,6.80933,327.837,-137.022,11.8999,212.751,-185.664,205.544
18,-1.43932e-07,3.35957e-07,-9.2384e-08,132.343,-12.784,38.3918,150.689,421.368,182.997,205.329,863.797,210.661,-132.693,13.6299,-38.4123,-109.249,469.025,35.785,-35.8966,912.746,3.27063,13.7975,-237.005,-80.7185,2.93039,-486.26,-123.197,54.5084,-667.803,-56.3139,-149.292,-428.553,-148.077,-283.154,-165.163,-89.1144,-122.067,-209.974,68.0532,172.035,-459.278,-109.616,408.554,-426.279,20.9649,321.924,-659.822,103.589
19,-5.61371e-10,2.4901e-07,2.97166e-08,128.644,-12.5928,44.2258,145.382,421.16,176.218,206.943,859.708,206.451,-128.637,13.1247,-44.0337,-110.532,463.537,33.2244,-38.6828,906.153,0.963684,11.8139,-222.61,-93.2094,-8.01233,-470.199,-149.133,49.8184,-641.056,-97.9832,-146.047,-401.634,-172.398,-272.62,-147.083,-103.6,-128.44,-154.262,52.0079,149.222,-445.089,-126.411,382.716,-406.296,7.0556,311.107,-639.187,116.299
20,-4.98492e-08,2.06935e-07,4.73524e-08,128.154,-12.9785,45.0339,140.972,416.822,177.884,186.391,856.474,219.59,-128.293,13.4456,-44.8709,-120.153,459.597,29.8617,-68.1492,905.611,6.61963,3.60033,-233.62,-61.2008,-8.85178,-486.235,-67.1583,-1.07062,-670.886,-46.7568,-145.409,-420.546,-106.003,-267.189,-170.494,-72.0875,-162.086,-177.285,130.54,141.557,-432.478,-38.4457,337.785,-254.432,42.6268,218.469,-361.102,209.74
21,-3.76504e-07,1.89391e-07,-3.43653e-07,109.476,-19.3583,82.1173,94.0322,425.46,145.091,138.691,869.009,109.035,-110.423,19.8653,-83.0602,-242.293,435.467,42.6388,-193.579,893.39,-10.4756,33.9623,-225.634,-87.1635,55.2751,-473.908,-94.4283,-20.5346,-643.235,-36.7413,-76.6027,-466.505,-180.947,-332.093,-473.21,-127.828,-159.917,-628.428,-62.1393,188.26,-408.677,-15.8442,315.479,-171.343,64.456,136.437,-123.272,186.004
22,-1.05067e-07,-3.01003e-11,-7.45029e-08,112.592,-15.0029,80.7562,110.99,430.992,144.487,175.286,868.179,96.6237,-112.764,14.982,-80.9797,-229.738,440.074,25.4656,-220.774,896.864,19.605,49.7632,-219.61,-94.5558,79.5943,-464.194,-104.743,35.6286,-632.683,-51.4389,-55.0378,-452.943,-181.997,-324.274,-434.762,-119.349,-180.982,-573.209,-28.9499,206.925,-389.708,-34.1058,319.665,-145.828,46.7645,123.968,-144.418,176.797
23,3.88007e-07,-2.77256e-07,2.95706e-07,131.357,-11.317,32.8283,128.948,430.995,127.065,181.363,885.815,123.949,-129.821,10.4397,-31.7174,-199.893,455.404,45.2875,-230.482,898.275,3.47827,23.7329,-210.252,-117.425,34.433,-449.359,-208.272,74.465,-612.427,-159.389,-103.98,-414.4,-221.717,-355.962,-483.462,-102.868,-241.628,-582.364,-126.973,173.711,-407.906,-194.558,443.436,-382.409,-110.106,325.287,-553.815,-129.062
24,5.24107e-07,-3.3882e-07,3.87838e-07,131.92,-13.8782,37.4776,127.391,428.798,133.506,178.633,881.55,119.37,-129.776,12.9384,-35.8089,-202.477,457.237,39.6422,-228.404,904.227,27.8737,20.7731,-217.95,-106.837,34.9679,-459.428,-180.413,78.3063,-620.356,-142.295,-104.768,-425.291,-201.821,-369.074,-467.211,-95.985,-256.581,-595.57,-101.803,172.632,-415.67,-166.174,440.478,-364.059,-77.7415,307.03,-548.648,-98.0027
25,9.62579e-08,5.08997e-08,2.06377e-07,126.983,-17.5794,43.9404,113.942,431.029,111.94,144.943,876.29,104.24,-126.794,17.4374,-43.4527,-149.893,457.689,49.297,-150.629,905.375,3.78564,7.01884,-238.09,-60.1902,14.2398,-491.121,-93.2637,41.2711,-661.983,-80.4648,-125.732,-478.178,-155.921,-367.661,-465.241,-202.296,-629.185,-502.005,-194.759,161.076,-456.251,-67.3336,416.817,-380.486,15.3153,608.22,-392.917,150.037
26,-4.06299e-07,3.55935e-07,-2.15222e-07,132.506,0.824905,18.4034,132.463,403.642,207.985,164.14,837.443,137.654,-133.436,0.290543,-18.746,-176.38,414.448,156.271,-126.839,846.204,75.6254,39.8158,-221.624,-79.184,113.047,-456.071,-95.6423,153.452,-644.468,-50.4935,-31.9138,-443.308,-122.971,-234.584,-239.08,-143.205,-386.834,-61.5001,-50.6406,232.823,-348.315,-79.2767,301.709,-62.2383,-74.5135,346.75,160.924,37.3021
27,2.9179e-07,-1.52156e-07,2.19206e-07,134.208,10.6833,13.245,81.5218,395.735,230.572,17.9465,805.168,107.278,-133.362,-11.0096,-12.428,-205.615,336.303,271.036,-252.609,778.156,322.083,52.7609,-221.753,-55.8873,137.914,-451.389,-25.0801,177.454,-605.732,12.879,-5.04352,-456.003,-38.2999,-254.968,-364.283,72.4541,-108.502,-480.52,185.695,235.96,-338.323,-17.4804,271.706,-74.3514,53.2513,188.164,-206.023,217.725
28,4.39018e-07,-1.95314e-07,3.30484e-07,135.297,25.5278,-0.83284,126.424,416.673,229.384,61.7413,805.1,87.5861,-133.926,-26.0327,2.04636,-188.96,338.681,269.236,-238.064,775.953,338.843,83.7776,-216.015,-64.856,208.923,-424.962,-42.3552,308.962,-549.78,-22.2844,67.6252,-455.56,-54.528,-211.334,-418.11,19.9083,-60.0461,-474.716,145.37,289.924,-299.747,-38.6444,291.477,-27.9566,44.4412,223.463,-119.365,206.314
29,1.17333e-07,-6.90457e-08,3.21953e-07,123.726,-11.1848,62.7401,64.3812,420.559,165.417,48.5425,858.267,196.813,-123.33,11.0708,-61.8694,-160.493,456.939,16.6314,-120.187,898.088,-9.35394,3.09782,-244.464,-23.4894,-12.1361,-487.624,44.252,-15.7956,-668.034,86.1859,-140.771,-446.228,-36.1153,-235.971,-208.56,-117.762,-258.667,-71.3983,68.0454,125.89,-412.675,87.5435,246.712,-157.012,102.716,134.572,-29.8942,254.255
30,3.7741e-07,-4.01149e-07,2.46775e-07,121.336,-14.9306,57.0761,83.0702,428.357,135.912,125.355,859.595,133.986,-120.107,13.8279,-56.1997,-130.295,462.577,16.0818,-87.1366,901.334,-47.4771,33.2286,-221.633,-77.1774,40.5223,-471.179,-143.633,68.7381,-639.646,-111.714,-90.0996,-417.485,-205.115,-261.992,-237.022,-281.916,-265.531,-144.174,-58.0899,189.652,-446.226,-107.638,453.135,-470.245,6.70471,322.524,-512.792,166.541
1,1.18115e-07,-1.43448e-07,3.83539e-08,122.266,-14.9797,57.7916,69.3331,426.424,141.757,80.9847,860.505,155.756,-121.669,14.5852,-57.4091,-149.962,462.609,11.1577,-115.616,900.368,-54.8242,27.9235,-225.937,-67.35,41.2731,-477.194,-127.492,84.8418,-641.879,-89.2583,-86.8041,-426.324,-188.058,-219.985,-215.355,-282.932,-190.985,-103.055,-65.9901,189.085,-450.574,-97.3442,455.916,-433.299,-21.4,349.731,-441.757,190.896
2,5.11415e-07,-4.95598e-07,3.36916e-07,126.374,-24.3707,50.6099,112.744,412.382,164.254,147.863,862.487,213.28,-124.629,22.9297,-49.1208,-118.171,462.871,30.9158,-75.5343,914.589,31.67,12.4783,-237.883,-61.9165,10.1571,-487.915,-96.7609,31.6722,-666.894,-57.434,-135.849,-459.829,-150.252,-394.836,-529.243,-149.217,-387.779,-505.785,34.8002,164.656,-457.67,-73.0983,419.138,-546.291,31.9971,253.315,-558.754,194.672
3,1.83087e-07,-1.26426e-07,1.4212e-07,126.643,-23.2339,46.5392,104.548,415.626,158.86,144.542,869.445,200.5,-125.967,22.7076,-45.7286,-125.017,461.419,40.1914,-69.6926,917.521,27.9578,5.4704,-230.291,-69.7358,-0.185242,-478.002,-112.143,33.3119,-648.057,-52.563,-138.507,-445.813,-162.595,-395.89,-490.96,-167.352,-437.234,-472.205,34.192,148.967,-444.138,-83.9793,396.698,-508.182,39.527,248.925,-531.124,212.855
4,3.01669e-07,-1.73497e-07,3.73751e-07,123.638,-13.8108,58.0286,55.8514,422.026,146.546,71.1776,855.935,156.479,-122.556,13.3966,-56.8438,-167.58,457.472,16.6046,-143.603,893.773,-25.0948,2.86707,-225.429,-63.5811,-16.0724,-479.822,-71.0658,1.9718,-645.644,-53.2676,-132.237,-423.517,-144.076,-249.975,-212.718,-256.088,-231.44,-186.75,-12.6224,125.184,-440.178,-32.3383,354.207,-301.388,36.3025,211.226,-240.058,196.443
5,-2.17279e-07,4.35614e-07,-1.33113e-07,132.32,-9.43796,20.0953,175.473,409.084,187.022,233.721,857.219,259.233,-132.923,10.4874,-20.2781,-89.9356,462.538,47.5247,-29.5629,916.423,13.4851,15.9221,-231.078,-93.966,0.720337,-478.299,-146.941,77.6414,-651.818,-81.3781,-147.558,-422.653,-152.171,-296.827,-182.033,-79.3433,-126.287,-173.234,65.7577,163.894,-449.01,-146.196,402.901,-437.764,-20.803,325.56,-650.588,25.83
6,-5.83495e-08,3.09731e-07,-1.56431e-08,130.458,-8.95204,22.3038,165.044,407.82,184.974,225.706,852.374,259.902,-130.687,9.6057,-22.29,-93.9915,459.055,48.2772,-30.4291,909.55,6.63422,10.1693,-224.89,-95.8825,-15.786,-475.054,-140.426,55.045,-641.283,-92.0634,-156.893,-408.231,-146.569,-283.785,-160.365,-61.9407,-133.366,-166.228,101.941,144.171,-447.892,-133.147,384.645,-416.869,0.668945,300.13,-647.247,71.7041
7,-3.01733e-07,4.18062e-07,1.82893e-07,130.728,-15.0006,57.2857,74.5453,424.968,158.351,55.5151,861.938,172.039,-131.652,16.2434,-56.8159,-227.309,433.198,100.791,-232.537,882.64,90.2505,-11.9694,-250.791,-4.4292,-20.8446,-489.259,82.2344,4.54736,-679.243,124.642,-160.479,-448.854,14.0759,-279.62,-202.276,-39.3741,-161.418,-130.181,157.877,128.885,-420.71,116.281,271.052,-191.208,156.787,130.609,-81.7949,286.165
8,3.20508e-08,5.72298e-08,4.84345e-08,128.62,-14.8843,43.3528,107.358,431.917,124.359,123.566,882.86,118.461,-128.235,14.8922,-42.8826,-172.708,455.068,49.4688,-154.266,904.042,10.5815,12.1633,-236.316,-69.7524,14.0306,-486.306,-113.566,35.2253,-664.429,-65.9803,-136.001,-463.721,-158.48,-395.515,-417.485,-110.745,-443.507,-628.532,-34.8082,169.444,-450.388,-90.1703,412.908,-371.307,26.426,427.944,-575.194,119.583
9,4.59479e-07,-4.87688e-07,1.69754e-07,132.48,-12.8185,30.1328,51.7841,413.827,135.18,34.1411,852.563,109.843,-130.92,11.5479,-29.2529,-238.089,409.583,151.369,-211.034,831.731,34.42,-2.01526,-221.428,-75.5832,-5.62979,-475.242,-111.521,13.575,-648.398,-77.6404,-139.586,-428.678,-137.939,-366.194,-306.73,-95.945,-339.956,-412.382,105.176,131.445,-423.929,-98.1472,347.905,-293.731,-0.824219,251.492,-381.368,162.795
10,-2.73131e-08,1.36881e-07,1.39122e-07,136.553,16.518,-28.7141,151.612,405.929,207.406,-38.1093,710.015,62.4513,-136.685,-16.3191,29.1095,-34.0742,215.994,412.68,-25.7879,643.561,326.356,23.427,-235.669,2.98134,31.9698,-477.869,96.7092,60.1663,-661.495,104.308,-113.669,-430.586,107.992,-262.882,-185.088,171.915,-107.754,-115.853,316.727,162.473,-413.369,57.3296,272.248,-157.018,76.2238,141.158,-129.993,264.051
11,-2.46904e-07,2.66915e-07,8.93002e-08,136.392,30.5163,-21.391,144.197,363.363,267.457,-15.3973,587.424,-32.4199,-137.013,-29.847,21.6324,0.304688,115.891,421.651,26.5325,554.763,359.871,59.8257,-210.942,44.2364,106.692,-419.712,162.229,133.529,-595.574,178.186,-36.0568,-393.803,164.364,-215.294,-169.897,181.245,-55.4921,-89.1418,293.564,222.809,-343.866,120.647,282.405,-93.7559,114.166,145.155,-123.128,281.234
12,2.37255e-07,-2.6237e-07,7.92813e-08,102.406,-16.657,82.1288,42.3956,416.109,154.077,81.6243,857.499,109.019,-101.581,16.016,-81.8819,-143.072,458.489,-21.956,-65.595,888.172,-104.09,45.1488,-215.378,-84.6373,60.3293,-469.242,-98.644,53.5817,-641.827,-62.4113,-68.3193,-415.433,-156.221,-207.887,-196.809,-88.5562,-110.728,-161.04,119.37,183.326,-397.839,-37.6524,294.057,-155.317,34.2047,75.8738,-128.297,155.271
13,-3.14534e-08,4.33084e-08,-1.50667e-08,69.065,-21.0424,116.745,30.2556,422.822,169.95,138.309,863.705,137.494,-69.0942,21.245,-116.843,-133.396,466.644,-70.8423,-79.4184,911.952,-92.9911,66.5351,-214.158,-78.3423,77.8181,-469.288,-113.971,60.0797,-644.265,-65.6671,-22.9163,-408.598,-199.766,-171.307,-189.583,-129.167,-160.207,-145.64,78.7025,175.021,-415.345,-11.3058,247.107,-188.103,118.487,2.55469,-191.199,178.805
14,8.76519e-07,-1.16198e-06,3.49676e-07,96.7118,19.3581,-94.8371,293.839,374.902,113.936,276.863,811.805,140.067,-93.9857,-22.224,95.9605,-18.5398,412.725,204.004,-139.362,795.932,32.947,-39.0277,-212.407,-93.3536,-25.3599,-459.271,-142.999,49.7612,-614.05,-122.285,-132.936,-439.946,-38.8914,-166.665,-281.105,172.094,-10.9459,-323.109,179.227,58.2498,-374.778,-232.924,110.41,-109.858,-293.029,200.897,-55.3017,-69.2994
15,4.18845e-07,-2.7545e-07,2.83714e-07,135.018,11.3815,6.25877,116.959,416.083,189.341,109.921,811.568,-6.64856,-133.758,-12.0591,-5.24074,-213.379,331.182,277.421,-296.041,770.799,339.418,47.2598,-217.918,-82.9128,105.719,-461.468,-94.6586,155.071,-623.747,-63.89,-38.2131,-453.013,-111.288,-288.228,-346.452,-34.481,-194.535,-447.56,150.706,215.096,-360.329,-86.0778,287.307,-113.359,14.5095,164.586,-262.386,172.571
16,6.39649e-07,-4.21138e-07,5.05496e-07,121.948,31.4195,-42.8297,84.2172,389.39,199.27,-22.3143,798.436,121.731,-120.034,-32.7268,44.4688,-243.816,321.797,246.81,-402.113,743.463,316.475,48.7435,-222.402,-63.2167,38.3712,-474.526,-61.0192,58.932,-620.125,-57.2032,-87.4734,-432.717,-30.9226,-274.658,-258.645,40.1249,-422.699,-213.166,170.093,154.493,-428.816,-111.653,401.971,-334.049,-49.1725,351.382,-447.02,94.2859
17,3.13113e-07,-3.97835e-07,1.92672e-08,-128.709,-23.2265,49.8545,-98.7399,425.877,151.406,-36.026,832.315,335.2,129.49,22.1547,-49.8885,154.793,474.888,53.364,197.737,887.894,218.967,17.9864,-253.848,-39.6423,18.3854,-498.325,-110.054,-8.72247,-683.508,-160.185,177.706,-490.563,-135.604,448.94,-451.896,-221.527,631.423,-456.627,-440.4,-122.857,-512.81,-23.724,-380.677,-511.639,116.706,-621.555,-540.841,162.134
18,3.36612e-07,-4.38393e-07,4.87565e-08,-123.159,-20.7849,50.6883,-98.3493,419.096,151.051,-21.4311,822.549,332.03,123.816,19.5238,-50.8111,150.158,464.71,51.2182,196.851,873.317,220.834,11.9499,-245.166,-39.5992,11.6327,-495.413,-100.667,-15.4208,-677.673,-147.441,172.41,-489.333,-126.192,433.079,-468.037,-213.579,607.413,-466.41,-427.315,-132.203,-504.303,-19.6441,-377.157,-490.553,117.093,-604.509,-501.088,150.003
19,-3.02685e-07,5.06736e-07,-2.62377e-07,-119.559,-23.8566,41.3132,-189.697,432.944,47.9686,-180.349,849.772,225.119,118.812,25.2801,-41.8897,148.368,472.248,75.2553,176.503,813.886,364.075,35.7565,-234.788,-14.9017,4.89038,-475.91,-87.7217,-29.6515,-652.699,-159.614,143.261,-413.792,-119.325,236.75,-139.563,-128.983,161.357,29.6419,-303.678,-121.727,-423.576,-10.2759,-247.241,-180.495,76.8696,-387.905,-22.3953,7.12402
20,-3.67746e-07,8.39184e-07,-1.5454e-07,-112.655,-23.764,57.2315,-157.08,422.516,102.81,-76.7104,790.172,360.154,111.506,26.1324,-57.7901,117.002,474.79,11.5043,183.365,834.989,269.498,45.6271,-231.789,46.3138,23.9384,-490.911,32.17,-1.47736,-662.833,-53.6985,160.077,-438.106,-17.2828,267.087,-180.733,-67.5262,257.582,35.2565,-202.445,-101.036,-422.691,105.561,-212.848,-161.507,149.897,-355.643,14.8354,106.919
21,2.62633e-07,-2.58133e-07,2.41608e-07,-130.687,-19.4391,47.2511,-108.065,437.463,123.204,-62.4437,841.689,302.868,131.551,18.7499,-46.2379,197.339,474.855,27.1056,264.248,887.507,187.101,-1.21425,-260.433,-18.0234,6.18747,-500.566,-102.63,-54.1998,-664.692,-168.089,148.974,-429.525,-119.087,326.241,-190.06,-115.233,92.7314,-78.5868,-218.613,-135.221,-500.132,-35.1352,-403.592,-558.174,-6.8103,-396.763,-471.718,-175.998
22,-4.92759e-07,7.55454e-07,-1.91614e-07,-144.45,-18.6311,39.0833,-147.461,439.242,143.791,-119.668,846.42,320.719,142.858,20.4255,-39.7428,175.244,485.448,53.6826,224.176,904.698,212.052,15.9721,-269.28,-17.5513,3.37338,-507.807,-102.612,-52.4521,-657.871,-216.59,150.858,-495.822,-128.656,409.278,-457.36,-201.16,342.708,-402.509,-440.065,-124.337,-513.498,-10.4786,-377.625,-569.267,96.3867,-419.116,-526.418,-150.04
23,-2.04559e-07,4.3624e-07,-7.73729e-09,-130.387,-20.9961,40.4131,-149.617,435.368,137.87,-125.099,846.468,342.465,129.485,21.8345,-40.553,162.886,482.397,58.2187,210.438,907.656,238.342,13.548,-256.232,-17.4378,17.4594,-503.324,-78.8419,-5.35107,-677.382,-138.221,167.185,-479.759,-97.4376,448.335,-473.512,-167.179,410.14,-400.486,-419.192,-119.685,-500.044,2.27722,-401.086,-549.008,117.68,-489.822,-487.406,-77.7464
24,-8.42098e-07,1.09795e-06,-1.60448e-07,-146.145,-2.48306,5.34164,-125.558,451.448,34.8721,-47.4815,818.055,271.728,143.71,5.55295,-5.89209,227.054,460.992,-85.5139,261.756,888.688,63.4623,-32.1634,-253.58,3.18756,-86.3664,-472.783,-96.9373,-90.099,-625.061,-219.303,76.4525,-472.234,-83.0027,308.215,-281.436,-63.4884,339.907,-172.124,-301.336,-223.227,-397.487,-56.2448,-356.344,-135.825,-7.66315,-233.118,-67.5302,-206.359
25,1.76934e-07,-3.03761e-07,1.46832e-07,-135.739,3.22856,-13.5405,-173.685,428.486,93.5507,-197.619,785.254,373.76,136.724,-3.59317,14.2207,217.434,440.466,-3.37885,269.966,880.273,90.0104,-78.4655,-228.465,-56.3637,-166.888,-422.714,-186.778,-216.65,-532.465,-320.917,-21.4326,-435.123,-149.168,251.13,-356.406,-75.1293,422.775,-289.62,-168.37,-267.339,-311.817,-171.828,-200.788,-54.9415,-217.49,-3.77972,6.2868,-339.522
26,9.30703e-09,2.82421e-07,2.73176e-08,-125.212,-16.9823,41.3687,-126.341,439.579,117.709,-76.3771,840.931,323.545,125.528,18.0578,-41.0854,146.256,478.062,28.7809,198.125,892.296,221.546,7.41672,-244.54,28.493,-34.9016,-484.02,-49.4739,-92.4349,-627.292,-164.369,105.303,-436.81,-84.5607,265.442,-190.247,-129.491,135.393,-228.38,-354.315,-154.922,-424.97,27.0721,-282.11,-170.439,92.0422,-351.381,-273.913,-103.691
27,-2.30155e-07,6.33155e-07,-1.00204e-07,-124.303,-19.5591,50.8844,-133.859,439.503,114.744,-89.8254,836.928,331.749,123.904,21.5844,-50.9646,141.291,475.569,41.6978,172.533,895.284,231.576,20.4445,-242.633,9.07916,-27.7508,-482.514,-61.2773,-95.6575,-637.411,-146.194,111.749,-443.771,-108.879,290.111,-207.529,-163.321,177.475,-235.989,-412.673,-137.918,-424.382,31.2487,-247.201,-171.677,133.114,-415.462,-252.499,-37.4244
28,1.60921e-07,1.72093e-07,1.917e-07,-121.808,-21.3234,59.556,-137.061,442.153,124.645,-92.4088,849.361,331.29,122.381,21.8685,-58.9317,150.836,485.194,26.0746,194.311,905.543,203.528,11.5352,-254.732,2.50618,-61.6501,-485.311,-79.0825,-117.942,-646.311,-160.473,77.5739,-444.106,-129.32,256.508,-206.108,-149.022,96.7791,-54.9719,-297.55,-166.547,-419.268,19.7428,-257.868,-165.952,141.552,-384.207,-96.2561,-81.4831
29,-2.38046e-07,2.27583e-07,1.17202e-07,-140.544,8.85832,-23.082,-147.213,453.333,30.6208,-222.267,809.92,278.064,139.402,-8.47367,22.8399,164.616,447.049,51.2704,66.9951,833.556,216.391,-65.611,-250.167,-27.2627,-184.973,-429.294,-160.751,-203.224,-577.35,-270.949,-28.2429,-445.355,-149.078,150.364,-259.492,-238.399,-25.1765,-225.964,-298.106,-302.751,-299.277,-138.587,-333.265,-15.8962,-155.056,-259.022,175.923,-210.91
30,1.06113e-06,-1.5679e-06,3.39202e-07,-68.2139,-35.1321,124.974,-148.823,398.569,124.191,-55.709,795.513,243.649,71.5631,30.7525,-123.894,83.854,477.106,-69.9691,413.446,781.848,-17.0424,26.6645,-245.799,-48.0152,4.69492,-475.881,-142.48,-76.0197,-644.226,-196.885,69.0706,-384.243,-261.214,87.9582,-115.106,-291.337,-28.6661,105.424,-289.635,-49.5834,-459.597,12.7088,-201.652,-258.106,117.626,-170.8,-429.297,-66.8745
1,-9.51947e-07,9.1904e-07,-5.37124e-07,-36.6892,-21.9451,123.37,-117.701,379.882,182.218,104.251,738.021,287.582,34.1674,24.4006,-124.795,-179.134,408.465,-115.205,-291.308,876.004,-66.1724,28.8408,-228.71,-14.1734,-9.65512,-470.309,-65.6916,-76.8943,-630.091,-104.921,27.8235,-386.311,-176.157,26.7804,-113.568,-217.734,-109.881,67.5347,-257.936,-23.6899,-438.526,76.0462,-17.4575,-226.813,203.428,-69.9915,-84.4124,165.724
2,-4.48352e-07,2.12411e-07,-1.11708e-07,-58.8352,-24.187,125.931,-232.525,369.78,142.839,149.447,513.956,235.797,58.5935,24.1167,-125.291,-309.503,283.632,-202.371,-159.589,695.551,-118.525,-56.3362,-234.794,-62.6496,-149.072,-441.001,-153.636,-226.862,-620.749,-208.171,-68.4322,-378.941,-281.865,58.1166,-107.204,-315.695,-128.139,55.0463,-357.987,-177.618,-426.102,23.6876,-141.031,-225.866,232.756,-262.339,-119.626,13.7741
3,4.83403e-07,-5.66401e-07,2.87494e-07,-100.848,-18.5297,84.7941,-110.288,443.77,102.806,80.4062,780.691,317.884,102.518,16.6931,-83.8052,35.8547,459.051,-118.59,223.49,737.527,180.023,-41.0663,-244.92,-43.9844,-118.407,-462.633,-145.731,-159.033,-619.516,-226.729,11.6625,-416.807,-216.897,169.831,-174.774,-187.359,-15.5121,-23.5329,-219.554,-208.565,-419.049,-13.5126,-248.679,-190.092,151.735,-228.444,-147.145,-110.458
4,-4.41354e-07,4.57503e-07,-2.7739e-07,-132.293,-21.6123,54.3673,-188.833,411.866,121.667,-203.758,817.31,280.955,131.109,22.8107,-55.0275,131.441,457.766,50.7028,130.002,862.248,242.092,14.9951,-254.625,-27.5935,31.9187,-493.601,-116.08,-44.0534,-659.522,-163.656,165.94,-424.467,-164.214,267.176,-152.617,-199.109,20.8107,-141.706,-257.461,-104.829,-497.13,-27.2314,-355.804,-463.125,-58.9415,-310.304,-613.314,-187.178
5,-6.07121e-07,5.59019e-07,-3.33965e-07,-128.496,-24.3835,61.977,-170.398,415.311,137.767,-184.204,826.261,300.894,126.788,25.8968,-62.8131,145.137,463.284,57.4871,149.309,877.354,240.739,20.246,-255.274,-20.8318,43.7942,-489.776,-117.621,-28.5517,-653.265,-162.531,169.216,-413.991,-165.374,269.265,-136.048,-192.17,24.6484,-123.641,-241.021,-86.2493,-492.168,-27.8124,-346.525,-446.991,-63.7674,-242.089,-584.251,-178.694
6,2.64493e-07,-1.5638e-07,1.72756e-07,-118.075,-23.1591,52.2466,-168.725,431.019,137.51,-168.363,837.525,335.33,118.947,22.8732,-51.531,134.53,469.944,83.929,152.438,876.227,286.396,20.8349,-247.094,-0.895355,32.3427,-483.885,-92.6274,-1.95624,-654.228,-169.777,165.4,-406.388,-120.485,290.928,-141.957,-108.895,47.821,-93.9653,-209.612,-101.537,-452.877,-8.71179,-284.973,-266.134,104.249,-348.948,-288.597,-149.26
7,-2.7824e-07,5.95177e-07,1.24111e-07,-136.28,-12.3014,16.9585,-132.491,451.77,117.803,-110.543,849.35,336.601,135.127,13.8777,-16.7978,204.893,482.07,13.6519,253.161,902.785,203.713,0.688004,-252.588,22.136,-46.5632,-490.01,-55.8703,-47.8655,-613.795,-194.549,110.517,-487.979,-56.3436,371.784,-437.991,-172.913,206.78,-537.156,-337.206,-175.109,-429.487,-7.71838,-327.659,-207.445,110.199,-205.403,-105.765,-55.8519
8,5.46216e-08,2.86193e-07,2.36399e-07,-129.74,-14.5551,38.6056,-142.884,448.525,122.399,-101.233,823.434,367.516,129.588,15.3615,-38.1118,194.632,483.199,13.8474,241.248,910.882,174.101,0.46225,-250.717,26.3386,-57.7985,-490.55,-43.9489,-75.734,-611.983,-177.807,97.815,-480.325,-68.2882,357.461,-407.352,-222.554,212.6,-501.206,-415.362,-179.835,-422.329,16.1685,-306.088,-181.118,104.132,-187.62,-100.524,-103.872
9,-3.59579e-08,3.89638e-07,-1.36008e-07,-125.189,-18.4322,63.7974,-137.31,442.539,156.667,-83.2242,824.891,390.776,125.137,19.7265,-64.0355,191.012,487.218,7.87122,262.826,907.845,170.068,15.1061,-260.472,12.5327,8.24203,-510.846,-37.2405,-46.5073,-644.117,-122.315,147.604,-479.154,-88.7647,379.824,-438.974,-247.55,189.094,-564.499,-367.06,-111.206,-500.775,53.6218,-357.316,-495.367,104.423,-298.119,-638.229,-18.3913
10,-3.17819e-07,6.8759e-07,-2.13598e-07,-128.558,-22.3239,59.4652,-132.948,440.251,141.501,-81.3428,831.806,365.109,127.739,24.3289,-59.8851,195.797,491.879,8.51825,269.399,918.311,172.942,11.4606,-261.36,3.99557,-8.90393,-509.235,-50.4621,-53.2561,-659.568,-117.785,135.566,-480.821,-107.026,354.042,-407.478,-282.423,177.723,-539.512,-423.365,-132.224,-496.177,43.2963,-391.51,-474.573,79.5347,-301.489,-613.041,-44.2556
11,9.33969e-08,-1.81228e-07,-1.32396e-08,-127.876,-22.0899,50.3459,-118.56,414.028,160.494,-70.6053,827.439,340.055,127.851,21.4477,-50.6286,152.607,468.571,41.4794,206.917,888.449,194.239,13.2345,-251.773,-36.7996,5.38437,-497.364,-102.556,-25.056,-686.591,-143.76,173.055,-492.298,-135.709,428.95,-432.363,-199.412,609.375,-418.601,-393.445,-140.49,-501.451,-8.12695,-370.948,-446.242,157.992,-618.787,-436.001,179.11
12,1.23225e-07,9.57146e-08,5.50099e-08,-113.579,-22.5623,73.6106,-173.464,426.574,125.286,-109.96,790.568,395.85,113.781,22.8908,-73.8026,87.7064,475.388,-18.1708,139.778,855.13,200.021,32.9238,-239.279,38.4081,-40.2812,-483.434,27.0227,-109.345,-640.25,-40.2919,78.1064,-448.065,-42.1865,239.245,-223.189,-94.1759,325.295,7.43463,-182.024,-125.03,-390.722,120.9,-170.6,-120.579,203.236,-260.174,82.9695,227.204
13,-6.93289e-07,8.47952e-07,-2.40448e-07,-119.691,-18.3596,69.1711,-140.475,441.489,133.608,-28.0022,820.904,337.91,117.92,20.5671,-69.7243,26.9555,482.576,-79.6869,24.0275,948.94,-14.7943,-4.57642,-248.059,16.5047,-125.872,-467.792,-30.354,-195.246,-605.105,-116.748,10.1101,-465,-96.0443,199.096,-320.356,-291.272,-42.0486,-418.782,-349.118,-208.279,-377.415,58.1428,-276.422,-112.814,111.017,-342.83,-207.001,-58.1454
14,-1.10523e-06,1.32894e-06,-4.62888e-07,-98.1264,-7.38231,91.4487,-168.837,441.8,126.929,-16.9271,775.193,359.122,95.0183,10.7088,-92.6853,-10.8534,455.457,-85.788,4.38483,927.165,-8.18567,-21.7549,-233.011,38.9668,-140.414,-450.345,43.767,-214.419,-579.09,-15.4777,-20.8242,-451.045,-47.3433,149.426,-353.8,-264.597,-67.0936,-467.021,-284.458,-198.204,-355.016,141.539,-226.766,-84.4427,215.184,-329.275,-175.034,46.3949
15,-3.20311e-07,4.3992e-07,-2.02139e-08,-129.144,-19.0667,32.7162,-130.228,438.847,77.9785,-77.2599,852.508,251.177,128.363,20.1809,-32.6186,162.645,472.036,25.7652,146.903,861.738,255.109,1.71397,-245.955,-51.0831,-69.3712,-444.364,-189.502,-103.424,-597.858,-292.546,86.5208,-416.512,-190.49,263.644,-197.904,-89.0068,142.472,0.567505,-199.966,-195.221,-378.989,-110.102,-282.159,-141.203,38.2457,-302.84,49.1337,-122.38
16,2.86024e-07,-1.40578e-07,2.25536e-07,-130.184,-16.8633,38.3769,-128.665,448.389,102.885,-86.7567,845.804,311.418,131.004,16.5046,-37.5052,170.644,475.453,69.9719,194.47,885.168,268.355,-1.76329,-257.286,-12.2296,10.2331,-502.735,-80.0182,-56.538,-667.119,-146.901,155.604,-448.617,-97.4461,380.554,-260.394,-91.9734,218.835,-99.7485,-233.965,-128.945,-499.324,1.29828,-398.172,-533.391,122.495,-487.791,-467.304,-60.0394
17,1.25973e-07,-1.97591e-07,1.70127e-07,-130.418,-13.4251,32.3998,-109.147,449.456,95.7039,-52.5179,854.801,273.347,130.931,13.0069,-31.627,187.226,471.111,49.5282,227.235,888.586,221.422,-17.0664,-254.158,-41.9124,-25.0735,-491.961,-131.86,-87.0838,-652.406,-193.014,124.115,-442.026,-138.225,341.304,-245.977,-74.6963,155.314,-83.1325,-170.925,-168.385,-481.498,-57.2017,-455.302,-488.087,21.2874,-432.812,-398.415,-167.166
18,-3.55545e-07,5.37944e-07,-1.39175e-07,-135.301,-23.1131,36.577,-155.893,438.537,126.48,-140.959,861.538,305.326,134.093,24.2708,-37.0572,150.381,483.787,85.1738,162.593,888.866,301.203,14.6537,-264.628,-26.7949,8.99982,-507.024,-105.2,-43.618,-682.302,-177.882,163.765,-492.945,-134.792,431.152,-467.311,-223.557,384.226,-381.243,-448.302,-128.097,-512.849,-11.5966,-412.565,-582.333,101.758,-463.734,-530.402,-118.553
19,-2.92089e-07,4.40251e-07,-5.69243e-08,-137.237,-23.2723,38.7368,-155.445,440.655,123.916,-120.959,858.406,309.498,136.272,24.1266,-38.9222,147.102,484.334,77.8224,160.372,897.35,282.274,15.7025,-262.155,-30.0192,11.8273,-502.864,-107.077,-36.8577,-680.737,-183.113,163.69,-487.499,-130.505,457.278,-475.257,-192.145,414.847,-350.353,-421.503,-122.313,-507.85,-14.2903,-407.415,-561.268,103.281,-515.841,-480.159,-106.714
20,4.32121e-08,5.73713e-08,7.79689e-08,-131.1,-20.9069,37.7448,-114.357,436.47,93.7021,-47.468,843.231,272.337,131.42,21.1214,-37.2627,174.031,471.709,42.4263,228.594,869.365,248.415,10.775,-255.848,-25.6378,0.165588,-497.11,-108.372,-48.2926,-672.119,-166.423,154.82,-451.12,-129.165,332.779,-229.016,-75.2367,163.373,-157.079,-226.53,-143.326,-480.179,-18.5704,-357.691,-348.852,137.877,-393.876,-240.047,-59.0515
21,-6.37263e-07,6.47397e-07,-3.96008e-07,-121.332,-23.4515,74.5533,-203.033,404.207,131.519,-233.608,818.415,269.787,119.484,25.1927,-75.6221,107.022,451.897,45.8244,116.664,861.065,230.78,24.157,-249.746,-20.1517,55.4895,-490.387,-100.252,-20.282,-651.934,-115.883,179.154,-418.648,-167.102,265.953,-148.234,-209.011,27.6559,-122.583,-196.871,-71.536,-499.158,3.26294,-334.916,-442.998,-7.91895,-245.617,-600.707,-118.534
22,-4.08415e-07,3.74241e-07,-2.56973e-07,-121.399,-23.6168,69.6613,-191.791,408.006,144.179,-215.395,819.694,291.285,120.191,24.681,-70.3361,114.538,454.15,66.9442,123.881,860.069,262.477,22.7709,-247.654,-20.965,55.87,-488.065,-103.219,-16.1689,-647.61,-139.161,176.987,-408.599,-160.589,274.153,-135.855,-190.302,27.7469,-119.777,-194.134,-71.5844,-493.534,-5.2674,-333.568,-435.942,-4.67273,-255.791,-597.607,-109.65
23,-9.79796e-08,1.10429e-07,1.72361e-07,-131.254,-16.7913,44.868,-95.1588,454.85,118,-34.9505,879.504,282.744,131.064,17.1184,-44.2568,168.011,490.3,-39.2291,223.783,917.874,120.127,-6.44606,-254.776,-34.1766,-69.3878,-466.843,-164.975,-113.511,-640.899,-225.893,75.989,-416.491,-182.47,257.589,-177.167,-135.748,43.329,-60.994,-248.911,-183.711,-416.655,-75.1163,-305.673,-197.385,86.0416,-270.083,-26.7888,-96.8907
24,-3.67334e-07,6.65234e-07,-4.4234e-08,-138.16,-16.9715,55.151,-126.259,421.724,159.16,-75.8724,801.938,365.989,137.064,18.4986,-55.3051,169.604,461.236,37.9547,201.105,877.678,196.713,16.7162,-257.589,-22.9944,2.36917,-500.517,-84.6434,-46.0479,-681.394,-150.57,160.874,-488.068,-116.809,439.526,-392.82,-175.934,372.299,-538.649,-394.289,-130.845,-494.924,10.918,-381.169,-415.142,134.235,-488.276,-554.573,2.59473
25,3.02367e-07,-1.12563e-07,2.47481e-07,-126.299,-24.2896,62.9433,-94.0045,434.952,105.766,14.0145,837.554,276.542,127.373,23.9868,-61.9257,171.555,487.436,-74.3413,265.049,870.822,143.08,27.6181,-258.84,10.4229,20.3704,-504.914,-50.2168,-22.8376,-675.721,-118.536,160.659,-464.75,-92.9996,388.931,-286.815,-136.608,233.738,-332.975,-321.403,-106.872,-477.792,48.0641,-351.655,-362.375,160.2,-382.721,-420.495,-45.9194
26,-7.91698e-07,5.10902e-07,-3.25597e-07,-60.9463,-25.9871,123.294,-227.239,352.733,157.141,137.649,579.283,267.758,59.2998,26.8782,-123.641,-271.699,317.268,-162.494,-180.189,703.265,4.34149,-32.6073,-232.389,-65.2688,-94.4478,-440.01,-190.43,-141.818,-609.938,-279.735,-3.6228,-366.055,-293.024,83.9692,-89.4402,-260.451,-110.397,40.4284,-280.349,-151.439,-445.031,-27.4839,-157.644,-250.877,144.337,-191.903,-68.6669,-44.3764
27,-1.903e-07,-1.52467e-07,-6.04129e-08,-73.0512,-22.7202,116.847,-288.028,361.567,91.4775,77.9656,500.555,222.565,73.4051,21.3266,-116.142,-218.171,307.05,-218.048,-123.858,646.873,-47.5648,-82.9279,-216.819,-90.7111,-205.751,-386.85,-227.92,-262.947,-552.704,-302.959,-85.4353,-332.244,-320.892,72.1255,-72.024,-307.812,-105.111,40.8323,-377.146,-276.1,-363.538,-74.9641,-260.564,-144.53,86.3543,-264.387,15.4625,-106.01
28,-2.12048e-07,2.7078e-07,7.9036e-08,-138.177,-10.7693,11.4597,-138.354,463.961,73.4104,-73.4151,842.122,306.221,137.512,11.5166,-11.2357,207.392,473.799,33.9587,172.191,853.752,281.965,-8.81049,-255.903,-1.76477,-59.2027,-484.118,-94.2881,-78.2222,-665.006,-171.104,93.3555,-438.43,-101.554,252.652,-187.484,-114.969,47.3036,-92.7723,-231.903,-187.865,-417.969,-37.6147,-309.799,-168.767,66.9976,-219.636,-58.3054,-109.53
29,9.51532e-08,-1.25443e-07,2.66162e-08,-131.014,-4.76553,-30.5142,-136.335,459.819,67.1748,-164.049,851.46,299.014,130.975,4.42061,30.3728,199.965,466.7,137.052,197.203,868.236,345.359,-39.3448,-251.642,29.9357,-56.7296,-495.175,-40.0064,-89.5056,-652.348,-133.726,89.777,-446.594,-22.8982,233.609,-197.609,-64.7523,85.5363,-92.1602,-227.828,-198.904,-434.002,-23.0611,-360.475,-192.07,1.73749,-186.543,-82.3456,-133.491
30,-4.45396e-07,2.9505e-07,-3.69364e-07,32.0655,-39.4411,119.242,-194.496,349.504,229.032,-250.228,779.994,351.106,-33.3418,40.1452,-120.334,-51.9521,463.857,14.8892,163.324,839.286,115.104,92.1686,-213.766,-67.1083,79.4687,-456.887,-125.664,-7.33759,-622.403,-145.661,50.5572,-380.617,-244.258,4.75946,-117.892,-308.052,-120.722,-125.452,-175.907,124.216,-422.545,19.0307,68.1001,-197.789,173.048,-93.456,-252.937,93.2413
1,-6.4768e-07,8.49104e-07,-2.50202e-07,-119.192,-17.0896,77.5072,-140.486,424.832,186.013,4.92352,742.037,479.588,117.354,19.4572,-78.1447,32.8293,475.797,-71.5039,22.1999,920.626,0.839905,25.0188,-249.384,21.4703,-58.2362,-488.994,-3.33765,-139.954,-656.372,-72.5228,75.4143,-475.562,-82.6797,240.031,-307.369,-255.064,27.4102,-367.94,-383.382,-154.69,-411.684,100.921,-299.914,-173.197,183.381,-372.048,-186.812,-18.6242
2,-1.05639e-06,9.89633e-07,-5.66448e-07,-63.2293,-15.736,115.091,-161.386,421.158,109.458,80.4576,768.36,275.978,60.4773,18.753,-116.471,21.4517,447.696,-148.324,102.143,910.858,-122.836,-18.2983,-232.866,-20.0103,-31.0765,-463.051,-124.638,-93.0417,-621.206,-199.754,40.2105,-386.339,-211.485,151.64,-111.578,-260.27,61.7,-38.7131,-545.09,-61.0861,-474.794,24.9135,-82.2186,-466.552,253.28,-155.674,-528.596,163.342
3,8.14327e-07,-6.22736e-07,6.63037e-07,129.165,-5.46397,-55.9338,132.135,450.911,25.7046,83.2203,894.6,46.4915,-126.826,3.59425,57.7551,-115.154,447.308,184.292,-164.7,895.693,167.572,-17.7737,-243.684,-75.8233,-41.7325,-493.141,-140.696,-4.46954,-690.26,-123.537,-209.125,-479.173,-105.303,-468.358,-491.651,0.462524,-630.704,-565.129,166.797,101.727,-455.519,-227.248,348.097,-401.25,-320.85,582.094,-430.401,-379.566
4,7.60978e-07,-4.94062e-07,6.71546e-07,126.494,-5.32825,-55.3377,138.097,450.436,27.4816,86.9163,896.572,48.1237,-124.35,3.79199,57.1213,-114.27,450.334,179.538,-159.486,902.699,162.788,-10.0456,-245.505,-63.6548,-27.7766,-496.222,-125.832,5.06726,-694.149,-124.198,-196.01,-485.193,-89.6555,-445.215,-512.202,29.5007,-632.622,-593.431,183.989,116.962,-456.557,-209.336,369.762,-401.318,-288.524,625.357,-425.958,-340.388
5,4.82788e-07,-5.56996e-07,3.38898e-07,119.446,5.80467,-57.3999,230.574,383.367,153.406,231.248,822.471,199.634,-118.16,-7.52449,58.1796,-88.9222,431.173,131.339,-139.809,860.454,22.684,-18.0101,-208.664,-103.383,-12.1571,-458.387,-137.098,19.0036,-627.782,-161.178,-131.023,-406.71,-64.3026,-184.126,-198.955,117.948,-121.143,-53.0882,315.795,104.641,-376.323,-172.852,247.044,-159.125,-69.0667,389.662,-58.1044,116.125
6,1.22754e-06,-1.3231e-06,9.0852e-07,123.287,4.04205,-70.0966,183.845,418.264,90.8217,123.693,838.499,45.0868,-119.746,-7.66944,72.5765,-82.6379,421.251,209.147,-137.751,851.362,161.62,-39.1067,-218.876,-116.47,-37.7885,-464.829,-171.67,-8.40179,-665.185,-185.079,-168.218,-418.695,-91.3458,-247.236,-214.444,75.2072,-215.149,-118.461,261.088,82.3607,-369.224,-231.009,226.325,-117.524,-170.237,362.058,24.5502,-69.0195
7,-4.11869e-07,5.49053e-07,-2.80805e-07,134.118,-8.93433,-35.8091,128.283,433.621,76.6371,97.0349,881.102,110.088,-135.125,10.4166,35.3146,-163.47,433.202,203.751,-222.577,886.657,234.391,-11.5312,-240.466,-84.0112,-28.7649,-488.909,-103.74,30.027,-686.587,-66.9777,-173.955,-436.42,-59.4749,-301.814,-200.825,66.8814,-78.9557,-138.417,155.169,126.968,-466.754,-154.34,397.005,-525.57,-84.3272,424.403,-550.603,148.447
8,-4.2876e-07,4.70497e-07,-3.17804e-07,131.915,-3.61786,-55.3035,158.284,440.555,48.6666,163.353,898.165,55.062,-132.871,4.84953,54.7912,-116.382,438.719,191.46,-166.569,886.517,179.239,-23.5577,-239.872,-82.194,-26.5829,-485.653,-120.266,23.9641,-677.564,-60.5848,-184.674,-483.343,-87.5922,-417.563,-558.602,48.8422,-307.45,-561.755,159.56,117.28,-458.715,-190.928,377.221,-472.945,-213.359,336.042,-521.092,12.4868
9,-6.20782e-07,6.21416e-07,-3.4807e-07,130.041,-5.9817,-53.9844,173.642,436.157,39.6388,183.558,897.568,51.6243,-131.682,7.60176,53.1814,-106.808,443.083,161.524,-139.648,902.064,153.698,-24.7749,-237.834,-86.9534,-39.3953,-482.637,-142.11,-13.5366,-683.674,-151.344,-197.097,-470.55,-106.548,-436.02,-507.456,35.0009,-299.812,-520.21,137.136,110.053,-455.298,-202.646,374.06,-444.846,-236.357,453.403,-486.834,1.02863
10,1.03044e-06,-8.44722e-07,7.28066e-07,136.546,-5.98146,0.508698,138.084,409.676,166.949,89.9443,837.001,111.984,-133.788,3.78636,1.51016,-201.35,363.32,287.032,-209.009,804.694,330.296,38.0769,-226.903,-93.0863,58.864,-476.379,-80.5263,80.6553,-653.668,-65.2712,-96.5726,-435.466,-77.4926,-299.995,-299.272,60.3831,-318.305,-302.321,293.609,192.327,-386.34,-83.3104,324.062,-155.042,3.14191,161.461,-180.312,197.383
11,9.69182e-07,-8.77598e-07,7.08336e-07,135.426,-8.17764,11.9939,157.935,437.379,83.215,187.253,878.101,24.929,-132.788,5.77457,-9.91039,-196.332,410.266,206.156,-212.807,823.256,366.665,63.3244,-223.461,-69.6981,115.042,-463.326,-66.9256,178.064,-616.578,-35.4891,-28.8769,-446.232,-93.9566,-266.663,-332.538,-105.238,-442.342,-316.741,26.9438,225.644,-363.936,-43.8322,213.317,-172.182,177.161,8.20312,-235.945,166.146
12,-2.48028e-07,4.0815e-07,-2.83696e-09,128.306,-0.283142,-55.9004,154.602,432.811,79.2836,122.629,883.72,113.332,-129.002,1.369,55.906,-111.324,425.24,220.342,-159.253,883.95,222.4,2.25688,-233.464,-76.0522,28.2424,-482.35,-72.6621,89.5493,-663.457,-29.5749,-113.157,-453.628,-11.5314,-253.574,-234.973,130.975,-96.0419,-375.789,242.344,151.834,-394.916,-136.708,278.681,-139.496,-89.9984,342.026,-318.543,60.1174
13,4.3495e-08,5.79131e-08,1.88064e-07,120.918,2.38127,-65.5486,162.769,425.264,83.1281,132.367,870.981,95.1259,-120.557,-2.1181,66.2614,-94.9504,431.039,190.385,-133.062,883.56,186.057,-22.7122,-217.452,-108.75,9.09088,-464.876,-132.267,74.9066,-643.993,-112.55,-121.758,-433.29,-59.6619,-261.875,-231.518,95.1993,-149.524,-372.058,244.003,117.7,-368.257,-196.14,226.81,-109.211,-161.07,360.43,-249.422,-61.978
14,5.43311e-10,-8.14606e-08,7.60892e-08,120.392,0.870605,-73.9596,165.961,420.504,91.5405,141.77,869.498,127.755,-120.342,-1.11258,74.1975,-99.7599,427.737,222.914,-149.895,878.183,239.533,-23.0844,-240.851,-78.5847,39.3875,-483.955,-75.0323,101.853,-674.994,-63.1312,-100.387,-461.359,0.702759,-243.572,-243.235,126.987,-67.8928,-200.893,271.119,146.954,-381.512,-148.754,241.03,-117.712,-121.463,411.271,-153.251,64.6234
15,8.53495e-09,-2.23867e-07,-1.61162e-07,134.052,-7.73582,17.4648,150.344,430.461,148.88,216.677,862.689,57.051,-134.026,6.98695,-17.8394,-154.859,441.069,162.706,-40.2061,864.551,91.9398,52.3519,-224.533,-96.7648,139.43,-461.228,-104.122,178.026,-644.039,-56.5944,-23.4852,-464.445,-87.0106,-167.675,-312.662,100.969,16.8416,-394.186,91.3126,269.188,-339.408,-101.719,301.899,-68.1986,-46.3769,271.495,133.049,73.4261
16,-1.56951e-07,3.38919e-07,-1.40346e-07,71.1668,15.7052,-119.11,173.161,431.418,33.8839,87.3707,875.29,67.2774,-71.524,-14.9151,118.998,-75.6088,406.092,268.624,-389.435,773.521,261.485,-23.8881,-244.379,-65.3387,0.18808,-495.921,-76.2899,86.8557,-678.647,-56.1862,-83.7115,-478.157,65.2739,-43.699,-246.456,261.659,83.0386,-388.541,161.647,73.8378,-421.07,-203.968,235.361,-193.555,-161.143,174.363,-391.942,-49.8229
17,6.45488e-07,-7.17794e-07,6.19528e-07,52.2039,18.7814,-125.618,88.5768,434.628,18.9924,-163.945,814.695,41.6529,-50.7694,-20.8938,126.941,196.416,332.515,308.418,310.871,731.878,469.971,-44.6877,-223.681,-48.4032,-10.8065,-468.737,-63.1986,59.7272,-625.64,-91.784,-67.4465,-418.905,64.9554,-95.0878,-230.145,244.958,70.5743,-209.288,170.787,14.8553,-391.85,-175.828,7.0191,-138.297,-243.355,145.285,-104.445,-102.131
18,-6.41776e-07,8.49951e-07,-2.55633e-07,65.4556,18.8897,-114.804,256.753,378.961,-5.1076,-139.077,521.54,-239.863,-67.7612,-17.2185,113.774,285.114,144.735,389.882,176.403,554.161,388.667,27.173,-232.64,-12.5463,139.376,-451.188,-14.1902,224.762,-609.773,-25.4033,62.9784,-425.894,107.186,-4.5191,-211.959,276.148,172.143,-128.928,273.805,170.342,-368.195,-121.159,155.338,-94.5219,-180.177,230.233,-159.55,-3.98676
19,4.51456e-07,-5.69198e-07,2.17717e-07,106.615,20.0782,-76.1842,167.13,420.411,123.681,-87.2314,796.913,85.3004,-105.27,-21.8687,76.9356,7.6225,319.443,369.091,-152.687,709.43,184.167,44.0417,-227.807,-54.7842,108.784,-470.255,-18.8557,163.949,-629.646,-15.1227,-15.1254,-437.537,58.853,-136.813,-211.208,169.743,56.5026,-194.238,222.482,191.895,-386.285,-110.209,249.847,-129.07,-164.601,296.031,-199.097,28.6306
20,-1.49761e-07,3.94379e-07,6.09863e-08,124.77,-2.23343,-69.2429,206.234,430.147,34.4426,233.092,879.991,65.3624,-125.242,3.24886,69.462,-90.8685,451.158,142.367,-104.993,905.125,121.654,-23.5278,-240.203,-74.5644,-54.7689,-488.401,-85.9328,5.40417,-673.127,-78.1643,-180.102,-432.687,-7.14917,-248.901,-171.272,134.232,-39.4865,-206.896,224.857,85.0518,-455.449,-171.457,360.222,-427.95,-125.983,324.506,-643.864,5.39294
21,1.99522e-07,2.5495e-08,2.75653e-07,124.754,0.622879,-70.7393,200.534,427.187,44.1476,221.989,873.275,80.7777,-124.182,-0.571579,71.6011,-101.779,444.293,145.886,-112.617,896.593,134.237,-22.7471,-243.206,-70.6399,-51.5834,-492.598,-72.3412,12.4341,-678.662,-62.588,-181.025,-436.751,7.96783,-239.856,-178.688,156.914,-35.0116,-201.802,239.432,89.2683,-462.575,-162.529,367.288,-442.057,-118.888,292.924,-631.509,-0.808167
22,-9.55114e-08,1.18648e-07,-2.75794e-08,125.042,-2.38559,-64.0994,206.212,433.205,31.8651,226.934,881.327,59.0709,-125.203,2.68503,64.0546,-94.323,447.719,139.763,-105.194,902.438,122.399,-24.845,-229.754,-84.4606,-37.9839,-481.317,-95.155,-9.65802,-673.747,-78.8737,-164.373,-423.209,-25.8877,-255.732,-170.052,101.222,-45.4521,-199.668,199.97,95.2303,-417.861,-161.521,302.076,-223.52,-122.902,363.066,-372.328,72.8948
23,4.03378e-07,-3.20305e-07,1.28804e-07,138.428,-4.0576,-25.5779,149.281,444.283,77.256,119.209,891.39,70.0103,-137.29,3.14984,25.9691,-178.912,421.915,209.735,-216.413,873.412,200.466,-5.16974,-237.809,-104.471,21.934,-480.182,-137.995,39.6977,-661.766,-88.2504,-145.259,-478.858,-121.901,-372.769,-511.848,42.6686,-246.928,-659.75,109.88,165.922,-403.73,-169.382,319.928,-150.401,-166.49,251.758,-171.307,103.571
24,3.76551e-07,-2.89826e-07,1.39006e-07,136.818,-10.0181,-27.4373,153.706,446.303,42.8472,140.579,892.855,16.3278,-135.727,9.15559,27.8912,-162.933,427.721,214.498,-209.807,884.331,242.797,-9.66365,-229.113,-114.658,32.2562,-471.094,-157.705,63.6332,-650.804,-105.285,-127.22,-466.355,-131.933,-355.84,-485.284,33.021,-223.171,-650.202,127.721,164.518,-383.802,-190.937,290.584,-120.756,-191.41,215.483,-165.204,77.1829
25,-9.86433e-08,3.12962e-07,1.30851e-07,120.773,9.99622,-69.4842,168.029,446.995,29.1279,137.405,902.172,1.25562,-120.911,-9.15299,70.0795,-134.712,426.889,197.386,-199.629,880.053,212.3,-13.7735,-227.804,-98.2666,-33.9047,-469.913,-169.304,29.5485,-649.284,-148.555,-176.861,-462.979,-99.0149,-366.993,-533.262,113.073,-253.957,-676.407,21.4991,95.639,-430.352,-258.74,368.314,-404.522,-300.591,288.884,-593.543,-251.455
26,-2.27875e-08,2.81286e-07,1.62003e-07,120.719,9.70073,-67.6093,169.997,447.102,37.4326,136.67,896.593,13.9132,-120.725,-9.06483,68.1756,-139.885,424.483,207.865,-198.552,876.475,229.746,-10.588,-228.226,-99.1149,-18.466,-471.815,-167.89,48.7441,-646.212,-159.24,-162.452,-466.15,-98.3594,-351.59,-493.989,112.852,-217.856,-658.623,28.2642,111.764,-425.935,-253.483,393.084,-371.253,-278.915,318.533,-589.346,-217.917
27,5.7428e-07,-3.27796e-07,5.51806e-07,130.952,-6.00854,-48.1731,147.032,444.966,45.1206,119.78,878.209,59.7374,-129.354,4.70439,49.5802,-125.604,445.823,172.294,-178.636,890.593,156.123,-12.7842,-251.763,-60.5294,-20.9827,-501.228,-113.436,12.2222,-705.806,-98.5598,-197.976,-496.59,-86.1906,-457.798,-477.554,11.6095,-646.901,-520.836,134.28,128.411,-462.226,-199.296,372.705,-357.945,-300.855,617.675,-372.094,-353.336
28,2.67094e-07,-3.4492e-07,3.13653e-07,111.431,15.6601,-82.4491,199.255,425.461,83.2308,130.999,835.006,29.8928,-110.372,-16.5939,83.5385,-39.1805,399.852,254.749,-97.08,829.082,188.704,-37.5115,-203.932,-128.534,19.3841,-437.022,-212.725,89.2836,-612.393,-228.5,-105.053,-434.03,-122.195,-237.888,-260.553,47.8707,-282,-110.576,231.737,108.818,-326.256,-277.118,156.419,-39.2075,-249.129,281.159,170.264,-209.866
29,-5.31184e-07,6.09004e-07,-1.62086e-07,112.675,16.7903,-69.634,176.181,398.458,140.627,76.2878,822.895,92.9843,-114.014,-15.0748,69.3958,19.6897,334.005,330.792,13.7369,789.925,382.489,21.6387,-215.261,-82.5468,126.178,-444.882,-122.39,194.66,-603.076,-123.493,-8.83978,-463.816,-60.3086,-173.272,-375.222,155.876,26.0509,-454.683,228.116,216.747,-325.465,-157.036,257.756,-57.8976,-57.3543,316.709,-191.61,77.5295
30,-6.3744e-07,7.70013e-07,-2.66385e-07,103.606,30.3525,-80.8569,195.882,419.526,138.156,48.7599,805.404,34.5266,-105.076,-28.2613,80.5083,59.3788,320.347,323.903,57.4922,784.119,334.637,-7.08408,-187.976,-141.85,136.725,-392.979,-223.708,217.641,-541.262,-233.001,26.1664,-432.075,-140.428,-115.913,-372.213,98.7475,65.8927,-362.409,143.776,198.965,-268.169,-257.78,232.73,-9.13031,-143.156,320.068,-154.941,-46.6404
1,-2.21706e-07,2.0657e-07,-1.19604e-08,132.2,5.23587,-39.0977,173.581,410.124,162.155,126.364,856.006,180.452,-132.856,-4.58861,39.0166,-111.546,424.451,198.113,-109.707,867.704,179.284,12.3829,-243.185,-27.4092,53.7426,-482.27,30.5456,98.261,-659.656,67.6045,-92.7861,-449.836,59.5883,-248.453,-210.51,120.727,-127.682,-109.165,280.442,177.022,-398.649,-15.8301,276.337,-132.169,-35.905,298.75,-34.2404,182.621
2,-6.10874e-07,6.71084e-07,-4.27581e-07,128.192,-7.25364,-46.6603,156.464,419.178,107.871,126.131,875.398,113.142,-129.77,8.98274,45.6726,-124.438,445.498,171.306,-156.648,895.024,109.974,-12.0969,-235.528,-90.1907,-26.1131,-481.726,-130.755,30.8826,-678.257,-102.254,-172.033,-453.638,-75.323,-346.737,-297.074,92.155,-181.711,-154.863,192.796,121.292,-450.749,-192.059,394.3,-482.773,-164.591,481.153,-541.069,96.4558
3,-2.30831e-07,2.74359e-07,-2.39939e-07,132.134,-2.25558,-36.9668,142.365,426.842,108.548,103.905,871.865,119.741,-132.487,3.01349,36.6656,-145.814,436.482,180.745,-182.45,885.371,160.493,4.65202,-236.164,-75.7563,11.5221,-486.433,-108.862,66.6803,-674.526,-86.7324,-134.675,-455.773,-70.4656,-297.647,-271.977,31.6326,-141.691,-130.81,131.241,158.014,-446.629,-157.245,416.197,-431.989,-77.3272,430.341,-498.173,168.228
4,-4.49925e-07,4.99262e-07,-3.42327e-07,132.901,-7.92122,-46.4514,168.741,421.744,86.3695,175.62,883.946,120.432,-133.906,9.10176,45.8494,-101.186,447.145,147.144,-113.804,907.208,126.556,-23.9835,-238.495,-86.5269,-35.5086,-484.859,-122.326,13.4514,-683.569,-80.1492,-196.27,-475.744,-94.2556,-427.116,-534.192,53.3531,-327.707,-564.279,170.669,113.72,-464.229,-188.117,381.644,-487.247,-248.396,436.205,-513.321,-10.7747
5,-2.42004e-07,2.92837e-07,-2.49914e-07,131.942,-8.20176,-43.9601,167.027,420.027,105.715,165.039,878.766,125.448,-132.321,8.94861,43.673,-96.9448,449.233,153.286,-110.634,903.895,107.834,-17.0593,-237.098,-89.2983,-21.5102,-484.085,-130.624,19.1882,-674.1,-108.156,-176.024,-468.734,-102.625,-418.879,-497.249,22.9713,-360.621,-490.62,165.287,121.088,-454.485,-193.302,396.855,-463.543,-253.124,459.009,-506.157,-16.4257
6,-5.35341e-07,7.08525e-07,-4.30405e-07,131.308,-6.1706,-51.422,139.732,426.474,93.0508,86.4388,873.453,99.1562,-132.582,8.1178,50.4328,-150.904,446.728,178.736,-198.419,895.735,135.741,-31.4314,-241.567,-68.9147,-27.6979,-491.995,-87.5343,22.6442,-683.871,-62.5941,-177.547,-472.046,-30.1007,-325.173,-249.553,90.9227,-131.684,-244.742,227.457,111.05,-440.688,-171.855,305.63,-242.681,-251.363,363.107,-274.187,-11.5444
7,3.55214e-08,1.9044e-07,2.0785e-07,110.76,0.402176,-81.0555,231.525,422.935,27.2584,277.502,872.206,51.4971,-110.719,0.308868,81.6096,-54.9229,448.823,144.313,-68.0392,901.62,106.791,-26.0479,-231.253,-80.01,-64.2102,-482.906,-94.6388,0.203735,-650.08,-101.073,-184.753,-424.891,-10.8417,-239.807,-183.215,128.712,-12.6926,-252.379,157.389,71.7419,-451.501,-179.862,353.154,-444.552,-138.222,263.88,-633.014,-57.3732
8,-1.69825e-07,3.95768e-07,7.14236e-08,115.672,0.53949,-78.8097,225.86,426.696,31.1841,264.839,874.524,50.3835,-116.165,0.715485,79.0327,-61.7821,447.787,154.242,-76.3974,899.553,122.846,-32.6844,-230.894,-82.2897,-67.1107,-481.559,-95.0079,1.01501,-651.451,-91.0113,-188.062,-424.986,-14.2431,-250.585,-170.463,116.849,-21.9312,-237.265,189.018,69.2,-450.959,-181.473,348.918,-437.29,-154.171,299.005,-621.392,-39.8342
9,3.01621e-07,-3.12553e-07,2.19117e-07,133.963,-1.14203,-50.8227,124.945,434.777,78.0854,78.011,870.806,131.493,-132.947,0.374573,51.5551,-130.435,414.107,252.823,-180.881,855.256,287.798,7.77951,-251.859,-49.5505,53.093,-496.412,-31.9725,114.531,-690.624,-31.9563,-101.347,-468.889,20.652,-244.034,-235.243,104.706,-54.509,-181.286,220.573,177.295,-410.365,-107.508,291.143,-159.27,-156.003,306.29,-83.3854,67.476
10,-1.96667e-07,3.88179e-07,-7.77808e-08,128.004,-1.19025,-59.0147,145.619,444.408,47.195,103.033,898.193,50.6669,-128.303,2.14017,59.0338,-117.742,444.757,179.174,-162.711,896.361,153.764,-18.1306,-239.028,-87.6994,-20.6285,-485.431,-150.683,25.1406,-679.497,-129.223,-180.38,-486.849,-100.03,-422.751,-444.268,49.0305,-376.172,-677.115,117.125,119.646,-440.564,-232.912,367.59,-335.775,-273.997,431.009,-548.711,-212.629
11,-5.72406e-07,7.9646e-07,-3.74034e-07,120.363,1.25624,-70.1788,132.21,436.598,69.4575,43.1107,877.464,97.9573,-121.544,0.959549,69.5847,-119.179,405.775,276.386,-235.619,850.593,228.525,-27.2892,-238.197,-76.0117,-30.1081,-484.049,-119.679,24.3374,-676.248,-113.701,-174.751,-471.839,-51.853,-376.308,-328.214,117.187,-241.461,-457.635,262.996,99.6175,-428.811,-207.554,331.114,-280.23,-242.847,339.171,-456.513,-52.2086
12,-9.6887e-08,-7.85649e-08,7.27826e-08,78.8711,14.0573,-104.946,223.75,348.976,92.9319,-20.9167,677.245,54.856,-79.3121,-14.5835,104.933,264.53,213.718,331.057,201.425,635.936,229.096,4.34286,-226.239,-5.89188,84.8406,-459.061,29.6071,132.872,-633.536,6.12256,-15.1688,-407.918,126.203,-63.613,-171.986,267.598,145.204,-93.9672,298.183,154.02,-387.016,-66.9796,214.369,-122.155,-120.862,232.493,-178.161,104.535
13,-1.95338e-07,2.15174e-07,-4.05211e-08,86.3305,20.0222,-97.6908,258.384,305.056,115.679,-35.2607,538.775,57.8502,-86.951,-19.9838,97.5274,253.212,97.9497,376.415,164.88,505.673,268.574,56.2136,-222.727,10.9178,175.971,-441.393,58.8069,249.589,-604.133,51.7364,68.838,-428.442,150.167,-52.2264,-213.34,294.113,118.324,-197.552,322.02,232.623,-355.4,-42.866,254.916,-78.8337,-98.4432,265.225,-104.997,117.068
14,3.57252e-07,-2.68792e-07,1.25842e-07,135.425,-1.79585,-35.8852,148.87,421.1,121.064,67.5534,858.529,115.897,-134.237,1.08621,36.371,-155.66,445.518,144.737,-143.905,886.104,62.7076,-11.5129,-222.69,-113.34,16.9198,-471.472,-119.638,61.2447,-659.027,-95.1522,-129.755,-433.103,-64.4022,-245.374,-217.715,101.627,-30.7161,-198.042,178.423,146.488,-384.279,-164.938,281.713,-133.376,-130.331,181.131,-160.399,89.2148
15,1.05932e-07,1.33679e-07,-5.28141e-08,131.167,-16.6459,21.3058,121.228,421.394,110.378,159.367,863.19,49.0139,-130.764,16.9744,-21.315,-183.665,449.188,93.1535,-196.265,900.044,43.2521,11.8054,-198.068,-133.009,14.05,-449.18,-187.533,42.8097,-624.331,-143.904,-122.76,-395.002,-161.141,-242.73,-213.855,36.6907,-47.6611,-202.491,115.95,151.128,-386.06,-184.798,295.497,-173.158,-106.551,142.447,-163.597,68.4843
16,4.22612e-07,-5.68255e-07,3.55863e-07,-4.94006,28.1341,-139.706,227.643,428.433,-70.3994,285.595,858.75,-47.912,6.13251,-29.554,140.54,80.5692,436.381,230.622,-115.545,818.879,320.235,-132.868,-202.85,-56.274,-120.737,-442.151,-138.515,-32.1595,-598.318,-182.426,-92.1355,-406.732,2.56219,53.1764,-236.201,155.637,141.236,-146.886,-17.3222,-155.111,-348.606,-229.775,-190.366,-77.5419,-282.692,72.335,-58.8844,-326.463
17,2.40324e-07,-1.0864e-07,2.89564e-07,108.696,14.8089,-79.5995,202.435,408.577,92.1069,29.491,787.622,-23.9424,-107.796,-15.1251,80.6129,47.4575,335.63,325.055,57.6254,767.709,433.822,0.650513,-216.788,-97.245,59.37,-453.334,-170.062,114.496,-621.771,-180.892,-76.5256,-455.12,-94.9886,-234.608,-382.905,148.729,-15.1613,-436.51,150.53,162.555,-352.493,-219.577,277.077,-121.699,-166.199,358.216,-207.231,35.7435
18,4.91143e-07,-5.13025e-07,3.48544e-07,83.2341,26.6626,-109.903,193.01,397.634,109.53,-32.0255,754.229,100.822,-82.0632,-28.4221,110.914,20.1663,335.156,334.902,-27.3252,749.186,411.241,14.2247,-251.449,-64.8343,36.6116,-503.221,-79.4753,90.6761,-686.968,-94.0145,-51.411,-490.673,50.4512,-129.407,-347.317,264.826,-4.92932,-376.297,303.105,86.3984,-459.909,-225.469,162.038,-388.861,-367.225,242.615,-438.724,-324.304
19,-2.69708e-07,3.60276e-07,-1.25713e-07,-129.603,-7.46005,-51.7622,-152.349,433.277,68.1252,-190.49,829.61,279.519,128.896,8.21027,51.4208,100.737,452.644,176.801,24.17,846.391,392.43,20.3209,-251.513,-52.0797,44.6896,-494.431,-125.812,58.1172,-674.327,-206.713,196.715,-501.786,-44.9602,451.408,-480.547,72.5745,686.699,-494.289,1.27618,-126.53,-487.777,-140.216,-414.95,-449.952,-140.224,-644.745,-439.64,-239.12
20,-2.94804e-07,4.04105e-07,-1.25059e-07,-129.433,-5.77826,-50.2869,-160.303,435.608,77.0384,-204.953,832.738,290.867,128.531,6.58894,49.8521,97.9083,447.561,191.178,28.7565,851.437,394.024,19.0755,-250.169,-53.8999,38.7948,-491.833,-127.65,47.8355,-669.427,-207.151,191.722,-504.672,-50.7718,447.321,-498.041,58.226,678.777,-526.397,-1.28351,-131.643,-484.993,-137.914,-421.12,-441.297,-130.087,-649.851,-433.799,-228.649
21,9.31501e-07,-9.21378e-07,3.51667e-07,-124.134,-13.1666,-47.1085,-124.635,452.845,-64.6167,-205.992,862.322,95.1469,127.235,10.6599,48.5905,74.0084,454.21,202.424,-59.515,778.237,483.768,17.4494,-253.029,-25.6738,28.7201,-480.845,-128.993,26.4744,-646.863,-221.239,157.92,-431.978,-57.6155,262.578,-192.76,58.4199,335.134,22.0801,-23.0132,-116.986,-416.107,-138.405,-233.116,-155.106,-77.9296,-214.082,15.7544,-232.062
22,5.42748e-07,-3.79189e-07,2.33391e-07,-130.536,-8.95132,-40.5409,-160.521,454.341,-0.759888,-228.646,804.894,267.799,132.205,7.96048,41.3867,121.841,474.318,135.718,15.0126,810.662,411.319,-16.9232,-257.602,24.0828,-28.5058,-488.602,-73.6193,-14.8652,-652.64,-183.382,110.585,-448.63,-15.4586,265.664,-207.57,55.7813,362,11.1175,-12.2246,-169.853,-410.046,-79.2242,-271.879,-135.894,-52.455,-310.983,68.7788,-148.556
23,-4.44352e-07,2.53537e-07,-2.13956e-07,-128.638,-7.04311,-57.1149,-155.014,434.907,70.8548,-203.353,823.25,286.572,127.109,7.59332,56.2856,136.163,452.506,177.378,79.3687,820.19,411.793,-11.9421,-259.131,-24.4385,13.5099,-503.204,-84.4377,-9.51172,-674.307,-183.393,151.611,-452.152,0.64447,281.86,-224.634,125.81,187.611,-89.1106,-81.8304,-152.183,-496.138,-106.388,-431.879,-558.183,-207.114,-288.968,-471.739,-352.799
24,-4.07964e-07,3.6739e-07,-9.04199e-08,-136.889,-6.96083,-53.4189,-183.995,445.461,52.8648,-243.936,839.766,240.21,136.062,8.0677,53.4228,113.048,457.257,173.123,34.0161,831.81,394.229,6.9473,-268.602,-33.8873,14.2329,-501.744,-117.124,57.9272,-641.963,-260.208,164.647,-499.411,-39.2838,422.729,-477.453,-6.02661,456.256,-382.628,-218.917,-155.859,-477.944,-127.432,-443.539,-489.066,-220.271,-330.155,-438.844,-424.403
25,-5.3097e-08,-8.72443e-08,-9.26489e-09,-128.347,-9.60516,-50.0938,-180.29,451.417,34.8996,-247.907,860.131,228.93,128.234,9.29703,50.0879,109.368,465.116,177.521,44.7429,861.274,395.369,9.83194,-259.257,-39.9538,25.9969,-508.728,-101.644,24.5391,-678.853,-171.504,172.308,-494.998,-24.5529,445.912,-498.776,9.97546,541.151,-394.052,-220.375,-138.834,-490.464,-111.917,-435.203,-503.884,-171.545,-401.33,-440.064,-382.601
26,-6.35674e-08,2.39222e-08,4.93706e-08,-104.778,18.4711,-104.833,-96.7137,460.416,17.477,-173.34,838.318,252.898,104.784,-18.189,105.181,242.777,432.5,135.3,225.111,843.307,290.691,-61.6384,-256.892,-36.6223,-52.5228,-465.601,-174.881,-9.92487,-626.87,-299.996,62.0304,-487.663,-56.1626,265.432,-346.455,120.775,426.356,-237.3,82.8516,-165.631,-371.085,-227.106,-220.031,-90.6181,-246.402,22.4571,-60.7859,-289.624
27,3.12482e-07,-8.16547e-08,2.42726e-07,-74.0628,24.899,-106.236,-102.505,463.558,4.55646,-283.014,788.334,266.134,75.9306,-24.3668,107.985,220.441,433.142,168.018,244.897,883.119,249.515,-93.614,-232.796,-70.2052,-78.183,-437.526,-214.785,-45.4966,-557.426,-365.279,3.56421,-471.35,-88.1022,210.006,-412.62,98.3618,445.029,-344.477,45.8309,-150.064,-314.219,-283.919,-33.3451,-37.1115,-337.74,166.909,-22.9111,-288.218
28,6.51086e-08,-6.97576e-09,2.92952e-08,-138.935,-5.30502,-48.798,-157.102,442.546,62.5929,-198.561,831.502,247.921,139.563,5.49161,49.2555,127.501,450.02,177.192,66.1631,837.892,379.136,4.2307,-262.182,-31.6635,17.4723,-480.068,-159.686,27.3781,-631.207,-291.589,164.352,-458.725,-92.7653,320.797,-230.296,26.3196,322.999,-277.832,-225.063,-140.669,-426.615,-151.317,-286.735,-165.998,-108.021,-194.059,-250.573,-311.848
29,-1.66666e-08,7.72089e-08,-1.47356e-08,-140.585,-7.99273,-41.6377,-167.703,439.963,47.9745,-228.068,837.008,224.593,141.009,8.4455,42.0182,116.233,453.979,166.786,42.7752,833.948,375.702,3.461,-258.846,-34.2342,4.61038,-477.443,-156.711,-8.92053,-638.311,-287.364,156.178,-459.595,-99.601,333.363,-243.368,22.1248,419.543,-225.738,-221.657,-152.508,-421.398,-135.666,-306.291,-165.215,-83.5347,-283.314,-219.29,-316.022
30,-4.43768e-07,5.43385e-07,-1.7356e-07,-137.583,-10.0605,-44.4378,-159.931,437.941,57.6668,-206.439,834.935,255.764,136.523,11.5702,44.1595,129.628,451.669,179.073,70.9977,837.597,395.016,13.0447,-257.371,-45.9995,0.14859,-469.494,-181.252,-18.3672,-640.693,-296.083,156.742,-455.141,-125.094,302.9,-229.664,6.79236,272.417,-72.0677,-209.93,-155.173,-409.311,-154.813,-301.776,-158.738,-70.4533,-250.769,-78.5614,-283.984
1,5.07021e-07,-9.38107e-08,4.86259e-07,-68.7883,20.0704,-113.672,-78.3165,475.385,-39.8045,-304.788,810.199,138.497,70.2005,-20.7092,115.041,97.0853,438.782,206.521,-48.203,837.415,328.87,-100.3,-230.561,-19.1605,-172.276,-437.088,-150.871,-130.447,-586.373,-248.263,-94.2647,-456.373,-40.2183,100.975,-319.741,2.29279,49.9422,-191.253,-190.784,-234.536,-291.209,-222.476,-226.74,-17.5526,-241.083,-133.762,179.314,-257.186
2,6.16253e-07,-8.5743e-07,7.08186e-08,-114.96,-27.5476,22.9054,-146.427,424.124,55.7812,-154.756,826.367,274.996,116.799,24.8678,-22.7479,157.521,459.512,75.0621,310.237,744.158,375.407,3.66574,-240.882,-17.3371,27.0529,-470.748,-132.732,8.54498,-611.843,-226.926,148.595,-388.787,-149.33,228.083,-102.28,-132.136,144.383,135.94,-207.322,-104.73,-441.9,-76.1937,-246.799,-206.906,-125.311,-94.5422,-366.38,-217.283
3,5.96747e-07,-5.56623e-07,3.97446e-07,-119.341,-28.1487,63.4948,-187.348,426.708,139.372,-86.2628,732.77,452.444,121.369,26.6225,-62.0279,36.9707,477.481,-82.697,8.24408,928.635,-8.01807,-2.39949,-245.501,-47.6641,-20.7101,-445.386,-205.449,-42.7352,-576.475,-317.733,98.6274,-349.265,-236.949,183.939,-92.728,-215.614,30.084,96.0242,-270.841,-133.141,-428.408,-102.802,-238.648,-214.737,62.6452,-208.672,-171.872,-166.111
4,-4.87866e-07,4.0059e-07,1.32467e-07,-117.057,-22.1242,68.7646,-235.868,417.984,75.0345,-36.5135,579.803,368.008,115.973,22.9517,-68.2294,-90.1165,385.147,-237.551,25.5488,745.334,19.9713,-57.0498,-183.422,-132.935,-112.188,-352.149,-313.294,-146.168,-494.467,-424.348,24.5128,-303.24,-340.812,182.676,-96.4968,-242.796,-1.43268,56.7961,-308.989,-221.211,-345.128,-201.522,-283.293,-152.434,-43.2188,-227.532,-107.6,-310.042
5,-9.30647e-07,8.98682e-07,-5.64254e-07,-134.277,5.85846,-16.3952,-112.008,464.619,30.1233,-44.3994,745.367,328.377,131.452,-3.43767,14.6837,228.279,442.744,-103.581,136.683,661.178,309.416,-33.8269,-240.334,-54.1643,-45.8469,-457.025,-182.36,-45.6553,-603.165,-268.115,103.977,-428.399,-140.225,245.837,-185.419,-37.6394,147.897,-5.67316,-182.344,-185.832,-412.547,-154.522,-315.627,-168.591,-81.9564,-153.848,-167.195,-272.647
6,2.80148e-07,-4.39316e-07,1.00555e-07,-141.217,-10.6358,-46.8336,-227.131,444.616,10.5225,-307.875,831.68,200.824,142.04,9.23836,47.1217,71.2294,458.829,173.104,-36.5895,839.503,367.183,9.13187,-268.202,-18.2362,53.9547,-505.32,-94.1364,24.0546,-673.415,-200.776,196.832,-432.976,-47.5554,322.794,-156.107,-11.0302,138.587,-126.484,-207.178,-118.312,-503.566,-90.7058,-396.391,-446.123,-167.899,-268.26,-557.474,-300.877
7,1.58891e-07,-3.54785e-07,3.25957e-08,-143.964,-14.2863,-38.8264,-223.13,444.977,-2.69299,-288.411,836.101,197.815,144.447,13.0901,38.9427,78.019,457.134,178.713,-27.9695,832.989,386.139,14.0464,-268.186,-11.7408,68.9347,-501.128,-91.6524,34.9875,-668.126,-196.636,205.927,-420.489,-55.1443,319.308,-141.291,-6.82709,146.493,-72.9319,-196.491,-98.6366,-505.226,-74.6945,-381.483,-454.4,-138.676,-229.297,-567.503,-270.987
8,4.27854e-07,-4.79073e-07,2.44197e-07,-139.266,-12.177,-45.4055,-219.254,451.845,21.386,-300.877,838.107,223.927,140.655,10.8454,46.2785,86.7603,463.982,183.213,-23.2088,836.932,402.603,13.5066,-269.141,11.6305,45.1968,-501.842,-76.3386,63.1842,-669.79,-200.177,181.949,-443.857,-12.8954,295.281,-182.781,76.9493,152.594,-99.7272,-138.219,-120.705,-466.77,-78.149,-343.053,-265.566,-64.5917,-197.873,-282.557,-271.48
9,-5.05841e-07,6.90225e-07,-1.49727e-07,-125.61,0.195541,-73.7655,-158.69,447.767,37.0162,-228.266,837.324,236.873,124.336,1.98103,73.5803,192.936,455.648,153.849,106.291,822.9,391.119,-1.2068,-262.004,-36.2338,-10.8174,-484.005,-148.846,60.4943,-625.609,-285.937,144.749,-507.03,-66.4004,396.804,-455.263,-93.0928,233.542,-567.104,-276.673,-169.58,-417.458,-177.882,-325.006,-172.112,-175.024,-124.554,-113.567,-249.752
10,-4.0865e-07,5.23654e-07,-3.75863e-08,-131.079,0.274734,-65.1,-180.534,436.918,55.6894,-268.107,816.031,257.118,129.92,1.32681,65.0545,181.322,454.478,125.291,147.678,855.865,305.958,-12.3176,-258.009,-43.2364,-35.3598,-479.315,-158.683,19.2131,-633.832,-287.949,125.234,-498.086,-90.6891,380.945,-429.783,-128.915,224.677,-529.827,-296.368,-190.821,-407.208,-169.797,-339.293,-159.239,-125.948,-134.953,-112.752,-209.689
11,-5.18797e-07,5.51715e-07,-3.27969e-07,-142.647,-6.99138,-42.9111,-191.866,436.425,71.3307,-243.13,806.523,292.02,141.165,8.61392,42.0486,171.875,451.992,164.501,131.948,843.742,350.281,14.2355,-264.594,-31.665,8.92435,-503.717,-112.72,-6.17139,-659.741,-196.911,170.964,-493.696,-60.558,461.38,-476.658,-137.82,273.997,-577.837,-228.989,-152.733,-479.015,-104.509,-449.52,-458.144,-173.78,-329.496,-596.754,-242.562
12,-5.91207e-07,5.5305e-07,-3.78586e-07,-141.965,-4.76254,-42.5399,-190.116,432.006,73.0784,-242.864,805.069,288.301,140.283,6.34509,41.5367,168.242,447.099,160.396,128.406,836.157,349.353,6.88885,-261.846,-36.0711,6.4136,-498.658,-126.267,-16.1696,-661,-203.189,168.311,-486.181,-72.3577,458.914,-428.129,-126.294,300.63,-566.196,-251.26,-156.284,-475.825,-116.65,-450.607,-431.716,-177,-318.265,-585.512,-258.11
13,-4.16377e-07,4.59179e-07,-1.60939e-07,-130.721,-3.70503,-57.9367,-158.751,434.851,71.2816,-213.72,835.95,275.047,129.731,4.91264,57.5984,116.259,446.969,195.929,57.1338,855.117,381.962,16.8235,-252.193,-54.3475,40.2231,-487.621,-141.367,44.1621,-669.948,-213.625,192.706,-500.427,-57.9153,443.002,-461.604,58.6286,678.172,-473.967,-0.752563,-130.157,-477.509,-159.839,-402.335,-393.672,-154.762,-621.495,-359.096,-267.199
14,1.86156e-07,-6.20594e-08,8.42208e-08,-136.651,-12.423,-26.9916,-174.265,439.263,8.94696,-246.073,778.336,294.694,137.314,12.2774,27.3609,146.578,471.969,84.376,50.4619,800.329,366.022,-18.972,-254.606,-14.8266,-77.3713,-461.05,-138.935,-95.1115,-613.182,-264.819,75.1233,-450.782,-95.7307,256.477,-255.492,34.9244,393.89,-40.9333,27.7725,-212.295,-370.442,-110.329,-295.827,-101.58,-17.9974,-372.548,111.128,-38.5639
15,3.07174e-09,-5.79432e-09,9.76485e-08,-139.534,-2.51625,-31.3491,-141.178,446.137,80.7098,-143.894,824.451,290.43,139.717,2.60077,31.6436,167.524,467.183,7.24103,148.582,907.753,88.8793,-22.7066,-250.027,-60.6645,-107.986,-433.505,-211.228,-148.872,-568.452,-330.839,44.7668,-449.316,-187.83,281.515,-299.808,-230.529,188.158,-378.15,-417.933,-231.101,-334.597,-181.46,-297.426,-49.5353,-189.218,-193.849,-154.215,-387.271
16,1.30709e-07,-2.49682e-08,1.97254e-07,-136.371,-7.54936,-5.44948,-156.271,448.174,96.8852,-176.062,782.486,376.969,136.713,7.42912,5.81396,136.902,481.809,-3.11676,118.022,921.152,94.2161,-29.4374,-245.682,-34.6987,-167.459,-422.252,-168.285,-226.536,-528.837,-304.562,-18.0374,-439.345,-169.434,212.785,-350.985,-260.617,162.737,-363.133,-435.6,-271.456,-307.468,-125.276,-290.828,-16.0916,-138.689,-202.259,-90.7961,-303.265
17,-2.74021e-07,2.15196e-07,-7.50477e-08,-123.324,-3.72069,-61.4716,-112.323,450.86,26.3049,-139.802,862.812,212.578,122.715,4.32426,61.3641,103.11,450.094,202.358,20.235,842.989,415.771,9.14008,-252.093,-51.0646,36.6093,-452.016,-200.255,60.5738,-606.561,-313.81,166.979,-436.03,-101.537,260.266,-230.896,91.877,258.727,-16.9943,-29.2825,-110.527,-386.093,-213.614,-251.876,-133.911,-141.395,-131.441,61.4589,-251.592
18,-4.03933e-07,3.11013e-07,-2.10981e-07,-127.247,-1.86519,-62.7624,-153.624,446.899,33.1279,-223.815,850.183,214.163,125.949,2.56859,61.9529,86.8006,452.516,195.911,-7.89514,835.489,404.303,-13.3145,-258.716,-38.523,13.8437,-501.677,-109.248,0.464478,-658.97,-229.054,158.843,-466.224,-20.3569,314.006,-259.499,123.523,298.521,-106.304,-98.2681,-160.764,-494.45,-127.71,-452.314,-490.221,-189.085,-358.978,-424.629,-366.762
19,-9.0686e-07,8.26387e-07,-4.61465e-07,-128.87,0.53157,-67.5166,-151.224,441.132,63.1899,-213.657,834.464,266.812,126.233,1.58527,66.0162,111.177,439.096,222.196,43.7197,817.718,440.868,-24.821,-264.143,-37.5658,-20.4293,-505.323,-108.351,-32.3485,-680.897,-217.974,129.044,-483.811,-18.5453,267.261,-273.968,132.933,203.438,-99.8767,-42.6993,-192.763,-484.792,-131.924,-466.839,-464.443,-224.059,-323.904,-388.379,-387.675
20,-3.57091e-07,1.78221e-07,-1.28744e-07,-130.814,-11.1775,-55.1946,-164.473,450.22,25.4406,-221.166,882.34,187.022,129.761,11.4117,54.7467,78.264,468.516,169.975,-30.3444,860.803,383.633,6.5797,-261.542,-33.1658,24.471,-503.435,-110.27,36.976,-666.908,-210.289,172.109,-496.419,-29.1994,451.412,-514.639,13.0953,512.138,-376.628,-242.291,-140.31,-488.335,-117.843,-414.029,-527.625,-173.223,-314.14,-435.834,-348.072
21,-1.56085e-08,-1.40402e-07,9.50268e-08,-126.569,-11.7904,-55.3265,-157.502,446.543,16.9304,-209.374,868.407,193.757,126.448,11.1872,55.4507,81.6294,465.557,174.842,-30.8209,845.214,415.469,7.97789,-259.911,-35.2829,27.8687,-505.28,-104.398,49.4999,-667.089,-198.646,173.164,-494.685,-22.813,447.923,-503.543,21.3743,542.841,-362.496,-164.448,-139.556,-487.545,-120.254,-427.521,-505.569,-197.357,-335.139,-411.887,-404.547
22,-2.73845e-07,6.18382e-08,-2.19504e-07,-128.133,-2.24921,-65.8942,-133.523,443.416,45.2964,-165.468,834.506,238.416,127.272,2.33949,65.1816,119.857,443.076,203.476,43.1586,815.09,418.952,18.7268,-256.28,-47.7697,57.4974,-488.368,-145.228,54.5385,-646.218,-251.72,192.573,-464.641,-49.4776,298.005,-266.074,125.072,262.001,-164.658,-98.3759,-111.805,-470.666,-156.646,-385.493,-340,-98.218,-291.126,-189.678,-254.821
23,3.9564e-07,-6.33906e-07,6.48843e-08,-134.753,-14.9607,-33.2999,-235.487,442.213,1.17334,-322.472,848.347,157.182,135.929,13.0539,33.5525,47.2699,453.486,174.853,-76.8319,822.146,395.302,10.4258,-260.248,-17.0165,58.945,-498.914,-89.6802,2.83374,-652.944,-174.814,195.355,-419.099,-57.5451,316.271,-155.193,-14.0224,101.956,-86.9131,-171.705,-106.768,-499.182,-69.8315,-403.219,-485.059,-115.51,-281.264,-586.376,-262.814
24,2.83577e-07,-4.53624e-07,2.1138e-08,-133.091,-18.0516,-34.7961,-225.252,441.999,-11.462,-305.869,837.417,179.403,133.937,16.5901,34.9266,60.2748,458.898,178.798,-67.4223,814.051,428.253,17.7291,-256.473,-16.0514,71.4752,-494.876,-87.2851,29.3781,-651.087,-174.393,206.047,-412.272,-53.232,317.418,-143.911,-6.02399,116.272,-80.6356,-174.065,-94.2934,-495.848,-69.5445,-389.361,-469.634,-117.523,-248.31,-576.785,-258.998
25,-1.1142e-06,9.97712e-07,-5.40238e-07,-139.305,-2.63438,-53.7262,-135.97,438.636,78.0733,-140.763,837.507,274.24,136.291,5.46481,52.3045,175.97,452.549,140.053,134.128,834.587,357.368,17.3853,-251.442,-62.7849,38.1245,-457.631,-203.415,35.5102,-627.223,-317.253,184.039,-436.533,-128.933,286.049,-207.644,31.0047,184.693,-55.9072,-142.704,-117.497,-410.832,-190.907,-294.661,-180.622,-120.104,-128.635,-24.4462,-202.719
26,-1.9305e-07,2.58901e-07,-5.19878e-08,-136.833,-5.32558,-48.358,-173.428,437.015,56.828,-210.936,826.284,257.152,136.239,5.84869,48.085,120.789,454.042,157.705,50.4053,847.337,342.107,15.1721,-257.984,-49.1233,23.0231,-502.452,-128.026,40.5137,-671.165,-218.17,173.295,-500.042,-51.7938,431.496,-433.572,24.3214,480.996,-555.705,-194.45,-143.024,-479.504,-128.443,-416.195,-382.76,-133.058,-413.126,-510.047,-319.304
27,-1.01835e-06,1.04834e-06,-4.56255e-07,-141.293,-7.81973,-47.4763,-140.833,440.641,74.4548,-146.299,816.897,307.554,138.629,11.0337,46.4471,205.533,471.533,80.4003,148.064,806.386,363.789,10.3158,-263.011,-36.7124,27.991,-490.1,-140.325,43.4384,-658.985,-259.927,187.692,-483.99,-59.7457,429.819,-340.581,46.8424,418.318,-321.173,-211.538,-142.675,-464.105,-145.93,-388.301,-305.725,-218.353,-252.228,-330.385,-383.333
28,-3.48491e-07,2.39608e-07,8.73858e-08,-125.065,-15.3297,44.285,-203.89,426.373,61.183,-11.8223,577.596,428.231,124.239,15.8304,-43.857,-54.3759,412.259,-163.406,-90.8579,790.459,43.9389,-9.89687,-195.327,-123.302,-19.8423,-366.344,-311.222,-17.0414,-526.299,-385.806,120.607,-308.603,-292.573,262.203,-77.8484,-210.517,46.5231,64.197,-309.264,-156.962,-340.446,-252.809,-280.919,-119.116,-152.661,-79.3958,-35.9818,-282.783
29,3.95132e-07,-3.34671e-07,6.73587e-07,-122.777,-21.0452,38.5455,-187.434,413.307,121.688,-43.7631,592.313,420.786,124.061,19.8003,-36.6049,-73.8538,367.682,-181.565,-118.044,759.592,-13.6344,-39.4118,-159.58,-166.452,-67.3437,-272.635,-400.293,-80.1628,-418.709,-509.495,80.0186,-233.46,-379.118,239.316,-25.0412,-293.084,40.502,76.5151,-363.546,-204.565,-228.094,-340.674,-269.37,28.0529,-274.87,-98.4393,77.0961,-420.473
30,-3.45565e-07,3.99818e-07,-2.80054e-07,-108.334,4.67937,-88.0244,-100.936,466.978,16.0659,-180.143,835.081,276.8,107.468,-3.5732,87.4939,113.666,444.295,250.575,-30.4949,800.635,496.001,-22.4599,-260.457,-10.2971,-11.644,-486.498,-113.289,18.7812,-659.545,-207.286,116.248,-459.823,-16.0577,251.632,-208.635,64.7278,152.514,-81.9811,-144.391,-152.827,-416.152,-152.492,-312.014,-155.339,-126.882,-104.595,-43.6525,-194.338
