1,5.87976e-08,-2.12733e-08,-8.09701e-08,128.605,-18.5961,43.0497,105.771,441.701,93.573,118.382,884.89,87.3242,-129.109,17.6557,-44.047,-130.105,466.807,39.4831,-99.8417,912.025,34.7755,10.1523,-249.648,-56.2467,22.9792,-495.297,-96.3466,29.1882,-694.976,-77.165,-129.795,-485.663,-170.571,-390.859,-437.572,-269.759,-637.192,-440.311,-291.423,181.168,-472.772,-69.9986,445.016,-399.044,13.8346,645.213,-409.441,131.971
2,9.10025e-08,-1.37976e-07,1.90848e-07,134.357,-13.785,43.7395,116.177,457.226,23.9738,174.178,880.721,-111.264,-134.167,13.3901,-43.205,-179.768,399.083,191.184,-167.041,829.208,310.988,11.7116,-242.86,-54.8961,-15.4722,-493.027,-47.0794,-83.1917,-674.311,9.88458,-132.772,-440.306,-138.12,-287.528,-224.432,-241.902,-440.552,-36.7936,-193.544,122.899,-441.323,8.59558,260.418,-191.423,76.5248,279.107,3.39178,233.516
3,-8.92932e-08,-1.16346e-07,-8.20093e-08,-15.6192,-32.4493,126.649,47.2606,412.6,182.519,214.718,814.832,263.442,15.7737,32.1527,-126.508,-178.129,443.319,-52.9529,-216.348,868.035,78.2867,15.7501,-244.903,-12.3946,-25.515,-490.878,0.0593567,-87.6326,-678.966,-30.633,46.5255,-448.477,-143.915,135.538,-226.208,-298.307,176.536,-6.64709,-440.521,-44.0009,-418.454,143.515,-78.2717,-163.742,278.834,-186.542,33.14,321.782
4,-3.0174e-07,-2.93685e-07,-2.63007e-07,-134.65,-20.2747,-0.151062,-103.182,421.562,159.509,-75.7971,806.562,412.919,133.214,18.6817,-1.37799,97.9606,481.186,-98.9421,19.3748,947.501,-89.4363,2.23576,-248.966,-34.3937,-2.03339,-478.253,-138.967,-0.385437,-633.546,-250.571,145.309,-450.262,-98.3657,379.363,-315.121,0.574707,557.52,-174.756,-15.6378,-147.487,-431.191,-107.591,-309.731,-217.812,-2.69177,-363.039,-3.75842,-58.0005
5,-1.19929e-07,-6.84338e-08,-1.97316e-07,-117.18,-10.1352,-78.3494,-146.723,427.927,76.4879,-211.239,818.851,283.316,116.606,9.53999,77.4759,176.582,463.981,-6.93359,126.397,925.122,-0.782532,14.0799,-257.181,-38.8278,38.5225,-483.65,-138.969,101.055,-635.894,-253.61,144.276,-481.174,-18.3907,250.779,-339.992,201.793,398.187,-222.831,226.116,-100.059,-413.952,-191.832,-245.405,-168.173,-197.119,-237.449,47.0057,-252.208
6,9.53037e-08,3.30612e-08,1.37873e-07,72.3368,10.9428,-123.897,10.9964,463.597,-70.4272,-284.786,789.668,-113.742,-72.7135,-11.5159,123.771,85.2416,404.188,198.192,120.888,834.231,202.7,-2.6212,-248.532,-42.1249,51.1016,-490.656,-71.3755,133.849,-666.672,-8.8468,-68.7094,-493.671,43.7194,-246.761,-329.115,151.091,-340.982,-222.288,312.722,119.186,-418.158,-198.669,176.59,-141.253,-277.977,311.873,48.5143,-223.028
7,3.25421e-07,-6.58085e-08,2.26248e-07,140.247,-10.2141,12.2001,122.438,426.148,93.3967,128.597,733.852,-223.951,-139.608,9.99297,-11.7047,-118.737,398.416,200.577,-43.3885,819.34,237.094,-6.63446,-249.82,-49.6614,-13.8978,-502.591,-41.2788,-43.8418,-691.006,29.8322,-156.021,-460.615,-101.585,-374.566,-311.317,-186.051,-582.672,-203.249,-182.167,132.026,-444.249,-15.8531,268.84,-195.882,39.4554,295.43,-40.2062,225.569
8,1.41547e-07,1.48646e-08,4.909e-09,126.148,-15.1683,65.6696,69.0104,376.157,282.847,209.555,706.791,11.494,-125.658,15.2703,-65.4655,-142.348,417.514,139.803,-56.862,847.095,174.977,4.08025,-243.171,-55.5062,-21.9641,-496.948,-49.7619,-78.6428,-678.531,-31.347,-124.182,-463.647,-159.462,-271.04,-277.806,-340.028,-408.87,-107.839,-335.651,109.301,-453.822,16.3162,239.007,-199.695,90.5403,217.314,-24.3423,244.485
9,9.73109e-08,1.80165e-07,-1.10764e-07,-95.891,-43.4061,89.7832,-213.673,385.268,157.275,-44.42,733.367,382.47,96.2613,43.921,-89.9554,-7.58508,477.961,-27.4659,4.46454,878.755,179.672,23.2595,-246.739,-64.812,23.4353,-470.726,-176.29,-7.55695,-635.271,-307.274,173.366,-401.727,-231.282,314.953,-149.446,-210.426,250.569,17.4647,-391.069,-104.88,-470.98,-56.1119,-197.459,-269.728,119.918,-284.252,-58.2557,117.035
10,3.55075e-08,3.41048e-08,-1.59886e-07,-140.863,-18.4921,-16.1291,-154.571,433.465,-60.765,-148.407,728.594,263.427,140.845,18.5816,15.5981,66.0223,462.866,45.8766,-12.6711,862.719,221.884,30.8128,-252.894,-37.1683,62.3697,-477.306,-140.45,103.496,-634.538,-269.046,211.304,-436.866,-62.8691,340.301,-228.25,97.7021,455.703,-39.696,38.0368,-105.983,-443.814,-137.998,-265.872,-217.637,-56.8946,-320.531,13.3563,-88.0101
11,-3.67856e-09,-1.46902e-07,-9.53868e-08,-115.719,-14.7201,-64.0297,-64.6699,444.125,-133.342,-121.841,879.094,-20.9226,115.773,14.4469,63.9349,47.3867,461.648,130.62,-93.6663,835.664,342.033,18.351,-247.93,-20.9922,60.4402,-483.575,-94.7504,151.157,-644.004,-180.523,174.172,-443.087,16.8104,275.138,-231.405,174.297,393.141,-65.6419,92.9028,-88.3083,-429.846,-146.001,-252.026,-196.245,-109.513,-309.135,35.6787,-155.331
12,-2.53272e-07,-1.57297e-07,-2.23795e-07,32.7411,13.6333,-145.533,175.348,454.041,-64.3669,219.916,892.676,-1.45288,-33.5348,-14.4199,144.802,-43.0479,446.221,166.851,-228.347,849.09,175.516,-9.12837,-259.051,-42.9363,62.5204,-492.349,-55.5227,156.894,-686.187,-35.8222,-4.25555,-475.625,97.4174,-17.4926,-264.378,281.369,117.342,-186.876,354.916,67.6019,-410.158,-203.944,2.53369,-146.281,-321.24,46.0235,109.039,-364.653
13,-7.197e-08,-1.91145e-07,-1.95495e-07,141.11,-5.30171,-18.2247,160.404,382.107,221.74,162.223,775.803,440.7,-141.64,4.52254,17.4393,-81.0916,458.885,0.395935,-52.0112,899.871,-104.963,-6.68451,-241.059,-60.1055,13.6626,-495.748,-47.5122,14.9152,-686.58,9.22516,-145.402,-461.168,-50.7531,-338.071,-258.236,-42.0381,-424.231,-147.428,160.341,160.846,-415.749,-73.6158,289.94,-153.026,-89.7765,315.668,34.5371,48.4594
14,5.08749e-10,-9.0672e-08,-7.26422e-08,119.478,-26.2159,67.1901,-0.689392,362.476,257.634,11.004,816.052,327.84,-119.158,26.3755,-66.9984,-139.578,457.745,31.6923,86.6373,779.09,-198.226,11.3698,-231.94,-50.9932,9.19,-483.15,-14.2691,-26.4356,-643.89,67.9093,-102.41,-449.225,-94.4453,-235.585,-240.718,-196.497,-390.695,-100.9,-151.177,134.532,-415,27.8177,259.651,-156.763,34.7021,304.383,75.7988,121.801
15,-8.18592e-08,8.07693e-08,-9.58592e-08,-23.7318,-30.0462,129.953,-69.3297,414.087,196.833,33.5344,822.851,333.804,23.9498,30.2791,-129.828,-192.046,428.054,-63.7962,55.143,774.18,54.9652,6.40578,-253.495,-12.0076,-38.0364,-501.572,19.676,-124.414,-681.552,26.7816,47.7085,-498.269,-134.689,34.9512,-505.368,-389.331,-74.4419,-514.363,-283.391,-65.3289,-429.859,148.931,-96.5728,-193.529,190.92,-192.492,-86.9438,253.033
16,-6.26102e-08,5.63674e-08,-8.14437e-08,-129.382,-24.791,18.4697,-139.194,440.806,73.5352,-117.961,858.315,257.544,128.939,24.5785,-19.031,62.3098,480.625,-89.9913,45.371,765.95,271.568,7.14473,-250.386,-43.5992,-31.9793,-481.997,-127.709,-37.7209,-644.466,-237.783,134.501,-495.564,-120.763,404.072,-477.465,-64.7347,427.507,-359.388,-188.932,-179.628,-432.11,-74.0093,-331.75,-210.682,42.1616,-405.454,36.6196,-31.361
17,-2.20959e-07,-3.16576e-08,-1.2328e-07,-128.264,-2.71336,-68.8085,-111.162,434.354,51.41,-152.58,813.512,253.795,127.318,2.10193,67.9181,159.777,445.579,-13.7102,49.9054,855.228,128.783,4.09889,-250.618,-66.1121,16.7477,-469.371,-186.938,78.0003,-615.796,-301.098,143.282,-489.37,-86.3021,374.435,-474.081,40.0233,469.736,-363.063,72.2496,-128.494,-400.174,-218.858,-312.11,-172.582,-200.402,-311.21,52.3037,-206.327
18,-1.59119e-07,2.93729e-08,6.00017e-08,-27.5551,6.99915,-138.681,-106.372,447.641,-13.281,-260.634,843.847,111.418,27.1442,-7.11784,138.768,198.102,420.185,156.62,217.037,858.194,191.455,12.0467,-264.301,-32.9617,85.3859,-490.501,-80.1721,186.561,-682.785,-83.5027,52.2463,-504.397,86.4152,35.0598,-425.493,353.203,176.16,-441.883,429.098,57.363,-409.744,-217.559,-5.24945,-155.815,-346.217,119.894,46.099,-362.586
19,1.50184e-07,-9.29816e-08,1.8429e-07,133.387,-2.50745,-48.9435,61.8052,459.771,-54.5782,-38.9163,893.092,-125.468,-133.227,2.09599,49.2366,-31.2675,382.619,291.689,44.5422,804.184,434.574,7.25571,-241.578,-56.8963,61.0871,-488.944,-54.2496,88.1238,-676.241,32.0396,-93.0302,-499.886,-39.6765,-362.367,-475.53,14.5383,-373.923,-415.18,183.929,189.616,-395.158,-88.4662,348.732,-155.664,-36.4586,413.142,-21.7149,149.088
20,2.50318e-07,-4.07422e-08,1.16057e-07,132.256,-16.9954,50.2912,107.944,445.11,39.326,167.755,863.065,-89.3819,-132.165,16.4713,-50.3926,-204.718,375.627,215.318,-195.723,775.251,399.348,4.90439,-241.923,-44.4371,4.38129,-489.452,-6.45593,-26.9965,-662.087,51.2081,-107.246,-474.984,-92.6482,-310.194,-398.44,-248.973,-411.728,-323.246,-154.255,126.346,-419.862,41.2446,212.82,-180.885,158.772,82.8571,-65.9914,291.439
21,1.35057e-07,-4.85493e-08,-4.49113e-08,97.8721,-26.6603,96.3791,87.0677,427.206,143.965,253.881,818.58,36.9551,-97.8707,26.1341,-96.7439,-188.038,419.283,118.619,-157.212,853.232,255.29,8.54953,-235.965,-37.3305,-20.6297,-483.883,-8.0744,-73.7901,-647.062,15.8322,-101.233,-471.242,-120.048,-248.186,-364.667,-298.565,-366.265,-251.77,-258.057,87.5286,-431.438,69.7821,169.412,-195.131,181.025,-4.16077,-139.718,255.387
22,-2.07858e-07,-1.21976e-07,-2.03552e-07,-91.9054,-29.5796,93.0851,-28.5245,398.294,222.267,172.029,748.041,438.536,91.222,28.9669,-93.8765,-67.4062,451.691,-90.1436,-190.516,893.483,-40.3146,11.0287,-241.712,-32.3497,-21.2683,-479.87,-111.349,-37.5174,-639.443,-211.868,113.38,-436.183,-174.072,334.457,-269.898,-190.473,172.495,-90.3997,-147.935,-128.066,-446.388,-5.96942,-259.206,-230.127,91.0393,-349.873,-48.1666,-3.24744
23,-1.95074e-07,-1.45436e-07,-2.31834e-07,-132.671,-9.53696,-4.20288,-135.962,427.988,122.358,-117.793,689.107,498.989,131.46,8.31326,2.86153,60.8577,458.239,-14.0858,-10.2435,909.265,49.3058,5.44582,-251.672,4.02379,27.2591,-488.249,-85.2612,82.305,-627.571,-206.034,168.885,-449.146,-31.8908,370.802,-306.073,95.6274,244.172,-114.651,8.79175,-119.981,-440.217,-80.6775,-296.927,-207.499,-58.4235,-300.067,9.88062,-171.271
24,1.56737e-07,1.01262e-07,-8.15021e-08,-116.087,0.762039,-79.3271,-133.573,447.814,-20.5054,-299.481,689.415,292.584,116.21,-0.7052,79.0254,134.6,446.099,24.4008,20.4128,870.422,119.574,7.55544,-257.717,-24.5273,54.947,-488.898,-107.799,145.856,-653.502,-192.988,149.993,-485.472,28.2711,231.02,-359.57,263.521,183.812,-140.235,132.386,-83.3246,-428.634,-189.018,-203.75,-172.933,-222.205,-106.75,23.5952,-286.337
25,2.10563e-07,5.37663e-08,6.90839e-09,68.4684,23.1284,-120.124,183.176,449.065,-18.0793,-176.582,694.85,-100.764,-67.9298,-23.0923,120.331,25.8317,413.71,151.316,-10.0121,848.726,127.856,2.52121,-226.06,-60.24,43.0789,-477.09,-89.6341,108.443,-634.703,-51.8773,-43.2655,-470.562,14.7623,-219.986,-341.629,165.496,-78.8713,-118.787,188.766,91.9793,-404.124,-199.903,109.689,-146.856,-272.261,219.336,70.2595,-258.385
26,1.49735e-08,-3.45132e-08,-1.36246e-07,143.019,-1.15184,-14.1025,166.068,390.96,214.507,98.3686,789.759,35.06,-143.315,0.577286,13.4397,-86.6365,448.454,99.3528,-47.5198,878.105,68.29,-9.93298,-244.63,-61.9051,2.98889,-494.133,-54.7153,-0.909973,-690.751,-25.3696,-156.983,-497.667,-85.1056,-366.336,-325.698,-190.631,-249.433,-135.21,-72.8056,150.907,-430.314,-77.6036,269.134,-160.051,-64.8089,308.183,28.4231,82.4929
27,-2.68226e-07,-2.13695e-07,-1.71387e-07,116.896,-18.3366,63.0503,25.8419,370.022,274.389,37.5255,801.891,394.974,-118.225,16.9952,-64.2785,-85.4312,451.198,30.7577,25.3765,892.786,-31.7787,6.16501,-233.701,-51.8148,-3.29547,-489.004,-23.1123,-26.2935,-666.65,6.12177,-126.562,-468.645,-105.107,-260.85,-314.451,-280.088,-196.935,-126.368,-188.16,133.806,-423.699,19.6754,240.99,-159.701,37.3221,279.51,44.3024,145.409
28,-2.01997e-07,-4.41778e-08,1.17467e-07,22.785,-33.5346,133.88,-155.574,366.049,215.24,-241.965,792.276,342.815,-23.8604,32.6373,-134.253,-12.8118,450.646,10.3958,185.367,833.586,77.7014,11.4048,-246.314,-44.5944,-41.1065,-487.01,-5.72,-118.928,-673.318,-17.1609,-49.7165,-456.4,-161.595,-16.6803,-231.979,-355.319,-142.271,-39.2632,-357.336,22.635,-415.43,122.408,42.7884,-159.394,235.609,-23.4775,19.0957,247.19
29,7.84668e-08,-8.20085e-09,5.73548e-08,-121.871,-33.3477,67.2393,-215.729,413.479,53.9144,-276.116,864.883,121.419,121.258,32.4407,-67.9418,57.0803,467.436,44.6673,95.0571,852.243,260.743,15.9364,-258.399,-40.348,-34.415,-487.717,-123.028,-113.338,-630.513,-253.953,110.169,-436.756,-208.319,154.521,-165.1,-289.585,-81.8583,-131.135,-327.6,-158.198,-444.986,-12.9694,-284.164,-198.652,44.3085,-264.576,-142.613,-190.964
30,6.72823e-08,-1.93683e-08,-1.04907e-07,125.268,-17.1779,49.9203,95.1586,434.238,110.62,123.016,876.781,95.3466,-125.751,16.3828,-50.914,-132.306,458.994,36.7323,-105.884,906.712,22.0439,10.4213,-240.002,-56.4636,18.279,-489.144,-86.5455,35.311,-671.198,-77.6786,-126.365,-478.899,-151.262,-362.74,-440.921,-222.026,-623.185,-471.837,-221.705,164.955,-461.891,-62.6603,415.154,-386.322,27.6699,596.516,-384.265,158.944
1,1.15189e-09,6.63069e-08,3.19709e-08,110.073,-23.8628,81.9525,26.2881,363.734,284.28,197.796,725.333,50.5612,-109.819,23.8988,-81.7587,-121.432,450.506,67.7518,-26.9033,884.171,148.171,-8.41975,-250.725,-48.3203,-55.7451,-498.548,-63.5952,-152.819,-675.069,-35.424,-110.576,-443.78,-216.386,-114.212,-195.921,-379.72,-241.015,14.1381,-364.716,56.3594,-489.863,53.5562,129.107,-275.429,212.598,-30.8113,-231.108,256.661
2,-1.99294e-09,1.94239e-07,-2.52227e-07,-112.061,-30.6937,71.937,-171.671,415.632,163.638,53.7582,657.054,468.317,112.106,31.0952,-72.5974,-14.7145,471.148,-59.0871,-55.1919,880.886,90.7028,21.6944,-252.181,-41.3578,9.58612,-487.553,-116.538,-11.52,-636.281,-263.172,164.459,-453.377,-171.389,331.103,-232.463,-126.715,432.878,-19.8397,-125.526,-120.262,-467.57,-10.7282,-234.72,-237.659,124.826,-332.818,-32.8549,118.512
3,-9.70995e-08,-2.00899e-08,-2.24767e-07,-134.239,-7.5775,-56.7681,-141.867,429.873,47.0597,-226.622,683.71,387.183,133.787,7.21098,55.913,131.197,453.483,-14.2092,45.7827,888.678,89.536,14.9716,-259.95,-31.3834,41.1511,-489.119,-123.909,120.408,-649.238,-218.237,162.703,-477.322,-21.7822,293.884,-316.521,163.536,434.452,-145.038,179.522,-100.479,-433.89,-165.448,-247,-185.257,-146.197,-264.903,29.3942,-220.805
4,1.46257e-07,7.87063e-08,-2.66758e-09,-16.3874,6.80458,-139.326,61.2777,472.217,-105.184,-258.035,747.375,14.0108,17.132,-6.25413,140.084,75.7212,452.918,148.892,-36.6378,887.304,159.362,-15.3815,-256.061,-31.0686,60.3373,-492.445,-52.365,177.822,-668.901,-40.29,35.1487,-467.512,111.592,-27.7135,-249.069,285.542,30.2076,-26.5325,399.379,35.9294,-419.187,-201.991,-45.3502,-169.526,-336.475,2.50812,41.7067,-421.017
5,-5.50677e-08,-1.91105e-07,-7.76046e-08,141.571,-5.00574,-11.7453,146.396,376.956,222.56,132.312,801.279,153.241,-141.749,4.38565,11.4881,-68.4622,440.76,90.899,-10.4789,872.694,32.7744,-15.0341,-246.11,-56.4425,-14.4032,-497.206,-51.9755,-28.3148,-696.761,10.5332,-174.098,-465.626,-62.9712,-339.272,-231.378,-34.1414,-466.363,-56.4869,81.0453,139.263,-442.112,-83.653,279.256,-180.22,-98.7016,350.388,15.0115,19.0367
6,-1.27245e-07,-1.01599e-07,-2.0109e-08,119.301,-8.74258,66.3299,16.9421,374.165,266.26,24.3675,798.397,358.471,-119.433,8.60464,-66.1994,-80.1357,439.198,44.4369,54.8126,855.225,25.5309,13.9646,-229.6,-48.6007,-19.9555,-483.236,-65.6508,-71.466,-649.54,-51.4177,-114.957,-419.074,-161.719,-202.984,-177.738,-264.973,-410.911,-74.5363,-197.071,108.731,-438.903,5.01361,249.594,-201.877,57.3091,213.72,-18.7701,207.729
7,-5.44777e-08,-3.49958e-08,7.48987e-08,-32.9094,-37.5997,119.695,-197.54,379.985,173.483,-202.718,807.168,326.965,32.5558,37.1884,-119.772,7.98352,461.06,20.3229,147.156,857.283,165.299,21.1774,-229.492,-40.3761,-18.5936,-476.109,-82.7049,-93.1204,-645.854,-160.53,56.5267,-412.802,-206.459,145.216,-187.068,-350.176,-25.4113,-49.9833,-409.925,-51.0993,-439.312,64.1637,-61.4528,-224.818,242.953,-113.002,-20.579,243.041
8,-3.84122e-08,-1.20251e-07,-6.2545e-08,-132.685,-29.1078,26.3726,-184.825,411.461,-16.2059,-201.366,854.242,76.8069,132.113,28.3472,-27.1029,60.6721,456.038,66.7509,43.5122,827.839,315.016,32.0964,-249.729,-39.3163,30.3005,-481.081,-139.242,20.4611,-648.566,-271.206,192.301,-434.622,-131.998,352.775,-224.997,-67.5267,391.962,-99.3219,-279.88,-123.647,-441.818,-76.5952,-249.157,-217.602,42.2245,-328.032,2.42303,-7.09381
9,-2.634e-08,-1.53642e-07,-1.10505e-07,-130.433,-15.9026,-37.6475,-124.154,437.092,-106.394,-144.947,881.568,-50.8578,130.308,15.5259,37.2979,64.0756,455.447,121.26,-41.0881,816.54,370.214,22.1292,-249.158,-33.4593,40.4841,-484.451,-122.541,81.5671,-643.26,-254.77,186.383,-453.679,-41.9512,337.908,-243.542,80.9532,440.469,-122.716,-88.4331,-125.705,-430.699,-131.064,-271.063,-189.943,-73.4516,-327.925,39.9288,-125.551
10,-3.23307e-08,-1.73183e-07,-1.06803e-07,-100.131,-3.34351,-96.6458,-18.4786,449.779,-150.418,-148.299,844.691,23.4277,99.8935,2.7872,96.2626,19.0004,450.856,130.168,-127.03,858.796,260.093,8.07375,-251.957,-14.8718,53.7131,-494.623,-76.0184,137.435,-670.945,-129.468,130.888,-469.099,63.4519,182.118,-274.848,255.199,349.358,-167.112,251.439,-67.3613,-433.414,-163.382,-226.504,-195.272,-157.226,-201.561,46.4766,-190.454
11,5.55417e-08,-3.26136e-08,1.10995e-08,89.3838,11.1063,-109.801,167.802,422.713,31.5765,-83.8306,756.601,-61.1939,-89.4226,-11.6269,109.625,3.5368,414.111,195.327,-56.4941,852.018,172.514,-9.89345,-231.534,-57.7923,20.6765,-482.184,-91.0852,88.7485,-647.658,-35.0438,-91.5194,-478.63,1.02234,-228.214,-496.899,204.706,-119.752,-606.023,339.089,100.657,-405.806,-186.329,175.56,-175.827,-268.646,277.169,-2.11975,-177.128
12,7.35317e-08,-5.4981e-08,-1.85211e-07,139.791,-7.46066,-4.334,129.494,382.262,216.549,106.509,790.339,101.023,-139.579,7.2469,3.94463,-75.9255,449.271,87.2704,-43.7571,894.217,73.8687,-12.8958,-238.807,-67.2226,1.39902,-493.512,-84.5653,6.52863,-686.08,-45.1144,-158.593,-506.308,-97.8107,-420.395,-509.364,-68.5586,-497.426,-506.973,143.734,154.607,-433.524,-112.268,319.812,-192.431,-93.9238,302.308,-67.4147,113.149
13,1.03398e-07,-4.56375e-09,-1.54097e-07,124.489,-14.4718,54.9595,33.4393,374.045,267.382,78.7863,796.598,331.523,-124.468,14.2455,-55.524,-76.8858,451.041,51.9861,7.94177,892.762,24.3448,8.81761,-232.049,-62.0242,20.4587,-490.512,-59.2235,-11.7491,-658.789,-19.1135,-98.0525,-490.243,-143.399,-295.407,-481.056,-273.445,-465.627,-473.941,-213.34,153.546,-427.561,-10.5839,304.925,-208.529,87.8859,225.314,-41.9752,220.474
14,1.08759e-07,1.83132e-07,-4.0911e-08,41.3732,-28.9113,118.376,-125.325,367.37,229.278,-51.8923,773.925,354.916,-41.6892,28.6856,-119.034,-55.9676,428.3,63.8544,74.5743,830.489,162.77,13.4451,-233.275,-29.1904,-10.9457,-483.563,-33.2841,-91.8911,-639.894,-74.261,-33.5893,-453.911,-179.688,-138.346,-352.878,-390.315,-252.629,-366.493,-521.546,50.3187,-444.21,88.2389,148.867,-239.064,227.311,44.7516,-154.616,300.502
15,7.49194e-08,1.43368e-07,-8.14693e-08,-111.744,-33.4346,59.253,-208.571,412.28,2.83575,-129.866,811.029,241.65,111.897,33.5821,-59.5617,18.164,470.852,38.4227,15.1605,852.801,282.473,21.7799,-246.997,-41.8467,7.30505,-495.284,-92.291,-22.2332,-654.242,-223.201,167.216,-482.714,-144.804,405.729,-447.817,-205.283,317.207,-397.541,-394.032,-122.121,-472.495,22.9728,-210.083,-269.833,194.782,-349.979,-100.093,77.2318
16,3.02161e-08,5.0231e-08,-9.21295e-08,-137.205,-15.4476,-32.9201,-114.288,442.045,-106.353,-159.21,743.178,210.953,137.213,15.5212,32.7403,73.9335,460.823,79.0804,-9.71185,867.919,232.881,28.3101,-259.691,-15.6895,42.9041,-490.951,-103.984,90.5406,-633.972,-251.332,187.784,-470.893,-35.4834,353.161,-340.069,136.67,235.853,-135.72,57.037,-120.494,-447.431,-110.314,-287.875,-212.782,-76.4039,-207.53,-10.3486,-159.546
17,1.65772e-07,5.87513e-09,-3.82431e-08,-109.442,-2.8154,-76.0089,-33.0171,454.715,-168.038,-78.3338,886.291,-128.183,110.691,3.79767,77.1045,-4.44513,449.348,138.814,-156.399,836.583,302.662,0.584198,-240.101,-9.905,56.5217,-475.2,-88.2628,167.75,-622.797,-123.308,146.92,-450.136,27.2556,167.799,-286.204,243.866,122.583,-98.0798,122.365,-82.8504,-425.043,-152.686,-244.321,-200.617,-127.615,-197.093,12.2214,-147.648
18,3.00909e-08,1.93642e-08,-3.27915e-07,94.868,15.2205,-104.762,215.257,412.147,99.9225,236.447,838.5,217.134,-95.0978,-15.5766,103.65,-103.662,447.488,82.1523,-286.871,843.477,-41.6579,0.181,-237.849,-61.3886,39.3485,-485.353,-62.7264,108.704,-647.048,-3.82294,-83.9459,-489.967,32.2032,-296.703,-335.882,128.117,-157.493,-138.409,118.478,108.455,-418.702,-182.434,154.246,-157.939,-274.182,268.361,38.5212,-268.542
19,-1.01993e-07,-1.24537e-07,-1.64505e-07,134.529,-16.3603,36.3661,31.7956,366.68,270.742,20.2548,804.095,358.109,-135.122,15.6649,-37.184,-96.8936,469.463,5.5921,1.96539,856.093,-228.69,-0.744293,-235.812,-79.0413,16.2744,-488.438,-66.0284,-6.25616,-670.266,23.9333,-133.423,-482.286,-123.308,-297.603,-320.19,-262.924,-245.978,-173.069,-74.6474,170.525,-415.469,-55.0091,301.366,-159.32,-36.3562,270.129,-15.3752,127.741
20,-3.18396e-07,-2.03985e-07,-9.76172e-08,98.6018,-31.974,95.0282,-29.3277,379.265,223.819,-3.85834,820.444,302.428,-99.711,30.9215,-95.7762,-87.3327,471.745,0.163513,145.36,810.921,-151.649,15.3819,-240.003,-61.4352,7.76413,-491.5,-35.5554,-66.8806,-668.034,13.0435,-89.1768,-466.526,-153.518,-111.025,-234.744,-379.495,-135.682,-66.728,-224.211,136.886,-426.19,41.5947,248.407,-169.351,66.8469,157.865,12.3575,166.58
21,3.5311e-08,1.8652e-07,-6.24236e-08,-114.856,-38.1395,75.4702,-178.076,409.861,112.16,-145.663,835.294,257.027,114.726,38.3759,-75.886,-6.7088,479.25,-90.9311,184.406,682.116,262.34,24.4852,-253.937,-27.7968,-31.3603,-485.345,-97.0971,-83.318,-644.737,-218.043,107.908,-433.228,-193.728,168.57,-154.641,-226.181,-53.251,-65.3572,-229.744,-140.337,-436.345,27.0507,-234.119,-201.852,133.932,-310.62,-17.6658,-2.71539
22,-2.48628e-07,-3.26443e-08,-8.42966e-08,-122.369,-21.9916,50.4992,-111.638,427.849,138.313,-61.6512,845.706,317.642,120.921,20.9737,-51.4767,117.595,466.415,58.2559,142.613,890.363,223.361,8.05305,-246.683,-33.8398,13.3,-493.052,-94.18,2.59631,-684.375,-137.028,171.893,-484.665,-117.445,423.475,-414.959,-177.662,620.455,-376.255,-335.728,-126.005,-502.179,-11.6151,-372.541,-452.261,135.656,-598.468,-444.98,194.857
23,-2.35374e-07,-2.22373e-07,-3.68156e-07,-128.064,-16.8777,43.9494,-57.8683,413.301,208.552,79.8835,742.297,497.891,126.933,15.6849,-45.5522,49.5851,482.786,-69.5394,7.74628,930.057,14.9182,2.70953,-250.715,-26.3116,10.024,-485.995,-121.375,4.76837,-617.973,-263.68,164.317,-435.248,-117.978,360.672,-239.441,-67.816,504.75,-50.4108,-83.7736,-136.954,-456.284,-64.717,-279.727,-228.394,64.4583,-395.952,-4.33203,100.063
24,-1.06831e-07,-1.20474e-07,-9.84356e-08,-98.7648,5.28061,-108.568,-148.563,436.99,35.2692,-258.025,814.62,232.523,98.318,-5.86667,108.046,179.35,448.712,83.2582,150.609,892.414,111.703,-12.508,-263.047,-44.2776,12.1321,-495.579,-128.291,89.7132,-687.447,-185.42,81.2137,-503.046,30.9146,140.86,-390.295,303.184,246.31,-215.805,340.873,-98.6828,-401.468,-217.11,-213.88,-124.273,-251.253,-165.638,127.737,-304.159
25,2.91555e-08,-5.20864e-08,1.25692e-07,102.445,8.84428,-102.593,13.525,461.053,-53.2645,-126.368,885.663,-56.3886,-102.849,-9.52141,102.397,54.8776,385.697,258.003,134.65,828.851,351.583,-4.77101,-248.768,-76.6658,44.7176,-492.827,-114.143,113.182,-692.947,-86.3756,-101.239,-498.735,-33.2424,-340.777,-365.782,47.9375,-518.572,-269.656,211.934,138.356,-403.067,-208.051,256.292,-127.005,-220.881,419.038,56.6812,-153.04
26,4.49869e-09,-1.25144e-07,1.86752e-07,139.3,-7.4564,-43.5001,99.049,451.43,-13.0739,44.9382,891.717,-49.221,-138.93,7.43127,44.3044,-45.2957,377.679,293.802,32.8857,810.267,432.899,-2.82181,-250.198,-51.5688,29.9156,-500.045,-51.4662,43.5482,-712.843,-6.974,-143.433,-486.427,-60.4448,-363.731,-316.028,-63.1932,-557.477,-202.545,46.7223,179.991,-427.749,-88.5775,324.053,-172.375,-62.9573,411.549,-11.0646,90.0989
27,2.10587e-08,-2.31607e-07,2.61403e-08,56.1295,-41.5804,121.208,92.4897,387.961,190.192,341.946,739.071,109.157,-56.6989,40.2407,-121.781,-176.79,413.5,66.476,-146.777,833.127,240.41,-1.35394,-248.215,-49.8634,-47.9529,-484.399,-18.8433,-156.938,-670.621,-25.5515,-75.9308,-450.507,-174.608,-66.6982,-242.492,-390.429,-143.79,-0.310486,-442.653,33.3264,-416.846,111.913,96.6908,-183.6,266.868,47.7692,21.0171,374.434
28,-1.86218e-08,-3.27791e-08,-2.30413e-07,-98.1153,-26.8209,80.4457,-117.711,419.23,153.75,142.374,669.316,427.473,97.6623,26.2435,-81.4953,-24.7389,476.432,-36.5603,-61.5846,889.156,135.289,8.39357,-241.257,-36.4961,-10.2595,-482.995,-109.21,-40.3088,-643.396,-228.68,143.984,-442.794,-154.264,348.531,-276.419,-165.448,493.606,-127.297,-247.204,-138.202,-453.115,-14.1358,-239.647,-221.357,124.447,-378.364,-25.7936,155.085
29,-7.14111e-08,-9.82668e-09,-1.88892e-07,-125.163,-20.3203,34.4089,-195.459,425.773,79.6788,-70.1407,676.397,426.624,124.858,20.0434,-35.0507,45.869,482.466,-36.8751,-12.7856,903.751,149.47,9.16492,-244.975,-41.9368,11.9526,-481.578,-122.782,34.3267,-661.1,-217.964,173.036,-455.287,-101.422,398.608,-313.228,-28.5311,569.147,-165.982,-62.3435,-151.447,-451.566,-83.8566,-284.344,-218.067,24.2032,-394.45,-7.42035,43.8607
30,9.6001e-08,2.11963e-08,5.94841e-09,5.98845,5.13844,-138.253,111.798,451.681,-92.7919,-115.521,804.675,-18.5067,-6.12466,-5.60599,138.061,56.267,452.754,163.336,-57.3304,876.608,183.711,-11.5754,-254.309,-38.6202,58.7177,-493.105,-38.5699,143.086,-674.219,-9.65015,10.1085,-457.325,113.291,-44.9925,-243.449,293.618,124.035,-92.8022,355.268,60.0944,-434.081,-187.8,19.5163,-183.699,-294.654,97.8943,21.8074,-316.193
1,-6.91472e-08,-2.23222e-07,-1.05274e-07,102.533,20.8481,-94.8989,240.63,394.534,104.908,23.4135,758.596,29.8307,-102.617,-21.5365,94.6898,-36.5567,411.937,163.803,-76.9634,846.493,112.145,-3.15436,-232.585,-64.8992,-6.99167,-488.168,-65.4575,32.923,-676.562,-24.1665,-140.927,-443.485,5.96973,-283.986,-226.889,116.328,-271.132,-111.914,333.71,107.146,-429.474,-149.607,206.937,-171.041,-171.816,314.303,25.6428,-82.753
2,-7.87344e-08,-2.65298e-07,-1.26593e-07,126.056,0.285812,-51.1695,200.838,366.017,197.087,188.998,807.955,237.704,-126.156,-1.02841,50.8114,-67.2377,439.462,96.8232,-56.1151,885.198,33.9629,-15.7381,-227.926,-70.0002,-30.9464,-483.4,-72.8587,-57.5773,-666.767,-22.2938,-174.797,-426.522,-54.0177,-336.75,-217.601,38.1165,-388.7,-101.761,259.773,111.291,-424.929,-108.107,258.211,-169.078,-106.497,363.336,36.0839,11.9855
3,-1.32308e-07,-1.09984e-07,4.71011e-08,99.3017,-31.5945,95.8145,-13.9969,352.034,294.712,-61.1331,774.809,447.833,-100.169,30.7829,-96.2923,-33.6401,447.358,25.9117,155.738,850.191,-18.6813,-9.4359,-237.875,-52.7107,-59.8751,-487,-42.254,-129.624,-665.473,-33.439,-137.036,-434.446,-166.293,-163.878,-177.116,-309.204,-334.724,-38.6906,-237.527,62.5507,-439.853,48.744,197.548,-195.839,92.8905,149.333,-0.825867,199.252
4,-1.61465e-08,-4.15119e-09,7.94698e-08,-104.04,-32.2029,92.1578,-235.759,400.646,93.4377,-306.669,844.508,94.9313,104.241,32.2809,-91.6859,115.498,447.339,74.3325,246.559,795.887,318.66,6.57941,-248.671,-57.7903,-54.4863,-476.348,-147.503,-112.822,-634.103,-254.34,87.8331,-435.571,-229.847,240.894,-216.433,-245.301,178.942,-35.8182,-356.401,-140.355,-436.442,-8.59619,-165.375,-214.306,174.498,-262.672,1.91266,173.907
5,7.56505e-08,9.86881e-08,1.18948e-08,-133.71,-22.7752,13.7148,-153.476,436.806,-21.2421,-172.159,884.177,94.2458,134.204,23.4207,-13.1802,128.178,474.42,61.7786,194.355,689.772,485.542,17.2975,-249.009,-30.332,-32.1207,-473.663,-129.528,-97.8746,-595.771,-270.1,132.082,-461.806,-128.898,343.437,-284.4,-35.4039,394.903,-93.6283,-151.924,-172.93,-410.506,-59.8165,-262.978,-177.54,73.2576,-342.641,53.0957,108.661
6,-5.91495e-08,4.17747e-08,3.52583e-08,-93.2579,9.34346,-112.645,-78.7437,447.605,-35.5313,-169.428,865.908,71.1474,92.8396,-9.62719,112.26,189.787,424.069,50.6642,-21.0127,767.187,233.314,2.1637,-246.594,-73.924,22.4771,-459.558,-204.291,75.7055,-611.75,-301.187,98.3656,-509.314,-65.0659,250.039,-554.594,158.021,390.716,-523.466,311.749,-94.4042,-369.843,-269.708,-245.149,-103.551,-262.337,-199.015,118.497,-234.001
7,2.90475e-08,-3.40622e-08,2.97682e-08,93.1909,8.73645,-113.485,86.7117,446.105,-0.527893,-23.6449,871.017,28.295,-93.1918,-9.06019,113.474,51.8247,379.808,289.765,-89.8368,784.359,249.458,1.49576,-246.037,-64.7657,64.1833,-488.531,-128.544,117.006,-677.012,-96.7091,-64.6086,-516.601,-22.0684,-239.82,-515.307,179.804,-88.1392,-582.675,254.331,134.405,-389.109,-234.853,173.213,-127.944,-295.591,259.844,69.7122,-275.529
8,-6.46067e-09,-3.04656e-08,4.03481e-08,133.559,-1.81464,-55.8504,83.5191,444.316,43.2142,23.9201,889.809,88.0787,-133.767,1.45435,55.7311,-46.7845,376.046,290.375,-17.2731,826.062,312.621,-3.32753,-244.048,-62.4181,45.3248,-494.132,-71.4773,76.5095,-677.009,-5.95941,-112.597,-523.401,-50.9951,-343.112,-514.554,-21.6575,-383.329,-451.466,106.989,177.956,-406.843,-135.063,323.963,-157.453,-154.457,385.406,14.6305,-6.66266
9,1.10929e-07,-1.3037e-07,4.39726e-08,119.932,-29.358,68.4459,116.736,430.249,113.773,189.46,866.125,64.8851,-120.342,28.3036,-69.0345,-207.447,397.987,181.095,-188.343,819.171,367.487,-7.77888,-251.135,-37.6002,-22.3566,-495.996,8.66354,-75.333,-680.779,62.7909,-133.759,-493.906,-103.551,-314.664,-406.729,-257.377,-440.611,-313.894,-171.865,110.043,-430.977,76.3519,216.015,-202.236,192.186,162.716,-26.6436,343.106
10,-7.96627e-08,-2.40427e-08,-1.29715e-07,-61.9403,-36.7034,123.523,17.7559,390.561,214.624,211.388,767.764,321.973,61.4171,36.2137,-124.295,-109.714,453.515,-67.2337,-245.33,886.966,19.3499,0.176575,-254.298,-51.5751,-88.0703,-477.217,-107.494,-174.622,-632.812,-207.701,6.58234,-444.777,-239.798,151.4,-323.336,-422.067,18.4681,-281.537,-414.198,-125.277,-436.809,49.0541,-198.213,-222.345,219.362,-377.896,-45.8367,269.525
11,-5.32139e-09,-2.15034e-09,-1.48393e-07,-123.831,-23.0783,52.6687,-55.6763,412.352,202.433,73.7142,756.06,478.011,123.951,23.0995,-52.8417,26.1955,483.581,-94.7766,-59.0932,927.814,-37.6708,-1.6664,-254.927,-35.8354,-54.0976,-479.573,-132.309,-51.2118,-636.414,-235.157,108.159,-478.533,-139.664,382.359,-459.593,-93.3892,419.83,-332.238,-215.034,-190.088,-416.228,-62.8463,-342.223,-179.57,7.46423,-415.369,11.2203,-152.437
12,4.99385e-08,6.61167e-08,-1.3561e-07,-131.22,-18.2103,-3.91559,-127.49,422.641,112.3,-93.5637,713.483,460.705,131.281,18.2786,3.71446,86.4946,472.611,-50.3284,-16.8495,930.433,20.3049,8.2486,-246.231,-30.8085,6.20932,-485.67,-111.487,42.9288,-652.646,-214.687,162.673,-492.151,-61.1281,422.253,-460.997,33.8118,489.3,-301.11,-55.7042,-157.309,-429.207,-107.111,-322.345,-191.122,-75.9293,-357.596,-12.5432,-211.69
13,9.67267e-08,1.28061e-07,4.3385e-08,12.5278,17.3374,-145.472,-89.4252,439.169,-23.3427,-321.718,798.422,65.2446,-12.6922,-17.504,145.235,146.442,412.725,184.186,194.252,855.179,190.792,-3.446,-255.781,-55.7173,58.5981,-487.31,-107.641,139.98,-685.324,-99.7861,-8.78125,-505.715,54.8344,-162.008,-370.622,255.862,-63.7853,-262.651,312.316,61.6568,-401.178,-240.442,99.6215,-138.306,-314.195,245.037,10.958,-279.455
14,1.42309e-07,2.99e-08,8.79e-08,107.387,12.0371,-98.1633,51.4443,457.447,-20.2737,-175.348,831.329,-93.093,-107.502,-12.4803,97.8647,33.4413,399.534,235.48,70.3885,840.47,268.632,-19.6472,-243.223,-66.9585,-2.57333,-490.463,-73.2077,50.5334,-676.778,-14.7192,-143.846,-482.086,18.2451,-353.635,-333.256,78.4973,-176.422,-151.198,84.8661,108.098,-431.542,-169.145,244.342,-174.564,-148.105,344.583,-16.1249,-17.6886
15,1.44019e-07,-9.21126e-08,1.80783e-07,132.045,-0.709503,-41.1448,164.809,441.552,81.1511,40.3274,774.275,-220.961,-132.509,-0.430634,40.7228,-45.6891,409.636,221.727,42.023,853.858,292.956,-7.5085,-240.451,-66.5469,-19.7834,-495.005,-51.3382,-55.0668,-675.063,28.7886,-177.076,-456.706,-64.3031,-370.685,-275.261,-133.412,-233.965,-110.283,-48.0863,137.025,-445.331,-77.7309,261.51,-194.024,-62.4775,298.22,-25.2689,94.0197
16,-4.18344e-09,-1.03736e-07,4.98982e-08,75.6649,-37.0825,102.717,-13.4098,358.104,296.584,256.238,694.692,165,-75.9056,36.4277,-102.937,-99.0324,434.524,94.5754,33.1121,865.01,226.402,7.62936,-240.333,-59.4048,-32.1202,-483.474,-22.4685,-117.451,-660.526,-24.4353,-86.7505,-443.568,-164.546,-94.5925,-232.179,-388.832,-126.547,-36.2032,-304.201,64.0972,-411.823,91.5593,98.9448,-139.049,206.735,24.3519,60.7285,302.571
17,-9.0222e-08,1.4134e-08,-7.12521e-08,-89.762,-36.069,94.856,-224.841,406.821,113.622,-21.2991,766.438,324.338,89.0327,35.4697,-95.5977,21.3587,472.246,24.1077,46.8406,887.14,210.51,3.78271,-246.321,-63.595,-48.8463,-470.797,-158.437,-75.4193,-627.494,-267.789,95.236,-431.071,-236.846,305.021,-280.966,-250.386,156.985,-99.5427,-193.549,-147.683,-448.546,-24.9548,-198.609,-226.725,171.358,-301.373,-22.8756,179.513
18,-6.10059e-08,-2.20595e-08,1.94969e-08,-132.783,-22.9321,29.9011,-195.394,434.979,2.61261,-191.478,854.691,152.338,132.66,22.7764,-29.8012,91.5107,466.178,87.0497,79.7062,856.227,319.644,12.5824,-255.25,-52.8835,-26.0518,-476.573,-165.671,-42.6748,-644.589,-277.836,145.901,-466.702,-172.713,381.508,-359.893,-43.7768,258.077,-147.98,-30.2961,-173.239,-431.959,-82.7994,-280.452,-216.77,86.0798,-344.644,13.3329,99.7766
19,4.37809e-08,-9.91586e-08,-6.95742e-08,-112.654,-6.76894,-67.1061,-44.6586,452.282,-115.503,-17.6329,910.051,-98.6138,113.067,6.87013,67.5544,16.1086,444.833,159.438,-116.406,810.478,385.623,5.34647,-253.635,-22.755,17.5562,-488.632,-112.743,110.471,-656.36,-193.549,139.179,-486.25,-2.13519,286.513,-355.637,196.883,276.874,-142.912,65.738,-130.458,-417.116,-160.102,-267.742,-167.557,-120.246,-248.527,63.3081,-151.056
20,-1.22448e-07,-6.29103e-08,-2.08273e-07,56.669,12.6772,-135.196,194.375,432.309,-17.5599,225.755,874.01,57.4802,-57.1453,-12.9927,134.627,-10.9407,435.842,199.075,-181.887,838.186,146.624,-2.29004,-257.478,-48.0461,61.6959,-495.26,-73.7653,182.431,-679.909,-88.9056,-4.10339,-481.631,87.4094,0.856506,-259.495,274.194,188.537,-188.549,288.66,79.7931,-404.767,-217.156,162.736,-137.221,-282.538,280.192,-147.151,-63.8353
21,-1.65098e-07,3.38225e-08,-4.1634e-08,-123.927,-19.8275,49.1793,-102.789,425.658,124.831,-32.6138,836.876,306.174,122.865,19.1636,-49.8526,141.365,461.831,46.787,178.316,879.116,213.648,9.35173,-242.982,-40.0366,1.27832,-487.698,-103.711,-23.4888,-678.461,-138.657,163.153,-487.871,-133.591,420.741,-427.783,-210.44,605.853,-406.461,-381.637,-138.123,-491.02,-15.592,-373.208,-437.541,135.612,-615,-428.458,174.159
22,2.6303e-08,1.00735e-07,-2.74841e-07,-136.632,-16.6334,-4.27745,-181.711,428.005,-28.7307,-138.487,670.597,362.504,136.435,16.6827,3.43304,59.1587,472.183,30.7556,-32.3646,883.69,207.246,23.2685,-254.192,-42.9618,47.3867,-482.244,-137.71,101.097,-617.26,-288.907,197.592,-459.149,-63.7417,336.704,-274.239,104.998,471.497,-79.7081,75.7409,-119.687,-458.606,-152.061,-310.949,-230.074,-121.716,-338.183,-36.2789,-269.77
23,1.72838e-07,7.29312e-08,9.01944e-08,29.1898,14.7339,-134.42,26.5107,469.834,-80.4972,-295.835,762.214,-25.2128,-28.9769,-14.8093,134.699,68.6115,421.957,181.396,18.4952,859.141,168.546,-7.24521,-250.137,-44.8391,37.7811,-492.157,-85.0265,130.443,-674.273,-48.8814,-38.954,-482.355,55.3493,-171.44,-286.551,207.404,-237.713,-152.808,359.138,63.1219,-417.609,-224.085,67.5524,-149.046,-305.91,200.923,61.6317,-337.169
24,5.91895e-08,-1.86069e-07,1.24487e-07,123.951,3.86021,-66.8795,108.841,444.879,25.1876,-40.833,825.284,-119.625,-123.323,-4.05038,67.6335,-25.4939,394.843,249.38,-7.83704,837.689,269.627,-8.10776,-241.579,-63.02,-6.20663,-495.186,-56.7045,-3.40881,-692.334,-6.10211,-164.608,-460.482,-24.7787,-353.023,-258.133,16.7917,-494.198,-95.4642,108.582,137.674,-433.173,-109.767,278.831,-172.836,-78.2308,371.912,7.42688,60.1782
25,1.6466e-07,5.44008e-08,8.07696e-08,125.74,-26.9589,54.6354,118.639,356.907,287.439,264.025,690.747,-17.8224,-125.43,26.8603,-54.6279,-83.3241,427.117,149.157,62.4232,828.099,198.415,-21.074,-247.79,-58.3557,-64.2535,-499.101,-61.3996,-159.225,-678.149,-52.7495,-169.424,-457.928,-182.257,-257.876,-225.2,-353.67,-357.582,-47.9466,-282.788,81.9799,-472.964,7.72272,231.132,-233.336,75.0618,251.073,-41.117,170.669
26,5.78732e-08,1.83502e-07,-1.18905e-07,-105.413,-33.7749,84.6281,-213.747,400.774,81.4853,-63.3491,746.688,334.784,105.595,34.2052,-84.8687,45.2922,468.48,25.7142,62.0584,860.524,235.812,11.7574,-247.006,-62.0631,-7.2193,-481.275,-153.575,-49.7903,-637.201,-291.996,134.75,-427.382,-217.673,262.052,-185.299,-164.099,294.443,34.5137,-205.538,-114.545,-472.456,-14.6546,-155.165,-265.742,184.723,-284.537,-76.8209,226.281
27,-4.56664e-09,-5.76887e-08,-1.16141e-07,-138.333,-21.9211,21.5905,-181.556,428.191,-0.553284,-173.952,855.86,119.503,138.273,21.7668,-21.9416,89.3667,463.07,69.7835,63.2581,838.786,305.076,22.8336,-254.219,-47.2957,43.6845,-487.7,-138.048,37.7787,-646.036,-289.537,207.403,-443.002,-104.837,379.746,-218.026,-15.4182,456.468,-58.5281,-158.767,-124.03,-459.143,-94.0594,-276.455,-236.147,13.6248,-371.053,-25.9473,-46.5614
28,-7.136e-08,-2.70253e-07,-1.29252e-07,-89.1362,3.36848,-101.553,12.841,452.489,-137.806,-12.2815,906.464,-88.7048,88.8003,-4.1506,101.101,5.77991,450.588,143.874,-160.255,830.276,331.393,-1.6254,-250.465,-34.1617,45.3016,-492.431,-96.2782,122.908,-672.773,-131.773,100.772,-479.929,62.0157,146.341,-335.56,277.991,340.931,-260.184,320.882,-61.5522,-420.167,-208.767,-203.885,-171.835,-213.139,-163.538,73.788,-233.687
29,-1.41501e-07,-2.30132e-07,-2.22886e-07,81.8835,10.2262,-112.646,219.842,394.946,69.123,181.806,833.369,97.7335,-82.0503,-10.755,112.311,-47.9845,432.732,131.146,-156.567,860.361,86.786,-23.8414,-229.58,-58.2328,6.52747,-481.755,-89.618,67.0737,-661.61,-61.7958,-98.7889,-451.648,19.6331,-212.573,-247.477,168.736,-46.4045,-190.959,292.649,71.2234,-397.095,-192.828,95.3821,-135.016,-260.111,216.459,86.0872,-253.197
30,-1.0836e-07,-1.89912e-07,-2.16754e-07,115.828,8.24092,-79.9529,210.711,378.038,158.329,206.105,810.273,237.534,-116.071,-8.78703,79.3899,-77.2096,436.077,112.231,-117.136,877.861,45.3831,-10.5576,-239.498,-57.7912,6.12216,-492.253,-58.105,49.9727,-678.597,-17.5179,-137.49,-455.801,4.1123,-314.94,-267.803,117.5,-351.663,-181.065,373.324,125.668,-422.488,-131.427,244.245,-156.481,-154.72,350.849,29.024,-42.053
1,-9.93082e-08,-1.9548e-07,-9.08636e-08,138.489,-11.9209,-13.5231,168.077,368.246,221.401,197.984,806.202,264.606,-139.01,11.0405,12.9133,-64.1068,451.548,63.378,2.65448,891.576,29.6906,-19.4315,-238.009,-55.6624,-27.2649,-494.682,-49.3072,-63.3641,-683.649,-2.55951,-176.717,-445.81,-82.9316,-322.925,-218.964,-117.829,-463.03,-139.108,30.1048,126.024,-443.672,-69.6155,266.121,-188.55,-102.771,324.803,-12.55,18.5978
2,1.4053e-07,1.76942e-07,2.64517e-08,13.6745,-38.1442,127.726,-75.8276,384.99,253.546,140.844,778.062,298.592,-13.8541,37.6468,-128.511,-64.8105,472.901,13.3455,50.9758,887.082,138.921,3.70227,-245.631,-41.4948,-46.2396,-483.099,-31.0011,-120.162,-650.91,-65.0521,-14.7587,-472.587,-201.598,-82.3579,-436.727,-476.983,-180.712,-435.679,-490.058,-26.8053,-420.693,105.021,-75.8094,-170.885,168.387,-175.209,-82.561,76.1986
3,3.98702e-08,1.3879e-07,-6.74816e-08,-101.003,-32.6287,86.799,-212.955,408.322,70.3063,-65.1576,772.537,301.754,100.998,32.748,-87.1077,36.2103,470.413,23.1233,66.7754,859.144,229.907,20.6532,-248.944,-49.1423,1.22537,-490.381,-113.979,-40.6089,-651.123,-234.844,153.896,-471.762,-182.292,379.859,-458.345,-293.811,217.332,-402.111,-388.446,-114.609,-471.603,11.9042,-205.832,-265.185,184.943,-315.898,-71.3642,123.68
4,9.71092e-08,1.34091e-07,-2.17823e-08,-135.441,-25.0003,40.7396,-180.638,430.475,15.2863,-112.357,821.77,205.468,135.289,24.8342,-41.2705,75.3931,467.084,33.6879,50.9774,863.982,231.388,13.1353,-254.571,-68.9713,-19.7733,-484.44,-164.472,-47.6187,-656.663,-280.207,154.205,-498.579,-178.235,388.599,-499.441,-173.837,416.364,-460.887,-338.044,-171.876,-449.825,-66.1327,-310.457,-230.106,86.0375,-405.351,-11.9052,34.1135
5,-3.29318e-08,-9.11951e-08,-7.74769e-08,-127.88,-11.006,-56.4915,-67.8233,442.185,-117.988,-151.725,845.709,36.687,127.527,10.4559,55.9961,33.2664,448.532,96.8746,-106.469,849.186,258.621,21.1848,-248.04,-32.8456,26.1686,-482.921,-129.073,72.4745,-634.07,-226.03,156.048,-493.408,-47.9416,380.727,-485.657,71.8571,511.23,-440.22,-61.7637,-121.091,-425.978,-144.665,-286.49,-194.845,-104.365,-283.619,36.5632,-205.077
6,-1.17371e-07,-2.99632e-07,-7.79546e-08,51.2982,5.39261,-135.139,189.318,434.64,-27.8917,11.0026,825.89,-57.1959,-52.5641,-7.20509,133.918,11.9528,447.311,183.951,-68.6755,884.068,158.336,-27.5906,-258.465,-31.4294,23.9453,-506.532,-70.4028,94.9055,-692.506,-67.0123,-45.9872,-504.197,80.9616,-49.2399,-392.838,291.473,106.373,-470.968,258.5,38.5011,-418.938,-215.679,15.5777,-154.945,-287.666,195.659,-0.071228,-276.816
7,3.54103e-08,-5.26145e-08,-1.60534e-07,113.097,18.54,-87.2487,247.653,403.774,105.16,42.3397,778.497,15.7955,-113.186,-19.0182,86.6553,-51.5144,426.333,169.02,-71.2206,857.808,109.486,-0.740616,-240.687,-53.4466,31.1483,-489.747,-54.2569,65.8221,-674.182,-5.40729,-116.969,-490.888,18.818,-344.543,-339.09,89.8093,-182.677,-162.785,112.087,135.93,-431.683,-154.685,226.43,-171.802,-201.804,297.397,-32.1498,-73.8116
8,-1.05664e-07,-4.07023e-08,-1.80218e-07,129.582,-7.03535,-30.9574,181.934,352.178,234.497,219.681,785.531,319.123,-130.247,6.34004,29.9496,-32.1712,446.756,75.017,9.28192,890.048,6.82574,-14.2664,-226.531,-66.9115,-28.906,-484.289,-81.9417,-57.4908,-654.861,-57.4898,-170.292,-454.83,-80.2715,-348.559,-290.464,-163.008,-207.545,-133.605,-40.4039,119.976,-437.608,-119.961,254.316,-183.165,-156.256,327.215,-24.85,9.23505
9,-7.8239e-08,2.34457e-08,1.4405e-07,-2.24405,-41.6247,129.847,-151.419,366.279,200.624,-250.087,798.786,329.141,1.60327,41.15,-129.897,76.5607,450.008,-2.91193,325.828,797.458,104.354,-0.154922,-234.736,-55.6366,-93.9822,-467.311,-78.7817,-190.449,-623.152,-121.215,-63.2303,-412.524,-214.9,56.3774,-211.197,-367.948,-51.3338,-71.6263,-249.87,-57.1353,-442.653,61.3297,40.4124,-244.981,207.216,-27.6837,-51.4199,242.693
10,-6.52309e-08,-1.70402e-08,6.5275e-08,-116.831,-28.5277,58.8736,-169.437,421.347,16.6932,-196.369,871.515,76.5435,116.579,28.2767,-58.6952,114.64,443.446,109.194,234.584,745.194,432.557,16.2473,-240.488,-30.7247,-45.6155,-476.35,-101.124,-93.2698,-618.822,-218.358,100.235,-457.808,-164.475,330.656,-320.896,-147.172,190.125,-118.143,-137.633,-146.126,-426.31,7.78998,-200.919,-208.721,173.844,-289.29,-9.97913,110.84
11,8.68241e-08,1.21402e-07,-7.91242e-08,-136.053,-16.9395,-13.475,-145.709,439.169,-12.9725,-157.546,874.121,101.107,136.219,17.2445,13.3903,123.42,467.443,64.8112,82.4713,700.369,447.699,5.79013,-252.111,-32.969,-17.2427,-481.272,-128.586,0.612366,-621.838,-278.113,150.247,-483.26,-90.4871,325.456,-355.177,86.3585,223.493,-125.333,11.3732,-181.544,-429.049,-92.9586,-307.004,-208.608,24.5153,-326.02,8.69556,-23.1786
12,3.82993e-09,-1.09426e-07,3.97375e-08,44.2484,7.8568,-139.023,138.1,442.312,-11.8578,34.5842,876.242,25.1354,-44.8843,-8.86708,138.669,116.048,411.744,270.465,-221.906,690.989,208.061,-23.8886,-257.492,-48.49,46.8322,-489.868,-97.6333,134.305,-668.597,-79.1904,5.96497,-468.018,62.5297,14.8843,-251.001,244.608,196.846,-117.573,259.154,39.9311,-399.544,-225.606,-5.00226,-126.224,-314.024,128.177,53.77,-248.086
13,8.45849e-09,-1.0241e-07,-1.03187e-07,127.432,-3.54152,-62.0945,132.707,445.015,29.0101,106.6,888.952,59.0065,-127.945,2.57066,61.1175,-99.6078,446.365,162.916,-120.269,896.923,164.456,-9.0379,-250.269,-59.0263,-18.4782,-497.209,-105.671,-3.77112,-707.055,-91.5128,-185.183,-490.316,-61.8416,-464.428,-473.376,32.2164,-640.564,-492.911,190.62,122.066,-461.146,-200.763,365.083,-367.002,-312.164,587.309,-359.94,-371.347
14,2.54467e-08,-1.00894e-07,1.78895e-07,127.743,0.364716,-66.2349,49.3516,461.714,-15.4214,-81.0558,887.132,-73.6388,-127.145,-0.254974,67.2179,-26.9663,396.92,303.876,75.9249,819.145,445.615,-15.2894,-235.068,-72.7085,-18.4566,-489.762,-56.903,-7.81946,-680.077,9.27307,-170.624,-448.055,-22.1507,-370.375,-240.542,22.3305,-499.954,-52.139,118.469,120.89,-441.225,-121.468,275.263,-174.672,-128.704,410.276,6.1048,-19.9476
15,-4.58048e-08,-2.00618e-07,6.13324e-08,104.303,-34.4905,89.2486,162.666,419.882,114.407,279.959,843.409,36.9398,-104.644,33.711,-89.2725,-178.179,424.585,120.801,-146.566,847.223,285.148,-5.59007,-248.257,-45.4129,-38.2765,-494.608,-20.4687,-105.247,-680.031,-4.26581,-123.469,-458.921,-150.974,-180.771,-246.928,-351.208,-237.831,-34.6914,-341.466,85.0225,-432.021,67.7544,183.365,-181.635,166.193,124.022,-18.3258,279.717
16,-3.05115e-07,-3.32561e-07,-2.14653e-07,-84.8948,-30.8148,98.7324,-25.8785,410.853,214.526,124.518,791.3,390.398,82.9781,28.6919,-100.733,-37.5993,468.383,-82.1239,-86.1855,905.033,16.6666,-11.1744,-251.44,-32.7278,-80.1716,-485.414,-84.1925,-134.831,-635.692,-175.114,59.3835,-446.842,-157.604,289.175,-296.694,-193.902,468.482,-162.455,-244.599,-163.675,-432.937,33.1803,-246.71,-207.377,194.244,-349.047,-5.18225,219.096
17,-2.25598e-07,-1.8822e-07,-3.02224e-07,-130.936,-15.4484,19.0336,-76.4494,414.082,191.832,-3.39276,754.781,500.029,130.244,14.6892,-20.0111,75.8007,474.26,-108.511,4.34076,929.735,-45.8729,-10.9947,-244.359,-46.8316,-40.4231,-472.872,-146.381,-45.4351,-622.375,-281.108,118.885,-468.047,-118.479,349.063,-336.556,0.710144,553.758,-218.401,23.8185,-187.97,-412.295,-104.713,-314.196,-166.371,-9.3009,-401.669,40.0258,-18.8196
18,3.03779e-08,-6.35644e-09,-2.15379e-08,-62.2369,17.0924,-129.536,-122.85,453.994,1.21783,-351.043,751.179,247.336,61.9071,-17.5815,129.136,163.316,437.488,107.601,148.672,883.813,102.188,-32.2384,-255.121,-46.0081,8.52649,-494.35,-100.548,105.664,-681.643,-118.844,23.2996,-478.065,66.8509,24.6177,-267.813,260.546,105.474,-172.639,191.193,-52.4336,-408.641,-222.399,-96.5302,-129.779,-290.564,28.9132,74.3369,-316.863
19,1.58591e-07,-1.12304e-07,1.96422e-07,104.141,15.5914,-92.0526,136.272,451.699,-4.05591,-118.702,745.078,-177.339,-104.358,-16.5536,91.9409,66.7042,364.551,242.661,103.855,803.84,237.457,-11.0472,-216.058,-81.139,-13.8703,-465.368,-107.116,11.6121,-639.236,-65.4547,-149.353,-445.69,-54.7375,-349.007,-303.723,10.9257,-489.075,-224.677,161.848,100.7,-409.591,-171.49,232.02,-158.106,-168.882,393.216,12.1388,-88.2532
20,2.56293e-07,-9.98016e-08,1.18516e-07,139.291,-9.3746,-37.0856,205.122,389.113,164.224,116.988,717.979,-144.819,-138.185,9.46988,37.9359,-24.3701,423.184,203.718,69.0471,857.356,231.727,-19.2796,-243.588,-61.6612,-19.2838,-498.129,-76.9586,-48.9201,-700.531,-38.9045,-175.961,-465.06,-84.9489,-398.468,-281.854,-92.903,-568.606,-153.485,-9.09039,128.82,-441.057,-102.037,275.335,-178.643,-93.5097,367.191,-7.69629,49.0479
21,-4.66719e-08,-3.10297e-08,1.27069e-08,7.86142,-42.6538,121.399,-119.199,377.075,260.503,133.421,764.733,306.512,-8.28725,42.1591,-121.894,-47.1471,472.235,12.0081,75.4382,888.932,157.166,-11.052,-238.316,-55.9335,-74.2561,-473.492,-127.212,-157.5,-627.447,-229.114,-34.6035,-383.356,-245.642,43.3807,-116.827,-314.95,-119.988,24.3762,-291.059,-59.88,-441.618,30.9562,-18.1219,-214.869,206.948,-109.729,-4.10272,271.236
22,1.11388e-07,9.19327e-08,-9.81995e-08,-88.8684,-32.3542,88.0608,-205.411,407.709,74.3171,18.6046,753.229,322.078,89.2522,32.6408,-88.1458,48.7668,465.437,31.754,90.9396,868.528,254.764,7.21927,-245.546,-35.3135,-19.37,-475.809,-135.867,-54.2558,-625.513,-282.952,131.507,-407.025,-197.762,266.045,-165.282,-164.231,230.586,12.1699,-357.233,-141.18,-451.78,-14.1825,-198.126,-223.448,162.922,-283.168,-22.6201,118.807
23,1.92643e-08,-2.41287e-08,-7.64382e-08,-132.584,-14.9931,29.6497,-171.825,434.276,-33.9249,-151.996,856.77,118.121,132.586,14.9612,-29.8492,108.191,452.315,76.0674,116.149,822.764,329.665,14.9667,-243.649,-53.0467,20.6851,-477.02,-145.288,16.5538,-626.085,-290.798,176.238,-435.621,-118.952,353.859,-230.605,-34.2654,382.911,-59.5549,-213.453,-136.416,-438.917,-94.7592,-249.699,-211.57,26.4803,-324.106,20.4819,-4.66058
24,-2.52288e-08,-2.14836e-07,-1.04995e-07,-100.323,7.45258,-89.5921,3.71075,456.657,-109.255,47.1757,914.84,-67.4061,100.069,-8.0688,89.2354,17.2941,435.791,158.718,-126.549,817.057,348.406,-9.39534,-245.011,-43.0269,16.5628,-486.089,-119.69,84.2694,-665.93,-185.285,96.3702,-470.282,28.2579,181.305,-290.765,222.806,334.215,-152.545,240.557,-107.24,-403.795,-208.197,-251.43,-145.866,-184.741,-261.033,101.574,-193.026
25,-1.68382e-07,-1.49136e-07,-2.85376e-07,94.704,15.9584,-103.396,265.311,383.413,93.774,362.169,806.827,189.773,-95.2964,-16.6219,102.441,-60.8933,429.435,109.58,-196.193,850.994,37.5165,-5.71506,-228.824,-63.9962,27.0403,-478.075,-87.6016,82.4319,-644.616,-63.207,-92.1033,-454.725,-2.81171,-239.535,-269.651,125.82,-140.643,-134.952,256.342,108.061,-405.188,-177.797,137.667,-130.782,-243.961,251.579,71.5092,-211.227
26,3.86096e-08,-1.7954e-07,-1.69796e-07,135.05,-7.33773,-46.3498,177.807,394.293,163.389,166.893,828.699,261.863,-135.485,6.46382,45.464,-93.1185,447.24,150.493,-151.23,816.752,-100.417,-14.3806,-242.766,-65.4764,31.1705,-488.416,-61.2576,89.0627,-669.869,18.6542,-129.365,-466.381,-26.0807,-336.655,-270.15,45.4329,-411.784,-141.114,216.235,154.033,-406.805,-126.252,255.828,-130.539,-169.831,365.158,89.9972,-120.536
27,1.69316e-07,-6.72382e-08,-1.17543e-07,93.6384,-33.7367,92.2617,76.9601,402.713,206.936,174.684,828.437,213.175,-93.4361,33.4196,-92.7264,-172.417,424.428,123.918,57.1307,797.959,85.1442,-25.504,-245.036,-21.141,-53.1577,-488.763,41.4101,-100.423,-660.125,81.8682,-151.471,-489.799,-73.6583,-333.589,-430.932,-182.214,-392.699,-389.757,-31.7733,64.1557,-420.661,115.784,201.386,-198.198,241.203,111.333,-37.2433,356.867
28,-9.90892e-09,1.18503e-07,-1.2599e-07,-80.7137,-36.4708,112.229,-65.179,414.315,189.589,45.4205,822.341,340.24,80.8921,36.7252,-112.424,-69.3964,462.445,-107.481,131.865,782.863,109.425,-14.9747,-250.065,-47.6886,-96.1856,-484.307,-86.4257,-153.135,-654.062,-181.797,31.567,-476.017,-186.2,218.543,-447.443,-323.201,79.8417,-379.396,-432.629,-160.416,-427.891,46.0024,-190.082,-197.266,183.906,-314.675,11.5054,149.934
29,7.30909e-08,1.29593e-07,-2.25916e-07,-131.158,-16.6983,35.7173,-76.1521,413.26,197.22,5.61755,804.203,400.667,131.486,17.0973,-36.027,52.8913,478.021,-73.7563,72.0253,889.322,104.001,-18.8709,-251.611,-49.9755,-81.7336,-482.221,-127.89,-103.676,-626.452,-275.99,98.7808,-502.735,-132.809,338.862,-528.304,-103.922,348.013,-385.301,-175.182,-227.323,-419.689,-46.8922,-321.895,-205.227,97.8263,-425.186,3.88782,75.2695
30,-2.47819e-07,-1.76907e-07,-1.93578e-07,-122.935,5.1781,-65.8478,-107.132,439.925,73.4292,-153.491,801.505,324.819,121.589,-6.44131,64.5242,175.82,447.987,-10.657,137.808,912.468,30.0433,-18.5341,-247.075,-55.0332,-16.2424,-471.22,-175.239,47.4682,-623.526,-275.881,94.2162,-497.243,-63.7818,303.318,-478.083,91.4498,445.794,-391.054,86.2294,-145.086,-390.587,-218.764,-289.163,-141.397,-200.116,-243.916,103.715,-243.805
1,-8.86815e-08,-5.11709e-08,4.26954e-08,62.3084,11.9134,-129.87,-3.00012,450.742,-44.506,-157.727,839.394,17.9071,-63.6529,-13.2217,128.793,117.505,385.445,254.904,177.803,816.834,334.096,-6.85936,-252.271,-51.7466,50.4144,-495.894,-91.01,131.654,-679.419,-62.696,-64.5362,-514.379,37.1223,-193.049,-477.585,258.907,-76.8438,-572.153,272.186,107.973,-408.641,-218.915,212.821,-150.517,-278.754,359.803,24.8901,-196.514
2,4.58013e-08,-4.23554e-08,1.48006e-07,130.901,-7.61278,-64.1042,67.4566,457.908,-39.4056,-58.3786,884.327,-95.2707,-130.62,7.49593,64.543,-4.6709,388.473,298.822,101.098,826.161,401.545,-11.0956,-240.274,-70.8178,25.6737,-489.238,-95.5323,47.8671,-698.824,-45.2636,-136.782,-508.478,-74.2792,-403.141,-495.937,-39.9645,-391.297,-402.913,108.341,166.086,-420.023,-139.961,325.883,-182.921,-99.1082,404.306,-38.376,105.695
3,1.45324e-07,-7.33285e-08,8.34603e-08,140.81,-13.7939,-3.0434,147.452,443.546,41.2404,119.065,835.81,-122.436,-140.507,13.463,3.13315,-69.3072,402.62,227.111,44.263,827.489,337.861,-18.3741,-240.463,-56.8238,-13.8795,-493.466,-61.5812,-32.647,-684.506,-26.1885,-165.255,-490.62,-105.418,-427.34,-418.93,-112.388,-492.313,-330.599,86.6626,135.315,-446.288,-50.5266,300.253,-229.809,45.0551,342.05,-84.1874,238.737
4,-4.39167e-08,-1.03075e-07,-8.19816e-08,21.4321,-29.311,125.843,97.9795,408.144,201.697,364.792,771.212,218.732,-21.4667,29.0261,-125.987,-172.207,439.472,15.3179,-197.705,876.132,110.763,1.0302,-230.536,-37.0621,-74.7104,-470.996,-86.3102,-135.352,-616.928,-143.655,-24.223,-408.877,-204.268,115.369,-219.251,-357.094,-1.97345,-29.029,-301.868,-70.0133,-441.556,55.3823,-79.6958,-231.754,219.256,-258.84,-71.4463,216.421
5,-3.03257e-07,-2.04569e-07,-2.86673e-07,-96.6531,-15.989,97.1045,-27.7744,406.564,233.438,223.237,687.167,482.357,95.4729,14.9819,-98.4865,-36.0533,443.933,-65.0997,-98.3387,889.718,22.0531,-7.30621,-229.955,-34.6797,-44.5463,-471.104,-116.351,-60.3361,-602.505,-219.002,80.5131,-427.187,-180.413,306.359,-267.557,-207.805,166.239,-82.9231,-135.906,-132.008,-448.672,-2.32782,-212.881,-223.891,132.542,-321.82,-22.6089,133.848
6,-6.53251e-08,1.4898e-08,-1.90367e-07,-136.475,-12.0862,25.6277,-154.026,431.386,114.139,-30.5171,636.344,493.098,135.852,11.6207,-26.5895,71.3558,455.046,-30.2543,24.3032,882.021,80.7915,6.07477,-251.579,-35.7736,-5.24893,-476.599,-147.549,18.2842,-622.735,-289.638,155.134,-459.847,-120.324,377.782,-342.311,8.28723,253.496,-138.27,-22.3062,-160.115,-426.643,-106.752,-309.88,-180.763,-49.5303,-332.214,30.4302,-140.612
7,1.29599e-07,-4.32515e-08,-5.15485e-08,-64.2425,14.8679,-126.859,14.3903,463.353,-99.8368,-245.161,736.876,126.788,64.166,-15.3117,126.47,95.0994,438.742,111.469,-30.8049,871.396,154.483,-27.656,-254.074,-40.6313,-2.48358,-495.024,-111.122,97.0394,-677.802,-134.447,33.4995,-485.581,56.2108,32.3215,-282.107,257.208,113.196,-83.5302,232.523,-81.8431,-414.768,-228.688,-154.567,-141.804,-254.893,-75.9413,89.24,-288.299
8,1.55074e-08,-1.62817e-07,-1.40528e-07,97.5842,14.0976,-102.312,245.407,401.026,78.7957,73.3557,797.906,-4.11786,-97.7249,-14.9456,101.65,-12.2492,426.246,166.62,-22.5416,875.23,137.574,-10.264,-236.901,-76.0308,17.4113,-485.396,-108.427,63.3682,-679.18,-75.9442,-115.531,-487.627,-12.9544,-327.759,-350.708,87.6514,-177.272,-144.897,116.068,115.02,-408.677,-209.649,196.853,-141.108,-224.617,321.888,44.7026,-169.553
9,2.98261e-08,-3.42367e-08,-2.1697e-07,133.517,1.23218,-51.858,217.772,369.057,203.924,225.135,807.667,252.93,-133.162,-1.21353,51.5789,-64.0395,453.333,90.925,-54.046,890.653,14.7896,-13.1287,-240.66,-59.4816,12.2728,-492.665,-61.604,21.1422,-689.385,-28.6534,-149.692,-484.578,-43.4944,-382.857,-327.506,-52.045,-224.963,-162.712,14.6922,144.123,-425.425,-118.237,279.833,-157.481,-138.394,372.409,17.2113,-34.5779
10,-5.45444e-08,-1.29472e-07,-4.10122e-08,115.396,-33.3986,72.5423,33.2036,353.23,280.768,1.25055,766.172,467.815,-115.878,32.6883,-73.0639,-22.2495,454.442,36.0058,163.934,868.026,11.2097,-21.8702,-233.601,-53.9062,-58.5509,-482.248,-25.0406,-129.786,-658.171,7.30511,-169.914,-449.391,-122.368,-300.622,-241.386,-285.092,-287.305,-79.5844,-97.3271,75.4987,-431.388,34.013,219.621,-195.131,88.6497,208.371,6.97211,192.742
11,5.04703e-08,-3.00504e-08,9.72603e-08,-28.3444,-42.5369,127.445,-127.425,388.267,208.661,-182.517,821.411,361.769,27.9487,41.7288,-127.838,49.8895,466.417,21.9284,234.793,841.309,152.654,-1.12401,-245.864,-49.5044,-77.0425,-479.75,-71.5256,-174.784,-648.379,-100.439,-42.9586,-425.31,-217.949,-96.8517,-184.406,-303.984,-252.367,-171.328,-206.449,-60.2664,-437.277,79.0036,-67.0328,-205.082,237.469,-193.065,-114.915,118.16
12,3.70548e-08,-9.33356e-08,-8.66827e-08,128.026,-2.76471,-56.6238,125.667,450.496,29.2968,85.5744,890.768,59.4409,-128.527,1.80188,55.6846,-115.136,447.956,164.736,-146.572,895.399,175.737,-4.4442,-249.355,-58.6678,-13.1406,-497.056,-109.291,13.1183,-701.472,-88.7451,-181.14,-490.055,-73.6929,-461.463,-476.283,0.879089,-641.897,-511.734,143.346,126.747,-456.571,-203.081,369.962,-347.684,-309.295,608.005,-337.239,-378.035
13,1.24087e-07,-7.05775e-08,5.19158e-08,142.478,-4.73174,-5.69762,192.543,366.955,243.868,174.261,732.274,-22.9116,-141.544,4.97595,6.4285,-47.463,431.272,134.032,51.7147,864.77,175.834,-17.0983,-235.511,-55.8251,-49.3638,-486.307,-42.8112,-90.1466,-667.154,16.4034,-186.045,-444.996,-97.9812,-335.923,-209.352,-143.142,-485.976,-34.0956,-73.3887,104.873,-458.42,-27.1473,268.763,-258.242,80.5872,315.498,-162.643,291.707
14,-2.71332e-08,-5.17728e-08,-7.4516e-08,-24.3983,-34.5348,126.55,-11.687,409.425,246.726,347.532,682.477,371.674,24.0454,33.9999,-127.186,-94.1928,469.084,-7.89954,-64.4846,893.297,175.012,5.1606,-242.797,-37.2918,-67.3643,-481.147,-78.6874,-152.09,-642.586,-144.328,9.75885,-417.482,-207.797,150.715,-183.819,-267.877,205.562,42.9777,-334.701,-77.8297,-434.111,74.3544,-82.3525,-188.772,241.199,-203.881,9.55542,240.834
15,-6.51723e-08,-5.46662e-08,-3.13443e-07,-118.684,-13.9342,55.4779,-86.5466,420.874,189.021,91.2402,664.561,543.248,118.165,13.3791,-56.6569,47.1259,477.245,-57.5899,32.4682,912.476,74.1988,1.30606,-242.865,-25.3156,-16.2975,-477.969,-111.444,-29.3569,-614.134,-253.722,141.641,-445.784,-117.762,329.799,-253.799,-57.2624,463.212,-74.4366,-69.1229,-156.103,-434.049,-54.9354,-257.389,-186.734,39.8824,-357.84,26.1027,13.0692
16,4.23711e-08,-2.07104e-08,-1.04857e-07,-121.292,-1.1259,-65.732,-111.758,457.611,-66.269,-245.75,662.651,286.508,121.034,0.781677,65.0898,87.882,446.267,1.3244,-56.8931,858.542,110.732,6.44023,-250.289,-39.1712,37.8163,-488.878,-111.015,123.434,-665.378,-161.643,125.334,-474.236,20.5005,235.383,-366.348,258.769,371.406,-235.389,261.316,-90.1641,-436.675,-181.308,-253.154,-215.417,-135.687,-278.535,18.4658,-185.968
17,-1.80395e-07,-3.35221e-07,-1.18091e-07,97.123,4.60237,-98.8458,224.766,404.062,69.3829,95.0921,815.907,6.70795,-97.8384,-5.89034,98.2107,-27.4987,437.951,155.408,-20.0313,891.88,140.99,-15.9368,-239.311,-58.0809,-9.68912,-491.864,-70.4144,41.039,-682.041,-39.3303,-126.917,-450.15,23.8826,-232.539,-231.709,150.836,-246.504,-81.4936,351.064,85.4146,-423.397,-175.647,154.102,-162.831,-256.596,304.66,34.7145,-241.463
18,-4.54697e-08,-1.91567e-07,-8.75776e-08,133.931,-1.91748,-33.8135,199.751,382.118,204.047,226.741,821.264,268.835,-133.899,1.51132,33.7273,-55.3949,449.572,65.9163,-21.075,891.583,1.0108,-16.9926,-226.564,-83.9029,-41.9726,-475.925,-105.321,-59.3386,-674.844,-66.0079,-189.46,-418.633,-100.056,-340.26,-183.686,-53.7465,-492.856,-71.184,88.0092,108.296,-427.494,-142.069,272.332,-178.307,-142.078,356.13,-15.2159,4.82135
19,-1.00655e-07,-4.88263e-08,9.51777e-08,92.3372,-39.4066,96.182,-13.658,361.204,284.482,13.1126,787.467,440.184,-92.8277,39.0232,-96.1871,-26.6786,459.985,51.7977,143.229,871.19,54.929,-23.0464,-241.37,-48.8054,-99.339,-483.737,-54.5115,-168.619,-659.115,-44.1199,-162.08,-416.89,-186.286,-167.26,-158.02,-307.358,-354.384,-81.7763,-266.917,24.4426,-452.743,45.5287,172.894,-227.26,123.52,113.943,-84.7536,296.244
20,-5.04245e-08,8.62742e-09,2.63241e-08,-84.1126,-36.3566,111.091,-193.081,403.302,121.346,-150.187,830.258,258.517,83.9476,36.2278,-111.084,72.729,466.153,37.8023,197.417,833.995,255.531,15.1695,-253.275,-53.4148,-25.2889,-489.365,-125.102,-102.195,-657.397,-239.238,92.8137,-425.006,-232.037,219.546,-187.476,-269.23,95.9742,-44.8915,-388.37,-93.6153,-456.679,31.3879,-131.897,-226.405,200.201,-239.721,-13.6413,232.349
21,4.16341e-08,3.55519e-08,-7.7338e-09,-118.999,-26.2589,69.6012,-182.749,420.909,43.637,-181.357,863.801,151.497,119.113,26.3285,-69.5391,106.459,461.211,58.3862,180.812,840.974,292.029,17.4417,-247.335,-61.8122,-10.7109,-479.749,-152.559,-67.4059,-631.657,-292.157,150.679,-440.537,-196.763,327.087,-223.74,-160.728,299.008,-61.839,-345.86,-141.42,-444.908,-40.8606,-218.919,-215.046,108.047,-315.442,-1.62585,81.8934
22,-5.07227e-08,-9.98946e-08,-1.3787e-07,-139.19,-9.94049,-3.99907,-141.937,441.709,-53.4692,-128.707,830.04,148.891,138.963,9.6575,3.52794,97.1437,453.681,82.3713,63.3015,842.298,301.368,12.3098,-249.297,-44.2102,13.122,-481.665,-143.224,36.0187,-638.1,-279.986,172.067,-461.258,-84.4637,348.039,-267.72,52.4553,459.3,-130.414,-102.434,-150.962,-427.038,-127.996,-291.629,-176.916,-63.8561,-348.517,55.5469,-148.73
23,4.0106e-08,-8.2372e-08,3.4339e-08,-45.7913,8.19887,-129.838,76.7098,457.748,-80.333,-134.418,802.582,76.9471,45.3412,-9.03381,129.399,63.1013,449.118,143.983,-59.4202,869.836,202.846,-18.1376,-253.32,-36.088,15.2933,-499.979,-87.4711,65.8802,-680.904,-71.5271,25.1987,-509.531,75.082,95.9045,-518.839,297.506,282.658,-487.029,347.981,-37.0194,-420.955,-224.061,-118.381,-142.838,-312.572,23.8977,54.099,-265.841
24,-2.56017e-08,-9.30498e-08,-1.62112e-07,107.488,10.9331,-94.9153,238.685,392.094,106.835,95.0333,797.339,25.3228,-107.7,-11.6369,94.2313,-18.3382,429.812,167.538,-31.6196,874.121,125.77,-16.9423,-240.872,-69.3552,-10.8736,-489.19,-105.73,42.6517,-682.881,-81.9315,-149.651,-492.823,-17.8537,-337.847,-472.768,166.622,-210.7,-525.736,250.645,93.8139,-431.993,-210.496,191.127,-170.743,-265.56,323.104,-7.71814,-190.703
25,2.96269e-08,-1.03e-08,-2.3099e-07,130.568,3.28685,-55.0789,193.446,392.072,182.18,163.189,824.046,173.705,-130.348,-3.31157,54.6944,-49.1893,449.435,99.4027,-31.1292,894.987,52.106,-14.2518,-238.147,-73.0685,3.14856,-488.854,-104.677,32.1763,-684.749,-83.8273,-155.058,-508.913,-67.2326,-401.071,-514.175,14.6977,-460.925,-535.745,199.361,140.125,-429.234,-178.231,300.49,-188.283,-179.33,371.762,-43.9831,20.1422
26,1.00291e-07,4.90258e-08,-1.29298e-07,128.724,-31.0719,56.6373,60.8466,346.997,295.287,156.535,762.367,313.714,-128.038,31.51,-56.5848,-37.7258,446.1,101.977,117.958,859.193,109.009,-19.3256,-234.379,-64.585,-39.2027,-488.62,-70.7422,-90.2325,-668.57,-73.0894,-159.656,-478.583,-171.311,-363.945,-396.614,-318.005,-540.471,-396.7,-266.262,110.157,-464.624,-15.0284,278.226,-256.952,84.7809,237.039,-82.2706,230.681
27,1.28912e-07,2.29856e-07,4.20421e-08,-33.5589,-40.7445,122.876,-175.151,396.087,183.035,-0.314087,785.359,342.223,33.9765,41.3231,-122.552,-1.16803,479.476,15.5922,81.5179,871.032,204.465,0.619675,-244.27,-52.8309,-83.7778,-478.696,-87.9518,-158.28,-627.259,-186.979,-16.2109,-463.726,-225.079,83.7372,-359.412,-414.584,-80.3242,-360.334,-372.294,-94.4072,-423.714,61.2451,-109.352,-152.479,180.032,-241.902,36.9614,120.462
28,-6.34268e-08,7.2825e-08,-7.31814e-08,-102.043,-30.2757,78.963,-196.318,421.289,74.5099,4.57037,741.555,365.699,101.389,29.8544,-79.6859,62.2942,465.161,43.9566,106.077,878.939,239.417,10.4175,-249.95,-50.4729,-30.554,-478.261,-142.942,-66.1039,-631.546,-282.735,114.594,-443.22,-211.917,323.997,-278.699,-203.316,174.81,-94.4771,-187.964,-145.342,-461.508,-18.0208,-244.411,-244.694,152.643,-287.795,-33.4244,86.9484
29,-8.59503e-08,-1.69553e-07,-6.42706e-08,-130.514,-19.4586,14.5123,-169.973,430.323,-45.265,-182.43,874.027,10.832,129.762,18.4036,-15.2788,52.9667,443.05,117.187,24.5301,811.497,374.858,13.1555,-248.426,-40.674,3.84143,-482.651,-134.95,17.7388,-639.951,-277.191,164.711,-460.431,-109.305,347.051,-330.73,51.5839,200.836,-147.306,-0.111145,-152.047,-440.494,-84.1304,-283.177,-216.533,45.2666,-298.191,-0.212952,-27.4937
30,-1.24056e-07,-1.09237e-07,-2.59388e-07,-9.65272,13.8387,-138.977,163.153,443.449,-61.3761,166.336,839.176,58.3408,9.00618,-14.5508,137.993,-34.0034,441.697,135.01,-215.107,848.843,161.602,-8.24028,-248.419,-39.5017,58.4174,-489.855,-60.1797,167.729,-654.991,-73.2774,35.8354,-478.472,107.488,-22.7221,-271.85,275.042,63.7394,-60.5605,266.07,13.6276,-426.447,-208.218,-109.746,-177.204,-293.408,3.71991,21.3582,-322.003
1,9.9665e-09,-1.32694e-08,-3.14109e-07,117.59,5.96237,-82.3288,225.122,377.397,168.414,260.395,806.715,291.012,-118.009,-6.51781,81.0012,-89.4054,460.679,83.5219,-213.927,847.909,-124.219,-16.465,-238.032,-73.4802,20.6975,-482.293,-102.796,70.6276,-665.478,-66.5746,-128.048,-495.126,-30.9668,-348.146,-355.075,30.4315,-207.586,-176.637,94.8512,121.669,-411.484,-192.852,201.751,-140.46,-232.832,304.554,37.4199,-133.365
2,7.07544e-09,-7.53098e-09,-1.83633e-07,141.5,-16.6395,-14.6695,160.003,398.852,169.66,152.957,835.906,238.431,-141.835,16.266,13.911,-87.1243,458.234,122.592,-22.2922,827.694,-101.334,-20.4621,-230.484,-75.8846,-16.5396,-481.557,-78.5963,-25.4951,-664.512,-36.7291,-169.331,-472.622,-95.7314,-356.638,-294.098,-184.167,-240.319,-128.012,-44.4042,131.792,-437.117,-117.543,283.895,-184.769,-133.06,302.254,-18.1153,29.2067
3,-7.09185e-08,1.13676e-08,4.22959e-09,-13.3169,-45.1652,131.346,-106.531,376.261,217.258,-17.1797,791.474,333.733,12.9288,44.8225,-131.646,-90.0937,456.112,-25.6115,202.782,734.328,107.2,1.4912,-248.042,-44.8747,-67.857,-488.338,-64.6188,-168.333,-656.146,-124.107,-36.6386,-419.12,-197.909,-27.792,-164.032,-281.82,-183.906,-26.0016,-215.564,-46.0768,-436.278,80.0728,-30.8309,-193.927,210.768,-127.466,3.40332,308.647
4,-9.55024e-08,1.55024e-07,-9.25322e-08,-132.589,-3.19888,-57.0915,-159.224,431.729,77.3795,-210.982,822.702,274.577,132.221,3.36153,56.934,93.4992,443.232,178.121,21.8746,850.756,339.834,19.2272,-254.585,-56.6382,41.3645,-494.294,-131.861,44.8984,-683.889,-208.767,192.11,-509.97,-35.8817,440.347,-463.287,87.141,677.463,-456.821,85.4281,-128.777,-481.911,-162.892,-400.458,-411.408,-209.625,-607.52,-358.549,-314.768
5,-1.33749e-07,7.37296e-09,-2.99998e-07,-131.145,-7.23919,-53.384,-171.313,410.211,161.434,-256.036,698.239,502.402,130.624,6.90128,52.3722,120.859,470.472,49.0053,76.637,912.812,123.254,7.54259,-255.326,-47.3111,51.5701,-482.45,-135.202,147.847,-619.92,-247.883,166.645,-457.946,-29.1971,290.393,-286.178,153.771,403.098,-94.7802,130.703,-94.8669,-429.845,-174.693,-268.457,-191.726,-148.597,-309.446,31.2983,-187.571
6,1.00592e-08,3.27705e-08,3.57975e-09,8.88159,23.7565,-140.852,-82.2128,460.744,-12.6304,-296.286,840.695,111.882,-9.05367,-23.9132,140.86,104.855,412.27,224.055,81.934,853.46,283.863,5.13544,-258.92,-62.9877,66.2535,-489.104,-145.899,147.139,-683.4,-156.102,6.98981,-526.971,17.0797,-128.482,-409.785,256.881,-153.042,-352.528,480.321,56.1326,-378.906,-282.783,29.7309,-97.6038,-355.923,88.5353,124.032,-429.564
7,3.7694e-08,-1.55683e-07,1.68294e-07,138.405,-0.855377,-25.5505,72.1862,448.774,36.0143,6.10553,896.877,10.5266,-138.044,0.657593,26.1884,-121.036,357.821,311.25,-94.5786,788.233,456.021,20.8787,-240.078,-66.0535,59.9305,-488.919,-72.0973,68.8276,-683.753,-47.4457,-98.8243,-466.73,-101.084,-327.338,-310.996,-154.093,-529.031,-204.998,-95.647,201.517,-404.964,-74.3802,311.839,-154.405,27.7348,348.24,16.7548,184.806
8,2.9911e-08,-1.3374e-07,1.25485e-07,129.382,-26.0512,55.9816,104.408,424.781,99.4618,142.633,863.42,48.8254,-129.895,25.1325,-56.1876,-225.062,375.445,216.328,-221.622,783.622,445.23,14.9681,-250.674,-59.7115,15.01,-496.714,-43.1143,-24.9937,-692.101,-3.27252,-107.842,-471.717,-143.811,-246.924,-284.145,-303.22,-349.095,-124.655,-250.384,154.192,-430.032,15.7333,236.679,-177.351,135.461,143.982,-167.758,280.154
9,-1.77456e-07,-1.92432e-08,-2.78234e-07,-66.2781,-48.2258,110.457,-53.6439,378.245,235.703,229.196,678.074,397.928,65.3567,47.5092,-111.856,-143.617,446.851,-18.6282,-235.408,846.465,161.141,28.8198,-243.928,-58.3369,7.60388,-484.787,-133.662,-49.4182,-638.57,-258.333,118.088,-424.425,-243.189,240.328,-200.073,-291.493,343.01,11.7364,-355.418,-60.7039,-471.399,17.2935,-146.722,-256.935,179.59,-308.729,-88.0258,262.664
10,-7.71406e-09,-1.78521e-10,-2.08919e-07,-132.533,-16.6918,-19.27,-194.384,425.068,107.863,-196.439,578.796,572.304,131.807,15.7819,17.9061,63.4543,474.182,38.7656,-55.4569,918.035,144.838,22.4666,-244.959,-42.7418,54.0087,-473.053,-139.004,102.964,-634.725,-215.498,201.551,-448.812,-60.5497,390.212,-311.568,102.616,570.512,-162.602,96.8264,-109.248,-443.076,-156.657,-273.809,-201.102,-102.149,-324.893,10.0601,-196.03
11,-1.32926e-09,-3.92509e-08,-1.3523e-07,-118.105,-1.65347,-69.6799,-122.476,459.091,-30.6779,-327.101,620.788,363.363,117.707,1.06937,68.8859,87.0202,454.634,66.8712,-46.4599,877.615,181.287,11.1204,-250.253,-48.3361,46.6408,-487.16,-122.083,132.217,-648.15,-175.159,151.971,-474.952,-10.434,287.514,-364.539,198.586,406.385,-207.821,183.095,-88.7234,-437.697,-176.877,-234.787,-178.855,-138.774,-249.585,64.1458,-153.427
12,2.55538e-08,-1.76745e-07,-7.45871e-08,88.748,20.5239,-102.269,194.318,419.455,77.7203,-58.7338,747.259,-47.9525,-88.2958,-20.8709,102.565,-7.57837,403.476,201.667,-78.4755,843.488,178.662,-0.422119,-229.351,-55.4671,16.4628,-482.863,-47.5442,74.5283,-661.2,2.16656,-98.5503,-439.958,24.9664,-257.174,-235.414,136.625,-208.571,-167.793,349.626,112.945,-427.065,-133.929,204.506,-173.497,-184.294,311.73,39.6544,-155.342
13,-6.89498e-09,-1.77936e-07,-1.28522e-08,138.546,3.96588,-7.89602,114.083,365.598,258.807,67.3728,773.29,150.287,-138.782,-4.60472,7.70757,-91.2863,431.706,133.191,-67.5493,864.443,89.7737,2.98941,-227.857,-81.3271,-8.51498,-478.003,-113.169,-30.8065,-668.275,-68.6013,-147.451,-425.603,-139.913,-291.145,-185.544,-142.527,-416.279,-101.453,66.3387,131.777,-418.873,-113.987,255.549,-155.738,-85.1875,284.282,16.6062,53.3889
14,-1.57057e-07,-1.45227e-07,-8.82494e-08,126.821,-5.17552,49.0074,6.23114,338.126,326.222,16.6483,763.318,390.654,-127.305,4.73045,-49.3633,-99.7223,435.546,66.0983,-11.0165,862.264,40.7626,22.4961,-214.942,-77.9145,-14.8125,-466.49,-109.403,-64.2924,-627.017,-127.27,-117.272,-398.279,-178.628,-200.726,-156.908,-255.779,-369.186,-87.0164,-186.791,116.081,-426.229,-64.8203,241.537,-177.218,-26.0972,250.314,4.66895,135.1
15,5.77047e-09,9.76968e-08,1.15489e-07,-11.7301,-47.1324,121.839,-193.653,345.094,232.391,-316.109,757.761,404.239,11.9797,47.4886,-121.303,1.0719,451.853,59.5474,172.75,841.303,210.382,20.7171,-223.383,-68.3605,-23.2509,-459.736,-147.04,-85.732,-621.578,-227.358,31.3638,-374.443,-263.249,99.9597,-118.618,-332.011,-109.14,19.5655,-363.852,-29.9795,-456.121,9.41943,16.0043,-257.783,198.095,-64.3839,-58.7307,262.381
16,-5.13836e-08,-1.3526e-07,3.395e-08,-132.621,-27.6808,1.45525,-216.726,425.12,-37.1177,-284.118,871.836,-15.7339,132.233,27.02,-1.66388,60.1024,445.679,164.131,-14.2772,770.555,485.684,26.9303,-244.876,-60.2785,23.8278,-461.539,-192.19,27.5236,-620.757,-310.826,183.806,-429.515,-145.924,361.079,-243.468,-26.4852,401.022,-46.1157,-146.157,-131.88,-418.855,-153.776,-287.872,-209.586,-20.9835,-359.727,27.5066,-24.0784
17,-4.91629e-08,-4.69453e-08,-1.44973e-07,-116.001,-7.44524,-68.1544,-56.1862,453.846,-57.5324,-80.7589,886.104,71.6934,115.905,7.35181,67.9177,85.9896,455.737,163.578,-141.511,673.851,505.939,9.6255,-245.391,-25.0199,15.7459,-459.682,-155.676,63.6735,-565.05,-300.112,122.608,-457.183,-60.0032,248.929,-307.262,147.338,402.581,-114.672,162.873,-110.624,-386.952,-181.168,-265.491,-147.112,-99.1832,-330.035,99.8331,-126.482
18,-1.03705e-07,7.30386e-08,-2.84855e-08,36.4891,24.9535,-135.396,23.6771,483.844,-31.4085,-130.564,900.676,45.1572,-36.8938,-25.0481,135.179,51.4366,412.78,250.676,-112.458,822.424,280.06,4.98354,-249.905,-96.4569,79.7911,-476.867,-176.024,208.432,-638.507,-203.638,3.56799,-512.976,-25.249,-77.0934,-513.433,251.418,39.4791,-478.111,270.404,85.8999,-364.298,-296.391,41.2361,-100.803,-369.38,159.987,109.427,-353.058
19,1.73164e-07,-5.02155e-09,1.02211e-08,139.115,-0.671631,-35.1199,90.7059,444.038,73.9397,28.6565,886.434,112.632,-139,0.453644,34.9566,-95.8659,365.609,305.022,-152.299,774.889,135.133,9.55475,-240.632,-86.6723,59.3532,-485.064,-111.238,83.8975,-685.614,-71.9476,-98.5923,-506.929,-102.704,-370.427,-519.822,-73.3914,-352.933,-466.218,65.9111,184.57,-392.034,-150.444,311.068,-121.177,-133.292,347.229,56.6691,-1.66278
20,1.14008e-07,-4.60158e-08,3.7621e-08,128.438,-15.9296,56.5577,63.0472,435.608,130.345,75.2986,870.967,120.416,-128.87,15.1425,-57.1199,-214.061,355.934,239.371,-132.22,794.389,282.51,13.1526,-240.927,-71.7509,27.9721,-484.491,-64.7274,-10.4346,-668.972,-3.03674,-101.527,-486.294,-143.957,-315.699,-478.946,-208.302,-407.569,-419.433,-85.3621,171.084,-418.883,-34.9441,290.331,-174.724,44.9939,223.302,-0.331604,196.191
21,1.93612e-07,2.42707e-08,2.39855e-08,33.2727,-37.7268,126.84,46.518,397.182,199.611,188.322,805.369,234.469,-33.0059,37.2147,-126.929,-227.653,403.989,62.6906,-277.809,796.495,284.581,19.6161,-233.174,-16.6976,-24.0236,-473.334,3.10284,-103.082,-634.726,-9.82404,-3.18896,-443.439,-125.346,-45.6548,-331.029,-307.103,-165.126,-209.54,-356.026,-12.1827,-412.087,120.513,-70.9451,-171.492,218.977,-158.003,-63.1696,171.718
22,-4.95765e-08,9.8706e-08,-1.65358e-07,-125.897,-32.5528,34.5425,-112.938,382.716,192.738,-24.1197,736.463,457.992,125.453,32.375,-35.2884,-5.23395,470.107,-58.0242,-142.83,894.711,12.6214,13.8904,-239.446,-70.766,-17.4907,-462.179,-184.399,-25.5915,-600.649,-319.176,135.684,-453.226,-177.453,371.777,-409.795,-77.4072,370.124,-248.605,-160.531,-156.955,-417.704,-119.106,-331.856,-204.837,-60.6557,-422.872,-3.25598,-145.092
23,-5.72072e-08,5.91817e-08,-1.14364e-07,-131.086,-7.61677,-47.6563,-159.998,404.691,132.514,-215.553,701,458.519,130.465,7.12819,46.8608,122.758,457.864,25.5115,55.6917,912.077,67.3804,7.9144,-246.163,-59.3265,24.3228,-470.075,-169.982,74.1728,-631.498,-261.849,157.894,-488.12,-76.7941,398.294,-482.967,86.3902,465.55,-316.307,-27.2852,-124.151,-419.219,-198.167,-291.767,-181.224,-179.21,-208.199,16.2347,-274.142
24,2.19092e-08,2.7556e-08,-8.43967e-09,-97.3811,6.16492,-93.077,-152.357,442.825,41.6025,-356.624,692.582,365.785,96.9541,-6.686,92.5889,123.884,452.748,72.499,33.8783,906.854,126.48,5.53545,-247.368,-51.0721,47.8086,-485.057,-125.991,121.258,-662.218,-154.856,131.239,-501.224,12.2329,300.853,-468.917,199.258,391.167,-371.925,120.118,-70.7061,-428.821,-217.05,-207.404,-172.733,-241.36,-59.6035,22.3964,-277.25
25,4.41802e-08,-6.92683e-08,1.10604e-07,102.962,22.7346,-95.5376,-8.37842,476.016,-44.8027,-262.459,842.578,-92.8085,-103.542,-23.5823,95.1103,13.7025,375.475,291.653,59.1839,804.996,403.131,4.25882,-234.399,-92.2375,55.8521,-481.208,-113.872,103.64,-675.202,-65.7828,-84.7834,-484.102,-34.4041,-306.72,-351.823,14.1495,-148.252,-192.384,46.5623,158.993,-388.772,-194.65,293.966,-121.533,-165.907,365.423,-15.2683,39.9907
26,7.83013e-08,-9.85103e-08,1.57459e-07,136.786,-2.66663,-4.00037,97.3584,443.278,31.2631,53.3341,848.443,-174.35,-137.513,1.5611,3.46251,-123.633,368.004,262.588,-111.344,796.25,374.384,10.8751,-221.675,-91.1604,-3.37357,-471.019,-100.854,-27.3729,-646.88,-69.4654,-146.072,-433.66,-125.822,-330.769,-280.333,-199.747,-197.348,-105.398,-104.972,140.727,-420.158,-106.654,271.881,-171.361,-56.8808,277.518,-17.7351,121.102
27,1.48477e-07,-3.41111e-08,7.81644e-08,124.818,-14.0255,59.6862,90.2039,403.465,212.115,218.581,755.123,-8.38098,-124.874,13.4092,-59.9151,-174.754,381.659,187.7,-122.589,814.194,287.33,24.6778,-228.668,-73.4088,7.97882,-480.501,-89.03,-41.647,-649.801,-88.8802,-99.2063,-438.958,-173.936,-207.891,-247.066,-337.642,-161.231,-106.876,-175.48,138.991,-438.564,-22.8465,195.983,-180.856,125.899,46.0787,-389.723,134.613
28,-1.05596e-08,1.91447e-07,-1.05763e-07,-59.1635,-53.7159,115.529,-187.348,367.511,247.748,92.795,653.27,454.798,58.9158,53.8394,-116.126,-79.7404,468.12,11.6776,-73.8668,851.552,229.318,33.9643,-246.264,-71.0121,-3.93384,-483.215,-138.861,-55.9336,-650.126,-255.29,96.413,-427.514,-267.181,239.436,-203.762,-356.264,77.7061,-59.4002,-332.129,-61.1231,-466.068,23.851,-119.33,-244.005,180.584,-234.009,-39.3152,149.045
29,-6.69577e-08,2.53918e-09,-8.38579e-08,-132.022,-28.8813,-1.34113,-172.934,430.884,-10.1208,-168.366,734.273,337.676,131.721,28.5771,0.961945,39.6545,460.572,107.909,-50.1129,850.367,319.495,35.3395,-249.8,-42.4965,34.7766,-471.559,-154.988,65.5952,-627.131,-277.617,199.305,-451.122,-123.465,400.397,-337.348,29.8788,255.644,-120.014,2.64545,-126.178,-432.825,-114.246,-287.499,-206.453,-12.0584,-338.838,22.9034,-56.1906
30,1.86763e-08,-7.45476e-08,-6.72926e-08,-119.312,-6.65647,-65.5718,-71.5715,450.848,-111.467,-117.955,873.583,-5.60974,119.655,6.69264,65.8622,29.5389,439.449,175.671,-97.4225,817.643,379.576,21.5788,-248.363,-46.3481,34.5433,-468.996,-162.338,98.1068,-635.733,-254.853,161.53,-476.183,-60.2491,289.747,-392.08,192.389,230.693,-162.115,86.4423,-117.339,-405.463,-184.788,-270.266,-169.151,-129.405,-308.118,74.1062,-159.25
1,-1.00346e-07,-6.50256e-08,-1.89264e-07,7.96088,21.211,-143.478,131.335,460.319,-43.6842,130.286,904.285,39.2823,-8.38685,-21.5901,142.951,-39.6321,440.028,197.661,-286.878,804.871,229.714,-5.87914,-251.591,-65.7119,60.2266,-483.331,-130.861,168.392,-663.257,-130.941,18.9927,-480.173,36.9985,-26.3737,-294.83,254.493,83.0908,-108.059,331.842,35.059,-384.363,-261.882,-48.0406,-116.429,-326.69,9.16876,100.611,-317.69
2,6.49295e-08,-3.7458e-08,-2.38489e-07,109.906,27.4305,-76.6545,188.559,399.299,159.559,142.302,827.404,265.377,-109.466,-27.3112,76.4971,-87.8978,420.493,120.801,-186.844,847.393,53.1093,31.0787,-226.498,-61.9714,93.4494,-468.644,-71.8856,170.336,-606.013,-11.4545,-18.478,-459.131,0.348267,-122.14,-308.819,201.779,58.1052,-290.486,258.181,184.057,-383.385,-125.293,308.563,-139.397,-45.6095,233.928,-255.232,122.497
3,-5.77268e-08,1.56004e-07,-9.23353e-08,-130.34,-4.7021,-56.1047,-157.13,434.315,75.3304,-204.527,827.593,275.567,130.074,4.85812,55.9391,87.9768,444.901,187.055,5.23077,848.829,360.282,16.7959,-250.869,-58.5974,37.6973,-489.143,-136.577,44.6749,-675.799,-213.801,192.103,-508.158,-49.9574,442.357,-472.517,74.8194,673.131,-463.82,34.2436,-133.022,-482.358,-151.749,-400.957,-400.869,-140.688,-609.771,-355.92,-231.682
4,1.35721e-07,1.21526e-07,-1.33778e-07,-101.687,8.51624,-92.054,-87.8545,463.56,-54.6089,-307.873,689.575,276.322,101.897,-8.33102,91.7735,47.7811,445.611,126.322,-98.6183,859.826,276,6.03198,-255.796,-36.0485,72.9275,-491.209,-98.792,222.661,-645.898,-122.57,133.471,-463.333,50.7512,83.2456,-259.894,248.697,151.981,-82.0277,220.074,-36.9165,-442.022,-208.263,-135.426,-185.35,-277.262,-16.3566,7.86707,-296.561
5,1.74391e-07,-1.49836e-07,1.44188e-07,101.67,16.351,-91.9023,116.915,457.422,-6.49762,-148.853,737.865,-205.62,-101.543,-17.1233,91.976,-1.30603,385.414,232.951,-13.0815,823.875,197.05,4.15964,-228.596,-70.7017,39.8588,-478.174,-95.7397,71.0096,-657.621,-47.7918,-99.0789,-464.485,-33.5786,-295.512,-284.991,30.4623,-422.952,-117.301,143.634,144.184,-400.303,-171.939,252.763,-133.487,-171.914,394.14,56.481,-95.936
6,3.70354e-08,-1.4746e-07,1.54348e-07,137.393,-13.6764,39.5619,123.381,444.934,71.9416,204.025,846.112,-98.8568,-137.393,13.2179,-39.2165,-189.709,385.212,224.032,-162.551,815.315,346.199,13.939,-238.021,-73.0025,10.9757,-486.827,-83.1768,-37.5579,-674.851,-44.3681,-119.339,-445.523,-167.148,-266.91,-232.504,-276.819,-371.229,-52.8705,-206.057,153.209,-428.852,-35.6644,267.449,-169.558,32.6941,245.411,2.39465,196.681
7,3.71549e-08,1.01461e-07,2.84288e-08,55.0759,-38.2441,115.715,-74.0254,339.919,314.675,239.945,659.782,282.068,-55.0916,38.1527,-115.791,-150.306,421.049,99.6302,-79.441,833.986,301.774,13.3979,-239.065,-58.0707,-26.5401,-482.137,-73.5247,-118.944,-651.128,-117.388,-24.5684,-414.295,-228.562,43.742,-160.226,-345.332,29.6522,41.7822,-398.953,21.09,-446.927,71.3442,68.0971,-209.293,225.112,-0.0899048,-66.2761,361.763
8,-8.23883e-08,-3.57257e-08,-1.8533e-07,-137.671,-29.1332,-6.92355,-172.861,419.527,-17.8687,-188.491,745.34,291.821,137.186,28.64,6.02348,31.7526,461.626,91.7714,-75.9289,845.571,295.729,42.802,-247.519,-53.5827,71.6725,-469.155,-168.198,90.5424,-620.505,-309.508,230.476,-418.481,-117.658,370.231,-200.073,17.0461,467.851,6.86176,15.5142,-90.2682,-443.019,-138.025,-245.577,-218.346,-50.6708,-339.575,-2.20593,-73.6053
9,-1.26258e-07,-2.2639e-07,-1.27135e-07,-116.946,-5.84225,-78.8293,-51.1494,451.057,-116.588,-123.273,870.877,11.1754,116.481,5.09331,78.3396,36.7675,444.397,165.705,-132.72,805.146,368.803,18.7762,-254.923,-33.4016,54.1093,-489.224,-115.979,133.063,-659.49,-191.004,154.974,-468.474,6.99976,251.277,-298.107,212.908,414.309,-139.302,226.023,-80.0662,-429.899,-174.681,-238.822,-187.349,-156.768,-226.949,42.9659,-212.464
10,-2.04653e-07,-1.45816e-07,-2.14789e-07,29.5585,29.0448,-138.357,190.016,450.224,-26.4204,86.3534,884.581,26.8121,-30.2095,-29.7179,137.751,-26.7215,429.349,189.312,-228.883,829.141,209.874,18.0652,-248.252,-65.6714,85.4553,-482.974,-104.957,177.714,-665.293,-93.3629,-5.32257,-499.598,40.1114,-89.2605,-354.995,261.408,14.8781,-288.786,344.498,100.586,-383.962,-243.657,55.8241,-101.306,-319.67,137.446,114.314,-279.411
11,-1.69055e-08,-1.59641e-07,-1.94553e-07,130.576,15.3146,-48.4706,162.497,378.691,213.376,114.961,802.067,254.275,-130.829,-15.8351,47.9222,-88.8481,439.478,89.9763,-116.185,865.233,30.5095,-0.921997,-232.257,-77.9347,20.6819,-478.653,-112.716,43.6102,-675.691,-73.8981,-130.229,-449.103,-75.9059,-324.073,-243.532,0.575256,-354.581,-238.144,256.201,143.372,-397.113,-166.934,268.54,-127.02,-186.402,318.387,76.1382,-81.959
12,-1.04087e-07,-1.34204e-07,-1.41103e-07,135.268,-2.19041,2.26439,79.8391,351.145,289.732,54.1142,758.214,494.327,-136.004,1.41905,-3.13895,-96.1494,446.695,50.7903,-67.5714,893.443,-30.7278,9.80183,-223.268,-85.8299,0.661469,-478.266,-89.6678,-16.1744,-658.593,-67.1089,-136.407,-428.62,-124.861,-298.535,-218.512,-183.006,-431.738,-180.911,-8.24255,141.847,-409.264,-81.5538,254.598,-142.599,-60.769,290.861,45.7692,85.6101
13,-1.10261e-07,-1.16189e-07,4.80812e-08,107.986,-21.8855,84.2523,-22.6114,354.351,286.152,-8.42993,787.157,359.682,-108.433,21.4379,-84.3428,-112.725,439.119,74.2521,25.4988,840.943,75.989,17.8225,-224.313,-73.1937,-11.4749,-475.175,-89.9165,-72.4642,-640.746,-92.6529,-94.7995,-415.239,-197.179,-141.112,-164.759,-308.546,-351.137,-84.6222,-258.385,105.389,-426.287,-3.84473,190.456,-170.827,87.7286,131.207,-56.7225,245.417
14,1.45249e-07,2.98488e-07,-1.19514e-07,-65.5698,-46.2848,102.404,-211.142,378.136,181.729,24.7404,685.976,425.704,66.1945,47.1959,-102.367,-36.6039,468.584,46.4536,-25.722,852.247,252.135,23.6821,-234.208,-77.2581,17.5021,-471.604,-150.841,-29.2604,-637.606,-270.768,142.757,-452.981,-231.649,305.543,-460.529,-416.513,134.341,-420.141,-433.09,-76.029,-478.895,-15.7233,-148.05,-292.09,149.39,-270.251,-72.8965,165.613
15,6.29555e-09,7.93005e-08,-1.68997e-08,-134.737,-30.6535,5.90463,-179.13,423.982,7.10651,-172.311,770.191,285.67,134.588,30.5037,-6.24206,26.4306,467.383,61.1577,-60.8851,859.706,269.113,32.5917,-245.95,-65.0181,42.792,-473.134,-172.89,66.9748,-635.227,-269.899,207.101,-468.6,-132.647,487.438,-452.903,-85.4219,511.981,-392.621,-312.644,-115.782,-446.813,-136.007,-303.917,-251.09,-50.5357,-336.406,-25.5945,-127.395
16,-1.49305e-07,-8.41887e-08,-3.90966e-08,-123.983,-7.39747,-64.3191,-96.5302,450.584,-72.5035,-159.921,833.251,121.555,123.161,6.61356,63.6032,54.2661,450.895,128.612,-72.0959,845.189,301.667,18.9257,-251.497,-53.1224,28.4029,-478.227,-165.452,85.1566,-641.466,-259.276,151.848,-504.201,-66.2437,400.287,-549.458,58.1544,544.94,-474.626,-54.0902,-119.48,-415.277,-193.545,-312.924,-194.008,-165.622,-273.329,39.5236,-176.121
17,-9.61302e-08,-5.72888e-08,-7.50181e-08,-32.0934,15.2189,-132.434,71.9716,466.382,-62.9048,-52.0988,874.369,35.4034,31.5014,-15.8272,131.888,-15.478,446.53,163.652,-204.231,840.053,224.143,-6.41882,-250.989,-53.8269,48.5399,-492.077,-98.7652,134.386,-670.746,-116.376,46.9224,-496.459,65.7306,94.3527,-479.633,306.957,220.653,-456.105,391.515,-8.14667,-421.236,-223.434,-144.717,-159.788,-291.764,-21.8996,89.3132,-261.332
18,1.92339e-07,-1.93898e-08,-1.84795e-07,114.319,23.8951,-80.2804,198.359,400.808,162.787,57.8366,792.588,99.9713,-113.611,-23.7673,80.264,-70.8906,425.136,144.82,-97.7983,863.269,111.344,7.67989,-234.575,-73.0656,50.493,-478.488,-129.043,95.4898,-670.72,-105.283,-83.965,-515.12,-54.817,-313.037,-530.064,95.7674,-250.194,-509.413,323.867,145.247,-388.125,-219.304,265.278,-132.231,-205.234,356.959,-10.2759,-137.157
19,-7.23498e-08,-1.54534e-07,-1.28029e-07,133.014,3.50752,-0.809692,79.5032,345.906,289.054,74.6758,755.718,190.654,-133.819,-4.65227,-0.329987,-102.856,422.544,130.976,-102.778,863.604,98.5107,12.7591,-220.718,-84.1099,7.5946,-474.24,-92.9059,-24.3461,-638.946,-44.7904,-120.986,-438.627,-133.579,-271.634,-261.587,-272.424,-159.828,-97.0168,-128.618,143.584,-416.819,-82.1453,271.093,-174.162,-15.4094,219.195,-81.531,175.974
20,-3.0781e-07,-1.09933e-07,-1.13076e-07,123.169,-19.5128,67.2047,-12.8779,332.354,319.564,-11.0801,756.331,449.313,-124.165,18.8463,-67.8746,-64.3458,447.111,65.2581,82.7576,863.034,61.3782,3.43759,-226.814,-76.8297,-16.8703,-478.553,-84.5508,-68.1915,-642.503,-82.1435,-128.034,-441.014,-173.861,-183.161,-216.815,-341.23,-159.283,-97.8273,-136.103,126.849,-437.21,-33.4645,258.015,-190.324,3.20441,161.711,-147.905,203.898
