1,9.30536e-08,-2.60642e-08,-1.16643e-07,127.297,-16.6016,41.1774,98.4874,436.448,106.621,120.76,876.352,77.8574,-127.673,15.8676,-42.1382,-124.657,459.169,45.6693,-91.0713,901,10.9323,15.5051,-240.557,-59.0589,35.5097,-489.525,-89.1857,60.9312,-669.856,-83.6188,-116.297,-484.325,-147.27,-372.27,-471.074,-184.739,-630.901,-509.364,-170.603,180.584,-452.649,-64.9583,429.68,-372.15,34.8508,620.859,-381.778,188.158
2,-1.56947e-07,-1.28129e-07,-3.90908e-07,132.337,14.9936,-18.7208,155.789,385.716,220.569,172.861,826.334,208.39,-133.718,-16.384,16.708,-130.55,391.825,166,-141.401,810.504,37.2822,71.3007,-220,51.0253,181.432,-413.791,171.78,275.889,-534.224,231.154,29.7549,-430.928,178.191,-208.206,-333.877,231.64,-17.3781,-298.01,374.28,290.967,-327.199,124.512,360.601,-56.3005,154.403,344.891,-23.4574,389.697
3,-1.09192e-07,-1.30765e-07,-1.71707e-07,132.339,-1.99875,48.421,26.7835,327.203,302.335,51.1882,773.101,287.475,-132.62,1.54233,-48.8259,-243.672,332.969,212.552,-258.52,776.318,218.197,-45.4664,-175.203,164.703,-99.8864,-312.04,404.691,-108.637,-410.359,553.89,-224.937,-306.694,313.602,-428.864,-198.672,111.82,-630.215,-42.4037,104.054,42.7424,-274.532,390.634,295.301,-124.928,315.706,364.883,29.8208,405.224
4,-2.87178e-07,-2.11728e-07,-1.88193e-07,123.381,-10.505,62.7219,30.5755,377.685,254.184,44.5533,822.651,232.525,-124.025,9.77477,-63.2122,-205.695,388.758,131.833,-194.344,832.624,112.152,-43.068,-213.86,89.2462,-106.241,-405.45,249.445,-132.438,-538.127,357.422,-221.466,-378.089,161.472,-320.908,-200.242,-27.1307,-346.096,-26.0079,122.933,43.3286,-364.824,259.937,267.158,-205.044,197.838,212.205,-60.7483,324.377
5,2.07066e-08,1.99098e-07,6.89251e-11,121.714,-12.6804,53.5329,120.624,434.24,132.29,178.935,882.234,110.657,-121.313,13.3413,-53.1451,-127.067,453.183,37.5598,-73.1111,903.212,28.0818,38.6906,-218.04,-79.4368,20.6772,-454.183,-165.568,57.3444,-619.538,-212.526,-102.589,-390.698,-206.887,-226.062,-156.006,-156.624,-139.039,-228.02,44.3727,156.592,-465.059,-94.8061,141.988,-568.046,160.297,47.0262,-792.986,112.612
6,1.3046e-07,5.65282e-08,-4.20004e-08,117.977,-21.2699,64.5507,30.158,377.664,265.872,13.9462,818.852,383.343,-117.908,21.0746,-64.9558,-125.092,455.604,76.704,-34.1116,885.555,65.2628,-16.473,-251.923,-15.2916,-62.029,-496.088,30.2596,-72.2483,-668.553,90.8493,-202.424,-465.683,-42.4697,-410.264,-343.033,63.0657,-521.788,-452.082,230.588,83.6776,-466.276,103.597,99.4941,-310.529,338.308,-93.0486,-428.066,403.549
7,6.00979e-08,-8.55265e-08,-2.18406e-07,122.347,-12.8918,63.4862,45.9506,427.94,169.985,25.4189,876.862,199.29,-122.43,12.3656,-64.3614,-188.288,450.416,41.5288,-170.509,897.58,51.5945,-0.860855,-241.548,0.0277863,-37.8966,-482.734,72.8357,-21.5792,-641.453,126.97,-170.031,-458.187,1.75525,-413.241,-334.035,30.0837,-403.32,-389.837,265.807,105.112,-448.802,125.379,224.295,-356.416,351.052,56.2869,-419.599,454.581
8,1.22635e-07,-1.31697e-07,-7.26314e-08,111.458,-15.6653,74.175,36.3091,423.457,170.999,-5.58899,879.53,210.31,-111.403,14.9441,-74.7695,-193.761,447.814,37.0334,-175.162,897.136,66.7457,-41.3962,-234.332,54.3292,-137.411,-418.435,188.966,-182.759,-531.055,285.509,-260.974,-389.993,112.693,-478.352,-310.039,243.186,-361.195,-414.766,419.014,-2.7074,-371.088,254.241,29.6622,-155.882,437.395,-198.287,-153.095,475.693
9,-2.37327e-07,-2.087e-07,-1.99012e-07,109.436,-14.5921,79.4667,28.5972,418.551,194.829,19.9805,860.116,252.482,-110.482,13.3315,-80.6348,-157.871,452.427,21.2623,-121.502,898.367,39.705,-21.7918,-236.141,34.4601,-88.7283,-450.404,154.992,-89.7867,-586.521,244.368,-199.487,-413.456,61.4164,-292.346,-207.664,-58.9666,-257.837,-83.9575,125.499,54.0623,-401.399,206.152,208.961,-194.79,278.696,-18.8305,-173.905,363.302
10,-1.65208e-07,-9.09134e-08,-1.98357e-08,116.16,-26.102,57.0983,112.362,406.969,163.307,167.199,848.415,230.149,-117.024,25.3264,-57.849,-66.9909,462.999,25.2587,15.4056,910.63,17.8439,18.4586,-219.503,-93.1167,2.82413,-467.514,-152.192,53.0456,-632.667,-166.901,-109.658,-389.697,-212.578,-174.5,-121.888,-250.898,-197.95,-135.821,6.85846,120.838,-434.664,-69.2552,131.09,-256.122,127.023,-57.5776,-336.988,156.48
11,1.45886e-07,1.09898e-07,-6.71147e-08,122.902,-14.9225,58.431,111.319,418.166,189.424,163.183,857.145,241.603,-122.545,15.0858,-58.6375,-83.5764,465.402,19.4221,-5.42432,904.357,23.5833,11.0223,-227.517,-65.1561,10.8939,-477.996,-82.2452,56.0225,-650.07,-63.2666,-125.321,-468.328,-157.894,-387.181,-454.266,-52.9321,-347.924,-660.384,26.4097,134.019,-440.477,-8.71265,131.302,-328.977,230.035,-7.41223,-513.568,227.379
12,-4.51663e-08,-6.37586e-08,6.51955e-08,111.904,-18.391,77.5127,70.624,415.995,189.293,100.555,851.866,253.359,-112.671,17.447,-78.1953,-118.818,456.37,27.1685,-65.5242,897.489,69.9617,-9.05856,-239.886,-26.0431,-80.426,-479.648,15.222,-140.713,-630.892,90.5289,-173.839,-435.732,-96.4009,-286.442,-223.316,-207.222,-365.264,-377.482,-82.233,48.2776,-456.284,102.063,35.3515,-252.125,259.219,-162.139,-340.302,274.287
13,1.50361e-07,-9.79526e-09,-3.83904e-08,111.689,-17.088,74.383,63.4636,430.119,154.341,87.3573,873.601,155.326,-111.717,16.6657,-74.9732,-133.43,461.887,3.90771,-62.8029,897.208,-18.6601,22.6783,-224.493,-66.8976,21.4979,-474.621,-64.2881,46.8214,-633.993,14.7798,-104.88,-459.326,-141.245,-365.887,-401.613,-57.6449,-321.392,-574.692,67.5647,139.952,-432.287,10.4929,110.026,-278.967,244.962,-91.3679,-384.126,243.509
14,-3.42206e-07,-2.53666e-07,-1.20285e-07,100.11,-21.8198,93.2888,35.8776,424.726,176.34,29.4578,880.074,195.933,-101.551,20.3532,-94.3688,-158.293,468.755,-13.6359,-83.968,915.095,-33.7106,3.57191,-252.083,-25.0975,-36.7669,-496.398,32.5562,-47.4034,-674.98,95.375,-141.237,-455.451,-89.5064,-193.872,-214.112,-230.051,-200.944,-105.301,-22.4241,97.6063,-442.104,111.944,216.641,-199.073,187.401,67.1243,-99.5636,314.811
15,-1.90453e-07,7.04627e-08,-9.02195e-08,80.6185,-27.6113,103.818,-51.8568,389.851,193.928,-23.8708,847.767,209.918,-81.5932,27.1715,-104.759,-144.435,461.385,11.6206,120.278,802.481,-116.606,19.0208,-242.719,-40.8557,-10.1699,-494.972,-66.9458,5.08734,-665.186,-56.2357,-93.615,-433.127,-179.526,-125.267,-176.377,-287.638,-172.459,-164.188,-53.3274,112.327,-487.067,18.63,194.727,-445.44,229.711,59.1021,-591.838,175.681
16,-3.45972e-07,-1.09595e-07,-2.2908e-07,130.962,-3.14053,-41.0812,182.875,407.174,143.265,149.439,854.925,121.622,-131.727,2.58871,40.3878,-104.839,458.425,95.481,-89.5349,910.857,60.2588,-27.4458,-232.573,-69.1343,-31.1633,-486.226,-96.9927,6.47076,-642.903,-88.3882,-174.251,-450.196,-47.4019,-236.308,-307.022,148.416,-49.1584,-464.78,102.478,101.849,-443.088,-154.564,232.253,-202.702,-268.304,177.144,-212.156,-10.4688
17,-3.80068e-08,2.17157e-07,-1.82561e-08,90.373,14.0032,-102.192,18.4374,458.712,18.2209,-126.506,883.925,14.0688,-90.38,-13.4507,102.25,-16.5462,424.116,252.732,51.2546,867.508,341.708,-23.8524,-244.762,-70.6794,-37.2279,-490.986,-98.5382,19.9672,-666.745,-122.639,-144.575,-499.018,26.1148,-40.0294,-541.683,254.255,152.21,-689.414,296.009,66.719,-476.563,-213.877,325.991,-559.368,-159.959,340.073,-725.813,67.6879
18,-1.01631e-07,3.9287e-08,-1.10189e-07,-53.3259,10.3253,-113.14,6.24121,447.344,-64.2903,-30.4749,858.599,57.8248,51.8249,-11.3926,111.643,-7.24353,413.769,201.666,-151.498,811.752,342.257,-12.6727,-236.006,-29.1662,10.7494,-486.726,-49.211,9.38812,-644.416,-100.197,48.6954,-481.532,77.8947,204.784,-461.62,221.645,392.123,-646.372,175.508,-67.0327,-461.68,-165.29,-71.1797,-483.065,-431.417,-33.2549,-615.063,-572.933
19,-1.22526e-07,1.21534e-07,8.45458e-08,-146.397,-10.1251,-2.67403,-158.769,424.836,99.1707,-257.399,713.958,418.697,145.823,10.077,2.58824,126.135,467.443,-4.55273,79.2134,896.95,111.407,16.6101,-261.699,-40.0383,46.9673,-497.768,-132.034,37.8717,-657.46,-189.582,198.455,-471.152,-103.144,446.065,-346.652,-152.11,546.371,-403.288,-361.278,-109.227,-482.371,-115.681,-357.204,-401.935,-248.055,-137.544,-467.182,-384.536
20,-1.77957e-07,5.92876e-08,-5.30157e-08,-119.511,-29.0103,80.3844,-85.5904,433.824,145.628,-1.91382,843.055,296.472,118.574,28.4285,-81.1526,93.6165,492.338,-135.09,158.012,913.365,-55.523,30.0175,-262.121,-9.979,40.0381,-510.588,-65.7255,-30.1469,-677.249,-152.41,171.731,-465.406,-146.471,261.039,-355.225,-377.782,78.9486,-433.413,-495.919,-82.8137,-510.671,36.2051,-340.633,-533.535,8.18896,-332.675,-616.313,-204.08
21,2.99125e-07,3.23761e-07,1.09743e-07,-22.237,-35.847,123.844,-167.83,405.157,178.773,-189.83,832.843,319.719,23.1697,36.8517,-123.232,55.8867,487.954,-11.5443,188.126,898.641,113.171,52.2393,-236.997,-53.4778,59.0718,-489.341,-92.4566,-5.7182,-658.099,-110.398,89.8657,-448.222,-232.717,-60.6553,-443.077,-477.358,-208.78,-592.52,-404.176,51.7076,-482.875,53.1655,-30.3796,-431.466,294.277,-181.386,-481.282,247.977
22,2.84027e-07,4.15572e-07,-1.23754e-07,113.552,-12.0283,74.3791,76.2493,402.163,218.327,211.867,800.755,115.507,-112.793,13.0031,-74.4688,-148.544,430.313,39.1993,-109.6,858.573,38.0425,8.75764,-235.389,-61.5464,-3.71533,-480.409,-96.7809,21.4658,-665.047,-100.521,-123.022,-472.129,-193.05,-372.243,-474.24,-245.017,-584.457,-664.085,-217.398,113.108,-495.922,-45.295,276.456,-564.109,148.982,231.928,-791.171,294.389
23,-2.69734e-08,-5.92596e-08,-2.0618e-07,141.7,1.67598,-7.45266,65.213,445.677,93.6934,-18.6212,889.392,105.462,-141.795,-1.95752,6.7424,-200.113,405.078,211.385,-225.237,829.552,22.4338,14.7798,-246.938,-70.0399,16.4016,-495.847,-93.8471,70.8714,-677.446,-65.3225,-152.588,-457.404,-78.1003,-280.634,-225.831,16.3564,-98.5706,-279.774,156.664,182.25,-460.708,-113.812,416.659,-436.89,49.672,248.887,-550.782,144.71
24,2.84376e-07,1.79291e-07,-1.6753e-07,137.9,-8.79406,11.3612,150.355,393.985,233.633,202.738,831.427,199.941,-136.818,9.51678,-11.3986,-115.728,461.258,73.9748,-104.836,900.12,62.5208,-3.99379,-237.81,-69.7397,-20.621,-489.716,-98.6429,-52.1262,-658.771,-68.8051,-168.43,-470.988,-138.369,-444.807,-516.197,-51.0593,-472.27,-695.329,90.1807,126.775,-475.566,-99.8953,388.636,-486.21,-6.05981,333.119,-698.742,129.478
25,-8.05515e-09,8.07114e-08,-2.45485e-07,133.661,-3.97386,47.5251,26.1293,384.482,271.348,58.6828,820.616,309.906,-133.879,3.76915,-48.4633,-244.379,426.763,74.0311,-293.247,858.497,29.6624,-31.3432,-171.362,160.692,-73.1272,-278.913,384.476,-94.6852,-351.411,499.62,-203.708,-258.576,319.298,-325.677,-208.899,215.641,-176.249,-154.036,295.203,68.4802,-254.022,377.117,262.53,-109.657,363.987,105.906,-159.725,448.541
26,-1.2503e-07,-1.18975e-07,-1.24868e-07,101.056,7.51279,-101.36,120.578,433.442,27.1156,-2.00311,851.662,-26.9149,-101.465,-7.99574,100.782,-34.3242,420.53,244.089,-64.0455,850.077,267.258,2.89507,-240.179,-33.5473,41.3519,-493.486,-48.7219,107.912,-646.896,-61.2081,-75.7612,-486.824,50.5482,-154.273,-483.724,286.06,29.7748,-573.843,289.414,109.184,-449.862,-165.389,288.215,-395.095,-283.22,393.291,-540.747,-276.743
27,-5.90855e-08,-7.35688e-08,-3.46165e-08,-74.6329,6.46516,-120.918,-25.3422,464.043,-42.9297,-90.1497,898.735,81.0886,74.3557,-6.96911,120.593,100.348,441.853,218.385,-150.461,748.588,441.371,-11.6581,-259.929,-17.1749,29.2424,-506.998,-53.4214,26.1312,-686.454,-117.038,94.8824,-497.023,90.9136,148.318,-312.976,295.567,373.614,-273.367,258.409,-79.6657,-475.962,-174.816,-213.747,-292.791,-347.387,-24.8433,-302.69,-446.799
28,8.71035e-08,-2.17472e-08,-7.58008e-08,128.446,-18.0995,44.1282,104.855,432.7,100.737,129.77,872.85,79.8464,-128.852,17.294,-45.048,-147.23,460.263,41.0444,-125.032,904.56,16.124,8.79977,-242.254,-59.1847,13.7291,-488.615,-101.47,36.5286,-672.289,-87.0344,-130.542,-466.294,-165.168,-367.965,-408.493,-234.744,-629.982,-453.799,-253.244,165.402,-462.895,-75.3754,424.635,-394.124,21.0121,609.854,-430.839,146.992
29,-8.89258e-08,-1.68342e-07,-1.45901e-07,127.831,-19.4664,54.0037,101.325,427.793,119.863,128.104,862.467,106.521,-128.281,18.6698,-54.6885,-234.392,431.395,94.7285,-279.221,867.977,96.6801,5.29724,-235,-62.3641,3.27817,-484.554,-26.2099,24.3598,-661.269,-11.125,-131.972,-439.949,-82.1198,-249.142,-185.943,-89.1221,-163.807,-150.069,124.426,134.688,-420.689,19.1168,202.328,-180.111,133.118,4.15015,-208.574,195.754
30,-1.30174e-07,-1.95766e-07,-2.72874e-07,106.181,13.7161,-67.4194,182.841,377.394,196.989,245.304,815.778,300.813,-108.255,-15.8146,65.1071,-40.4364,376.89,259.757,-1.42487,825.575,233.208,118.976,-142.238,127.928,273.911,-194.411,318.633,360.558,-279.19,401.091,139.094,-195.284,366.044,-28.3426,-27.7894,351.436,103.571,153.572,270.753,347.731,-131.807,225.363,467.004,128.029,143.873,626.717,328.781,112.967
1,8.21861e-08,-1.87695e-07,6.27317e-09,127.473,1.72733,30.4843,74.8357,367.207,259.063,81.5839,600.051,62.4094,-128.382,-3.56355,-31.9971,-220.054,241.116,272.424,-153.679,636.033,180.475,-15.1105,-176.337,163.294,-24.3409,-327.236,369.73,-20.619,-439.242,480.448,-154.296,-310.469,294.153,-395.952,-206.387,84.8441,-589.575,-122.531,101.751,106.838,-265.331,324.023,341.445,-151.416,261.251,500.706,-49.1132,353.387
2,-2.79683e-07,-2.70854e-07,-2.01657e-07,130.349,-11.2654,32.6525,118.601,421.62,152.475,155.587,866.841,191.96,-131.722,9.72099,-34.0224,-141.721,446.501,75.4468,-115.116,891.956,72.4569,5.9456,-239.968,-30.0618,1.4614,-488.676,20.947,8.62207,-659.435,41.0104,-138.789,-437.609,-19.7646,-253.743,-196.03,-22.2348,-186.658,-77.4414,174.534,143.009,-421.705,45.7271,244.468,-173.607,94.3685,122.606,-58.868,256.77
3,5.982e-08,-5.20005e-08,-1.29713e-07,138.03,-9.83923,10.7604,157.925,429.286,138.009,190.962,891.518,216.691,-138.06,9.46208,-11.2458,-115.8,469.497,65.9614,-71.4965,926.744,70.8092,3.80489,-230.575,-88.0503,75.6741,-478.177,-108.933,118.983,-630.144,-75.8298,-75.9794,-473.232,-116.852,-289.001,-582.844,38.7158,-126.639,-633.799,66.0798,193.096,-378.817,-99.1148,282.23,-100.339,-49.5286,314.968,74.3462,112.339
4,1.76566e-07,-1.8042e-08,-2.29567e-07,134.586,-9.74374,37.3174,90.7681,412.176,191.104,74.4784,862.14,151.543,-134.719,9.02794,-38.5946,-189.753,424.684,121.556,-173.728,868.242,148.822,0.0180054,-243.241,39.9902,-10.1659,-472.637,142.55,6.71088,-587.559,220.351,-156.958,-465.59,106.453,-392.162,-466.655,201.409,-288,-590.243,334.152,135.939,-441.081,146.789,289.679,-377.704,358.879,129.832,-576.441,478.381
5,1.14349e-07,-5.95437e-08,-1.23932e-07,122.763,-15.7758,54.8173,73.9997,405.118,219.888,74.2181,857.058,309.01,-122.612,15.4662,-55.2858,-127.388,460.014,24.3799,-90.2019,903.069,50.0786,-10.8105,-242.038,17.3711,-27.1237,-469.452,123.568,-27.0869,-603.031,228.289,-169.573,-461.213,65.9405,-377.362,-401.335,212.869,-271.538,-453.493,384.259,111.19,-416.189,170.87,123.228,-242.406,401.482,-90.5649,-292.542,483.276
6,9.60549e-08,-1.53125e-07,-5.37498e-08,113.986,-10.3473,74.9164,42.0941,419.852,189.387,2.03436,876.599,215.202,-113.787,9.88536,-75.0606,-183.848,440.096,11.1717,-176.455,882.104,-33.1964,-12.085,-234.163,68.4229,-73.1712,-416.729,217.995,-110.559,-540.522,322.944,-197.549,-409.656,130.416,-412.337,-339.112,241.757,-303.738,-342.643,393.412,49.8742,-342.209,277.866,44.4814,-124.698,457.866,-130.085,-121.207,513.43
7,-1.16381e-07,-1.79722e-07,-1.76069e-07,126.442,-11.9385,38.5503,104.045,386.906,230.921,155.637,822.924,322.381,-127.206,10.9262,-39.6879,-86.5139,453.265,36.4454,-16.8852,893.458,6.03479,12.3044,-224.595,-74.9121,1.85175,-478.18,-79.1106,25.1677,-647.856,-99.2946,-129.515,-410.36,-112.545,-260.629,-179.942,-28.9705,-278.006,-199.059,211.191,131.489,-420.75,-24.7599,215.815,-214.652,148.008,57.1617,-267.011,287.557
8,-2.27901e-07,-2.93227e-07,-1.8093e-07,134.24,-8.83716,18.9574,87.7637,432.773,107.286,50.9268,879.489,113.12,-135.378,7.37885,-20.1197,-195.972,425.128,130.888,-207.292,873.62,133.264,18.4516,-239.414,-48.1612,26.2764,-485.412,7.40805,72.0316,-665.932,47.5381,-118.798,-435.378,-7.50482,-245.576,-189.444,21.6322,-142.098,-108.67,217.873,165.192,-411.507,8.77612,285.612,-170.486,64.1558,162.646,-89.649,242.892
9,-1.21962e-07,-1.88168e-07,2.1724e-08,128.908,-17.2876,60.9097,66.8257,431.655,126.807,48.1345,873.535,131.224,-129.997,15.9722,-61.6278,-207.201,443.092,91.778,-231.434,880.267,169.407,-5.1485,-247.627,-12.6127,-31.4408,-476.085,94.7799,-15.239,-646.206,179.999,-153.686,-444.774,10.4415,-245.047,-192.846,-84.8286,-175.487,-123.152,114.171,98.8994,-408.837,152.594,111.609,-180.658,300.465,1.44641,-152.232,472.842
10,-1.06219e-07,-1.81872e-07,4.04792e-08,124.548,-9.77934,62.9406,91.0085,428.958,149.297,70.4633,865.364,172.002,-125.509,8.48006,-63.559,-179.639,426.558,91.5605,-184.716,862.433,173.957,-12.8053,-239.484,37.5569,-71.9163,-439.143,178.37,-66.4464,-572.396,301.571,-183.651,-421.744,82.3337,-291.53,-207.165,-48.8323,-329.703,-234.502,143.017,57.7451,-371.126,235.839,74.8646,-123.857,340.644,-72.1415,-141.569,467.54
11,-2.39633e-09,-1.66022e-07,5.11469e-08,125.087,-13.4379,63.8561,76.1875,431.198,135.222,76.1197,868.756,124.511,-125.73,12.3914,-64.3404,-190.482,431.13,95.5679,-196.947,868.58,147.096,12.896,-241.344,-14.1125,-10.1555,-471.819,74.4786,4.20117,-622.202,190.376,-124.459,-442.193,-6.3667,-243.358,-209.499,-120.931,-162.868,-152.717,98.1821,112.397,-404.141,131.901,123.312,-187.987,297.048,-28.4423,-221.403,382.391
12,-1.89935e-07,-2.12113e-07,-1.895e-07,125.971,-14.4678,54.8486,77.47,427.978,150.972,68.5038,872.684,153.44,-126.754,13.4952,-55.6842,-245.008,433.224,72.8535,-254.25,871.197,-28.6193,12.2762,-240.021,-38.137,15.706,-485.432,24.9872,57.3859,-654.422,84.0253,-115.42,-445.395,-40.342,-233.232,-199.671,-106.549,-163.344,-157.177,109.901,146.124,-406.19,60.6276,244.816,-155.64,112.316,62.1191,-139.602,240.706
13,-4.37766e-08,-1.21531e-07,-1.35287e-07,138,-9.78024,19.1008,110.678,430.715,121.071,113.255,874.169,94.9954,-138.374,9.09944,-19.8465,-174.334,442.486,97.8137,-170.684,884.951,77.8648,1.8942,-235.589,-58.0904,-9.8631,-488.002,-41.924,29.324,-659.8,-33.6522,-148.063,-431.142,-73.3818,-272.868,-187.296,-97.4594,-160.726,-173.183,129.579,132.322,-432.144,-16.9405,250.25,-240.163,145.454,73.6597,-349.397,257.236
14,1.28992e-07,-3.1174e-08,-5.60503e-08,129.183,0.673248,-34.8119,154.784,409.912,136.89,70.1057,815.831,-15.2534,-129.304,-1.03105,34.3698,-95.3663,431.592,113.341,-85.9644,874.937,124.034,-2.98071,-225.202,-63.9236,-33.9019,-474.819,-110.778,4.73212,-639.949,-152.228,-159.184,-413.344,-76.2558,-264.466,-184.501,19.8584,-92.1926,-173.795,142.323,91.9898,-446.508,-153.55,342.722,-523.557,-76.1249,432.876,-787.904,-30.9262
15,2.72823e-08,-1.16618e-07,8.87165e-08,112.793,-17.3357,78.2835,70.7443,429.251,98.5157,86.1832,871.169,41.0366,-112.775,16.9496,-78.0085,-213.853,417.451,94.3476,-250.742,837.639,224.619,32.2294,-224.696,-62.4542,13.9496,-475.539,-64.3357,1.47449,-644.878,-68.4354,-92.1313,-419.209,-141.349,-173.673,-161.178,-165.355,-141.794,-189.129,62.5087,124.688,-418.171,13.3585,148.986,-176.02,138.287,19.2059,-314.225,155.127
16,-1.44273e-07,1.15254e-07,1.72061e-07,-18.3543,-34.9687,130.793,-64.0366,425.359,197.904,-22.6125,879.425,306.341,17.9699,35.1147,-130.41,6.07428,510.068,-120.627,186.268,927.228,-98.9661,44.1148,-243.452,-38.4358,46.7856,-488.148,-116.065,38.7349,-656.672,-96.0523,75.1304,-383.673,-230.508,67.5532,-99.9089,-295.356,-144.297,-140.232,-157.582,22.1069,-502.076,33.9066,-211.813,-553.125,202.176,-287.839,-625.974,-10.5235
17,-6.39699e-08,-1.20225e-07,8.23767e-08,118.922,-26.5832,68.8055,57.0803,380.767,281.737,239.601,779.538,158.216,-119.309,25.833,-69.1746,-151.074,454.171,109.044,-84.5402,904.272,160.732,-31.4277,-248.233,-34.0738,-119.843,-479.47,31.6516,-157.946,-629.827,152.228,-219.112,-410.292,-69.2928,-240.378,-117.393,-144.612,-239.519,-115.401,101.381,15.4097,-446.362,117.257,40.0413,-206.044,254.923,-145.433,-280.29,308.121
18,1.41399e-08,-1.13557e-07,-2.29973e-07,119.737,4.33902,-70.942,122.806,423.276,93.7126,87.2501,871.653,108.998,-119.499,-4.50377,70.4191,-85.8025,428.402,196.372,-158.733,860.761,143.024,-20.5127,-229.305,-54.7935,-34.9575,-483.193,-50.1885,19.6024,-651.415,-30.9644,-157.749,-423.92,14.8334,-273.178,-184.606,94.6553,-82.3536,-196.556,226.445,91.0603,-441.81,-125.754,355.318,-334.024,-30.1479,211.939,-495.742,96.5593
19,2.23686e-08,3.4847e-08,-2.51144e-08,-38.012,7.43565,-127.872,-20.6448,462.033,-17.5632,-87.0154,892.983,117.57,37.0565,-8.41176,126.783,35.6242,418.142,288.624,-219.407,743.16,465.207,-34.9535,-249.873,-34.7224,-4.89853,-495.356,-63.6133,16.401,-661.89,-127.822,27.9884,-450.73,74.1443,20.707,-241.739,247.801,116.197,-101.98,195.141,-64.3399,-450.449,-191.629,-16.9108,-335.343,-453.038,175.755,-400.593,-529.123
20,-1.84065e-07,-9.26686e-08,-1.95589e-08,-91.7363,-3.09087,-106.646,-30.9402,466.186,-110.635,-128.572,884.887,0.662476,90.7423,2.34073,105.991,25.4764,462.969,190.539,-102.529,891.958,299.326,-1.24225,-254.527,2.4957,44.5496,-503.308,-32.2385,93.0908,-669.633,-84.8846,145.378,-455.517,78.8286,271.432,-224.174,163.322,259.427,-233.563,-93.7769,-82.485,-464.76,-116.952,-181.56,-346.797,-367.389,-16.3234,-504.891,-367.783
21,-9.62055e-08,1.00276e-07,8.16287e-08,-134.355,-0.723038,-25.4547,-175.941,426.393,125.708,-268.597,772.166,397.12,133.455,0.263992,24.9398,174.977,459.098,15.293,217.044,893.865,116.897,10.8009,-253.846,-21.9261,8.60666,-499.019,-87.6581,-9.2561,-675.062,-150.871,162.92,-498.847,-57.0945,418.416,-464.489,-173.026,436.864,-609.995,-379.208,-145.65,-455.76,-86.627,-322.331,-282.522,-219.564,-128.451,-378.92,-320.09
22,-3.92425e-08,2.42491e-07,1.21744e-07,-113.745,-28.9349,64.1076,-127.325,438.67,97.4056,-60.6575,858.892,211.848,113.193,29.0374,-64.166,135.952,484.978,-61.3853,218.53,786.913,249.206,51.883,-250.964,-6.71655,67.9445,-501.919,-39.6611,35.2305,-677.478,-60.3511,187.138,-463.642,-125.993,269.368,-356.46,-361.254,67.301,-424.617,-480.109,-46.2965,-495.872,49.0818,-288.731,-471.092,15.7828,-331.241,-600.717,-133.811
23,-1.39962e-07,1.59013e-07,5.3379e-08,-122.574,-17.9739,38.5819,-209.867,428.241,-1.27478,-225.229,797.261,215.991,120.788,16.8087,-40.0129,47.9348,454.254,57.2586,11.6793,833.289,268.021,23.465,-242.923,3.03923,48.8962,-494.715,-36.1424,40.4937,-657.763,-118.763,199.576,-464.958,-46.8211,388.12,-518.171,-191.432,396.978,-694.007,-361.882,-95.2039,-485.971,24.8949,-310.967,-570.176,-32.4055,-311.996,-774.051,-130.523
24,7.82891e-08,2.73963e-07,-6.87346e-09,13.5992,22.6741,-117.265,-4.36438,481.932,-50.8388,-203.796,852.193,46.6363,-14.258,-22.5582,116.575,-3.12799,433.892,202.747,-73.6855,866.567,273.802,-38.1917,-227.39,-69.6651,-39.8178,-480.008,-102.026,14.6471,-645.884,-136.596,-95.2713,-468.412,6.90155,-93.9107,-435.305,166.543,21.7497,-504.795,163.318,-26.0435,-465.148,-229.545,157.226,-599.734,-352.443,201.242,-854.277,-302.306
25,-8.89165e-08,-1.54155e-07,-1.96968e-07,114.499,21.1083,-78.0672,141.937,437.633,98.5195,-36.7313,819.779,12.4456,-115.652,-22.8517,76.2673,-53.32,348.864,302.791,-163.357,762.484,370.998,71.9292,-221.643,36.5278,128.269,-433.049,165.747,147.83,-549.092,224.075,0.805847,-421.741,188.683,-132.96,-411.521,337.102,29.0797,-463.176,370.366,244.826,-419.473,91.4567,479.669,-400.655,132.552,547.328,-535.46,239.461
26,2.45668e-07,-3.89418e-08,-1.92664e-07,122.86,-11.0891,58.6662,86.209,433.809,159.327,144.237,883.345,144.234,-122.321,10.9212,-59.3035,-215.072,448.298,28.4382,-230.289,892.796,-66.2281,33.7194,-225.176,-85.808,23.7252,-478.905,-119.022,19.7391,-651.297,-99.7476,-110.196,-431.83,-175.151,-380.504,-400.332,-112.03,-407.145,-527.443,62.4617,156.727,-447.946,-52.2163,289.45,-418.35,206.124,87.4353,-535.928,279.33
27,-1.69786e-07,-2.78782e-08,-8.62976e-09,-125.277,-24.6675,48.8971,-95.5915,436.865,130.354,-29.5914,853.517,329.004,124.558,24.1922,-49.096,141.03,479.217,59.0693,174.472,906.966,234.293,16.9936,-250.472,-33.286,0.628601,-497.655,-92.7361,-25.4345,-680.077,-127.245,152.775,-484.491,-124.854,423.216,-439.065,-210.052,609.2,-428.987,-397.521,-134.381,-488.395,-9.86438,-382.411,-442.725,153.948,-631.158,-419.355,197.897
28,1.53684e-08,2.34966e-07,1.7786e-07,-77.0756,-20.4452,102.839,-239.626,421.268,70.442,-149.992,801.737,250.169,77.2733,21.0529,-102.203,0.172363,478.095,-85.2775,86.113,830.041,147.92,-102.828,-227.81,-58.7808,-294.823,-394.296,-103.205,-428.536,-503.665,-139.639,-199.989,-397.115,-230.91,0.458313,-249.732,-358.905,-209.59,-184.954,-334.143,-315.962,-329.285,26.7072,-376.917,-97.9342,152.018,-563.295,19.0529,53.953
29,-2.35413e-07,1.89928e-07,-9.06086e-08,-123.836,-6.97461,63.2598,-242.441,389.387,-146.171,-130.665,751.497,139.937,122.911,7.14525,-63.7038,33.6072,414.84,-234.397,127.582,780.001,0.756775,-123.131,-108.058,-180.249,-207.967,-187.211,-410.275,-279.201,-261.877,-539.174,-69.7538,-188.505,-400.862,161.302,-94.4609,-285.102,286.983,69.178,-257.826,-333.754,-149.313,-355.294,-513.901,32.6934,-352.664,-626.806,117.423,-473.74
30,6.65466e-08,1.19902e-07,-4.20964e-08,-118.893,-22.1406,55.9172,-170.534,439.218,47.2868,-110.891,852.76,215.82,119.2,22.5685,-55.6489,51.9551,474.082,-115.123,123.2,904.739,50.5867,-73.2245,-187.418,-149.045,-172.715,-310.206,-354.953,-252.864,-395.94,-490.849,-13.8497,-291.487,-367.901,219.332,-161.17,-277.063,105.302,51.8141,-290.831,-294.671,-283.633,-253.714,-427.296,-128.217,-65.6131,-509.993,19.2289,-190.773
1,-2.3767e-07,6.41076e-08,7.44744e-08,-134.961,-21.0882,43.5766,-152.66,414.489,127.453,-128.636,799.863,309.548,133.737,20.4889,-44.1653,120.139,453.243,43.6423,134.076,852.136,210.672,11.0425,-255.211,-23.9103,36.1312,-497.694,-86.1658,-12.6177,-694.597,-154.255,190.753,-439.8,-124.189,274.356,-182.045,-184.15,87.4886,-236.728,-292.431,-111.346,-492.657,-22.1045,-329.018,-522.103,-191.168,-222.992,-724.107,-314.238
2,6.68118e-09,1.2809e-07,2.83981e-08,-137.473,-23.0496,26.3027,-182.431,440.769,-7.70837,-223.482,887.826,40.066,136.7,22.7059,-26.8974,108.06,477.077,67.5644,87.9707,853.871,308.446,16.8847,-256.356,-39.7255,18.8976,-490.33,-147.734,-48.4276,-621.208,-255.388,177.498,-453.692,-166.174,253.671,-273.954,-353.758,133.365,-283.871,-547.624,-140.714,-480.941,-109.446,-373.556,-418.684,-253.553,-406.378,-432.505,-490.855
3,-1.33047e-07,2.29633e-10,4.20017e-08,-130.315,-13.5655,27.3535,-79.2557,440.864,107.667,-12.2871,868.069,245.224,129.347,12.8123,-27.9264,153.718,470.845,0.367981,195.135,903.001,143.195,-18.5443,-251.244,-42.4035,-44.5746,-482.018,-144.026,-91.485,-641.529,-217.633,119.483,-462.831,-163.956,292.503,-287.224,-296.025,148.828,-314.431,-495.718,-191.282,-460.724,-95.1961,-466.351,-346.124,-129.286,-463.665,-333.858,-345.766
4,5.94242e-08,2.79588e-07,1.26138e-07,-134.419,-3.45264,29.5496,-84.4761,460.455,98.9458,-23.905,877.6,248.679,134.56,4.13672,-29.1636,177.665,470.905,12.7037,234.983,891.961,160.281,-50.8546,-238.632,-72.9778,-106.918,-408.966,-252.104,-146.061,-423.655,-411.734,40.9552,-377.847,-260.303,197.978,-164.28,-340.316,-10.3984,-184.584,-405.14,-236.537,-376.95,-190.797,-487.336,-241.437,-166,-312.811,-217.25,-307.684
5,4.41335e-08,-1.39861e-09,4.67784e-08,-135.256,-13.6925,19.4632,-117.392,439.307,87.6946,-71.5111,867.156,222.793,134.973,13.2985,-19.6604,151.93,460.965,30.7573,175.657,878.11,208.04,-37.0173,-244.569,-64.4255,-97.1131,-439.63,-213.675,-175.445,-538.392,-352.083,63.3124,-419.451,-213.94,253.057,-214.615,-135.812,129.917,-43.8828,-219.52,-232.006,-383.832,-150.69,-426.153,-182.182,-90.7825,-372.721,-59.9857,-327.503
6,-2.20778e-08,-1.73406e-07,-3.43708e-08,-136.818,-23.0833,20.9802,-195.225,439.274,67.4457,-208.503,855.82,262.89,136.258,22.0818,-21.4868,99.0175,473.317,107.113,67.6584,883.719,295.147,21.6863,-261.822,-2.037,60.0379,-507.935,-56.085,3.57288,-684.585,-97.3192,212.498,-447.514,-37.4755,318.566,-174.443,3.09637,163.771,-116.554,-182.76,-103.453,-488.944,-55.1855,-265.014,-322.696,-164.885,-274.102,-255.384,-412.89
7,2.32722e-08,-1.5895e-07,8.05173e-08,-128.655,-22.429,31.4275,-178.068,444.833,75.5385,-187.02,848.049,294.771,128.117,21.3445,-31.9114,100.413,472.467,95.0058,61.4853,881.757,296.13,31.1822,-249.098,-6.19244,18.3458,-499.43,-65.2751,-21.935,-666.94,-123.852,169.294,-462.453,-99.3908,309.219,-354.385,-324.331,157.015,-520.63,-452.165,-126.303,-443.252,-31.2967,-266.911,-219.915,-80.524,-243.592,-194.708,-327.731
8,1.91773e-08,-1.1541e-07,-7.48574e-09,-135.702,-16.9917,14.8892,-162.272,444.086,67.3184,-160.924,875.509,221.613,135.239,16.1661,-15.4264,123.466,470.327,101.773,108.665,894.583,273.815,-1.49469,-253.705,-27.9814,5.41702,-486.348,-139.032,9.47607,-618.298,-236.319,158.379,-449.304,-111.242,324.498,-219.737,-107.132,298.323,-318.279,-345.366,-146.983,-452.715,-122.976,-320.695,-241.951,-103.715,-282.883,-184.222,-322.173
9,2.39858e-08,-9.40714e-08,8.12727e-08,-130.468,-17.68,26.0301,-109.631,451.362,91.1792,-67.6605,859.01,293.058,129.666,16.5212,-26.7389,178.78,475.64,65.5425,185.012,871.731,291.8,19.9848,-258.923,-8.06134,-7.54898,-505.151,-77.6358,-66.5001,-655.403,-183.066,143.161,-477.121,-117.955,296.637,-368.391,-358.307,114.992,-488.51,-429.826,-142.142,-450.736,-29.1043,-275.398,-224.534,-37.3005,-197.627,-138.866,-247.885
10,1.13155e-07,-1.39116e-07,5.0358e-08,-135.742,-9.36533,-13.1767,-124.102,453.028,79.832,-94.2352,878.142,255.347,135.592,8.52411,12.9368,180.455,468.672,98.2225,149.343,848.906,337.277,-10.5617,-252.604,-29.157,-19.5427,-482.232,-142.999,-67.8725,-630.785,-205.723,128.136,-451.53,-108.472,273.567,-248.555,24.5518,149.697,-91.5428,-108.634,-164.73,-432.67,-116.622,-297.485,-200.71,2.4353,-239.348,-7.53662,-158.77
11,1.39854e-07,2.15188e-07,5.68181e-08,-134.42,-4.98042,-33.7495,-103.279,458.914,39.0982,-52.5169,893.461,194.156,134.007,4.92404,33.3127,148.829,468.76,83.5827,48.0598,743.767,427.529,-16.518,-267.557,-29.1326,-9.60025,-511.406,-105.246,-48.1133,-669.142,-185.231,154.053,-476.455,-46.5471,274.244,-234.327,42.3277,154.872,-147.1,-156.262,-183.59,-483.501,-112.701,-427.245,-433.828,-222.285,-405.189,-497.879,-452.189
12,2.15153e-07,1.20089e-07,1.17435e-07,-71.0114,-40.775,103.153,-190.911,388.352,170.174,-115.999,804.309,342.828,71.1482,40.5809,-103.324,59.1736,476.304,17.5872,110.651,885.215,189.784,36.4866,-242.388,-61.319,10.774,-482.142,-137.803,-25.2712,-657.371,-179.518,96.4859,-413.454,-261.854,29.274,-168.327,-378.184,-92.2283,-394.325,-357.631,-52.7574,-460.849,9.34088,-148.998,-257.862,163.424,-177.119,-207.728,-26.782
13,1.51974e-07,4.15126e-07,6.91703e-08,42.7507,-31.0733,125.512,34.4898,413.295,168.079,146.734,826.631,173.722,-42.4297,31.7585,-125.484,-192.865,452.724,-49.2006,-220.019,873.903,37.6698,19.809,-244.929,-57.2692,6.24918,-489.043,-104.98,-10.4106,-670.939,-108.789,-24.7421,-467.461,-261.769,-189.37,-450.308,-442.043,-272.149,-644.147,-424.424,60.3975,-499.034,50.7457,-66.0645,-525.182,248.46,-147.774,-734.601,222.86
14,3.14898e-07,3.10746e-07,-1.17612e-07,138.315,-5.27838,21.8243,96.9581,387.615,228.698,111.051,814.646,226.111,-137.743,5.88654,-22.2324,-150.473,443.36,46.6304,-85.78,850.647,-67.0703,-10.5382,-224.815,-86.3284,-33.5779,-462.757,-149.938,-5.06226,-653.752,-174.804,-180.993,-451.444,-181.929,-422.511,-416.813,-133.824,-550.489,-638.082,-82.7266,113.137,-458.816,-143.051,328.99,-549.621,37.3184,369.768,-794.904,118.246
15,9.71763e-08,2.54902e-08,-2.33514e-08,94.1411,7.77789,-101.924,84.3513,451.517,-12.1379,-86.2777,856.79,-98.6116,-94.5537,-8.48469,101.055,-0.305969,428.978,226.001,-20.3551,868.438,307.387,-32.6054,-245.027,-52.4859,-42.474,-495.879,-67.4525,-2.20099,-678.303,-46.3452,-170.323,-471.923,26.6955,-302.993,-410.419,242.927,-127.859,-595.925,347.989,69.6969,-451.769,-165.623,311.752,-382.89,-146.33,229.422,-533.194,17.7362
16,1.48319e-08,3.30058e-07,7.56163e-09,8.09734,24.5256,-133.77,0.437805,461.498,-4.94586,-101.451,876.825,83.4999,-8.57031,-24.0296,133.544,90.3451,405.745,259.865,30.0016,834.006,339.268,-21.8219,-244.35,-64.3165,-14.8948,-481.773,-93.0732,28.3911,-664.997,-159.984,-49.495,-493.309,61.0068,-30.007,-346.43,240.898,111.701,-305.579,268.083,-28.0518,-459.065,-260.78,89.375,-450.798,-483.833,223.091,-648.442,-493.317
17,-2.25404e-08,2.46615e-07,-3.15175e-08,-94.1274,6.31078,-96.6043,16.5897,462.901,-65.9705,63.9376,914.333,19.9352,93.3094,-6.29832,95.8265,28.7101,446.209,204.991,-144.733,827.574,390.346,-14.4647,-259.435,-24.788,4.33716,-514.637,-61.5257,28.011,-642.145,-142.837,117.796,-494.747,33.2251,333.58,-520.302,-30.0392,396.836,-581.155,-203.398,-136.908,-482.446,-136.848,-211.96,-472.656,-377.785,-71.8985,-547.296,-336.104
18,-1.93089e-07,8.89445e-08,-1.14093e-07,-145.251,-6.57273,1.87169,-165.402,444.998,63.3938,-219.911,755.683,362.136,144.117,6.02211,-2.93709,139.25,459.367,45.0809,134.816,878.683,203.96,14.8027,-259.292,-46.5475,23.6963,-499.887,-111.682,24.4219,-681.362,-235.085,192.385,-507.281,-71.1863,465.612,-493.109,-135.6,582.834,-606.502,-284.756,-137.812,-500.955,-90.5932,-372.965,-504.969,-207.257,-354.215,-639.376,-440.066
19,-6.55838e-08,6.52241e-08,1.42872e-07,-101.282,-33.5992,105.697,-58.5387,414.794,140.781,38.1423,833.915,236.708,100.769,33.2429,-105.724,60.8873,481.269,-134.937,223.949,808.285,82.5109,36.9,-246.975,-21.6201,37.8484,-492.905,-91.8603,-33.0418,-665.05,-101.001,154.045,-425.394,-201.806,195.979,-165.226,-302.067,-31.4008,-223.431,-267.332,-50.131,-501.883,48.4451,-317.577,-462.493,109.61,-206.02,-482.77,-133.03
20,-2.01247e-07,1.65881e-07,-1.11501e-08,-119.826,-25.3773,71.2698,-198.514,418.246,108.263,-166.545,811.516,303.097,118.443,24.7618,-72.3161,69.553,466.389,12.6406,97.4421,868.338,192.906,16.939,-254.513,-39.7782,30.7146,-497.866,-114.138,22.2455,-669.748,-176.279,198.905,-476.605,-156.088,390.341,-419.076,-362.152,231.448,-581.212,-460.358,-117.454,-518.411,-33.1104,-361.785,-522.049,-81.5125,-397.082,-618.093,-267.976
21,1.73348e-07,3.72979e-07,5.77399e-08,-124.85,-17.976,59.5207,-194.226,418.206,-36.5658,-212.403,824.856,42.582,125.133,18.7471,-59.0123,136.455,461.543,-37.6027,259.004,820.22,110.794,-109.404,-128.717,-174.586,-245.935,-143.4,-372.04,-367.01,-140.379,-503.846,-95.9406,-156.446,-395.972,151.426,-167.455,-337.706,51.4155,-43.9683,-295.925,-352.241,-145.053,-286.162,-430.388,-61.0588,-125.864,-439.945,28.2949,-242.302
22,2.0509e-07,3.77069e-07,9.34486e-10,48.5793,-43.5865,114.726,-51.8466,352.218,307.165,148.583,732.305,292.902,-47.7462,44.6541,-114.421,-138.408,465.302,20.5155,-4.23523,869.437,73.748,-24.6789,-244.777,-62.0151,-85.5397,-479.212,-80.296,-167.302,-652.929,-84.0731,-117.158,-458.563,-260.931,-219.558,-323.927,-480.195,-427.714,-441.558,-491.273,-13.3777,-469.361,70.1158,9.92804,-290.21,244.27,-142.349,-312.229,188.428
23,9.38976e-09,-9.01093e-08,-1.63294e-07,134.125,-16.6221,31.1948,79.1688,429.859,115.429,61.7379,875.281,112.44,-134.485,15.9828,-32.1049,-209.53,441.202,104.126,-126.633,850.622,-67.0306,-4.37634,-236.803,-66.2631,-14.9822,-483.599,-94.5658,4.71722,-665.339,-91.1019,-175.72,-434.311,-113.486,-367.657,-228.75,-78.6007,-415.691,-231.498,168.406,138.277,-451.05,-86.2624,373.597,-345.441,24.6552,352.611,-498.087,201.451
24,-1.77632e-07,3.54626e-08,-4.693e-08,-125.854,-22.0466,49.9596,-109.146,422.99,143.264,-58.6303,838.408,325.609,124.792,21.4101,-50.5915,140.511,469.825,45.9295,194.537,887.51,203.292,10.7955,-247.318,-40.5368,9.00278,-491.715,-105.923,-14.2001,-682.545,-141.023,167.643,-481.34,-133.743,417.678,-401.144,-204.616,595.721,-369.399,-402.424,-131.582,-498.229,-19.7007,-381.432,-452.617,122.273,-621.282,-467.304,153.876
25,7.72051e-10,-2.05737e-07,5.75339e-08,-136.183,-20.2166,51.2574,-120.661,422.484,133.105,-70.7308,816.599,323.109,135.679,19.1478,-51.5728,150.089,472.216,-40.5636,245.994,897.65,53.6677,13.7352,-258.927,-15.2493,-26.9741,-486.413,-122.504,-75.1068,-667.506,-171.566,125.22,-434.842,-156.495,269.702,-184.642,-130.636,53.9615,-93.0696,-223.724,-157.035,-427.839,-42.3381,-289.714,-184.62,39.7108,-254.61,-83.0318,-173.715
26,-3.09583e-08,2.89306e-07,2.07085e-07,-56.2439,-13.0279,116.268,-237.814,428.581,113.363,-239.148,836.017,226.619,57.267,14.6624,-114.302,-14.6389,483.769,-102.457,78.0634,866.887,87.6216,-197.322,-133.355,-48.5609,-448.14,-159.783,-140.801,-599.097,-194.54,-150.933,-341.69,-166.728,-272.625,-67.7991,-82.4557,-287.883,-56.2484,51.5662,-201.655,-482.581,-137.757,-0.742371,-464.179,67.7977,199.473,-551.455,234.606,264.283
27,-1.44211e-07,4.02507e-07,1.77625e-08,-109.384,-17.1424,67.885,-287.614,348.975,-137.961,-164.924,632.074,148.998,108.456,17.7826,-68.1802,-21.3274,392.31,-259.075,103.437,628.499,54.8413,-115.284,-116.811,-180.744,-231.762,-230.525,-366.24,-308.215,-321.535,-478.603,-103.354,-232.188,-405.877,162.298,-155.181,-330.057,283.608,-23.4041,-254.34,-329.193,-194.916,-267.641,-512.88,-113.066,-108.28,-650.815,5.2807,-74.3227
28,3.86417e-08,-1.22152e-07,4.79595e-08,-135.389,-19.9629,50.3339,-158.17,424.574,114.125,-161.656,845.486,259.8,135.134,19.2508,-50.5933,115.242,463.863,9.36182,141.948,880.103,153.011,-10.2712,-251.679,-70.351,-50.5291,-471.691,-191.843,-81.744,-651.573,-242.646,108.487,-427.552,-225.462,239.17,-180.051,-207.523,52.4897,-48.9268,-295.351,-183.266,-432.066,-99.4069,-294.971,-213.557,33.6855,-292.634,-24.5443,-147.933
29,8.65085e-08,1.35976e-09,2.59841e-08,-100.564,-31.1126,90.5068,-186.748,439.545,125.043,-188.598,856.078,315.665,100.926,30.9979,-90.3012,69.4801,491.949,38.5391,115.768,896.187,241.457,41.6133,-248.061,-17.774,-26.0029,-497.074,-21.3626,-103.082,-644.977,-53.366,80.1392,-487.841,-141.338,96.9487,-450.388,-394.303,-5.12952,-491.256,-487.248,-94.9035,-421.611,89.4335,-168.599,-143.24,175.695,-271.106,75.8335,162.974
30,9.57879e-08,3.30072e-07,1.39913e-07,-113.182,-21.3136,74.9434,-168.835,435.037,80.205,-114.545,846.084,228.27,113.102,21.8256,-74.9036,60.6807,473.974,-56.83,101.346,901.916,76.6537,-46.3817,-226.164,-90.4934,-134.367,-426.063,-225.305,-227.513,-525.195,-305.459,14.7963,-408.869,-291.013,107.546,-308.375,-496.343,-116.859,-424.668,-521.738,-254.542,-419.381,-127.907,-519.788,-319.036,-118.112,-542.113,-399.993,-319.189
1,-8.72958e-08,5.85554e-08,1.85083e-07,-128.977,-13.4809,37.212,-155.425,453.925,34.5093,-150.382,890.171,154.814,128.341,13.1123,-37.2764,139.296,470.535,26.0823,186.28,876.174,228.714,-27.9421,-244.876,-60.3352,-92.9335,-466.286,-183,-162.196,-579.951,-264.195,61.0145,-438.703,-221.392,171.857,-268.324,-424.17,-83.3004,-336.963,-447.349,-222.492,-429.254,-115.161,-472.68,-311.903,-140.974,-375.998,-312.885,-328.085
2,-1.16176e-07,1.29671e-07,1.09642e-07,-133.64,2.32831,20.7593,-90.1584,453.72,79.8503,-35.4855,883.715,220.031,132.78,-2.56354,-21.0913,185.792,441.109,28.1527,286.553,862.638,198.866,-66.8795,-229.873,-65.1907,-155.921,-413.404,-208.775,-197,-477.878,-356.475,-3.59955,-413.641,-225.614,134.889,-208.521,-322.582,-73.8716,-222.275,-324.544,-280.25,-351.569,-148.654,-513.709,-217.154,-168.976,-325.455,-210.278,-293.223
3,3.08374e-08,-1.84514e-07,9.45609e-08,-122.557,-24.5429,40.2581,-198.051,432.805,45.0156,-231.522,864.034,211.433,122.261,23.6143,-40.379,87.7228,468.686,90.6825,83.3523,880.195,304.68,16.7306,-251.196,-11.0586,17.757,-495.926,-84.0868,3.40118,-674.337,-108.584,163.224,-424.703,-118.697,213.504,-147.259,-204.416,65.3785,-128.526,-367.704,-126.274,-447.589,-31.7953,-292.66,-231.149,-31.8423,-303.009,-155.767,-264.914
4,1.37731e-08,-1.62262e-07,2.5259e-09,-108.163,-22.4634,75.114,-67.8396,428.403,140.484,21.344,846.185,306.746,108.079,21.9239,-75.1089,99.3367,476.859,-55.5614,173.299,904.726,58.5091,-0.30304,-245.577,-19.0295,-60.2882,-478.754,-99.0107,-123.266,-643.856,-166.356,67.7289,-419.109,-179.169,190.856,-156.014,-198.602,-15.1761,-14.9114,-228.164,-149.899,-430.367,20.727,-218.842,-207.81,178.56,-256.336,-54.265,0.113464
5,-9.45215e-08,-2.01943e-07,-4.66176e-08,-142.994,-18.6218,49.1459,-99.7948,428.861,137.881,-34.785,839.243,298.443,142.232,17.6252,-49.7447,120.186,472.893,-36.3667,158.204,919.185,21.7342,-16.4599,-261.959,-28.8879,-81.8055,-460.05,-171.032,-163.247,-600.04,-292.232,68.9216,-430.17,-187.351,225.23,-197.095,-129.785,53.7335,-53.582,-206.684,-211.018,-393.743,-108.106,-328.49,-134.769,-155.912,-290.094,-69.9254,-404.122
6,8.65722e-08,-7.49876e-08,1.11658e-08,-133.249,-15.2158,39.4894,-116.674,424.86,127.623,-66.1043,814.853,323.141,132.966,14.5733,-39.8605,100.165,457.095,-5.65222,97.2455,904.504,39.9464,-19.9926,-239.512,-47.9878,-99.349,-423.643,-200.818,-197.794,-504.629,-323.929,53.3203,-409.311,-208.655,258.135,-219.224,-167.987,111.56,-146.578,-352.264,-218.945,-355.524,-135.46,-340.26,-98.4803,-121.355,-316.82,-43.3487,-353.486
7,-1.28805e-07,-1.01909e-07,1.24847e-08,-138.908,-16.5263,47.7792,-96.1534,418.708,161.887,-38.9431,822.551,340.928,138.145,15.8389,-48.1637,121.255,464.155,-13.0743,145.503,902.709,76.2195,-4.06821,-259.098,-10.6798,-46.9401,-483.951,-124.889,-144.797,-608.246,-237.286,105.605,-444.544,-158.369,259.074,-214.334,-131.62,74.7189,-127.234,-216.397,-179.922,-437.874,-50.9115,-341.865,-210.993,-128.135,-299.81,-365.291,-268.806
8,-5.03133e-08,-2.96776e-07,1.24237e-07,-131.76,-15.8844,49.3158,-112.696,451.133,127.384,-64.0709,883.865,277.105,131.246,14.716,-49.3139,193.855,482.539,-36.4202,313.204,888.194,142.479,6.02667,-255.746,-7.46049,-58.3146,-483.302,-92.6229,-112.517,-653.595,-128.833,85.2611,-433.352,-121.603,271.322,-194.115,-100.133,53.3062,-84.8895,-187.721,-173.695,-414.193,-23.2943,-306.201,-166.106,75.6822,-250.93,-40.2524,-137.798
9,4.42189e-09,-1.1334e-07,9.57673e-08,-125.314,-23.3675,71.2685,-119.653,420.398,146.043,-55.4384,815.29,337.971,124.948,22.6087,-71.3506,115.858,466.822,-29.8546,164.724,891.533,95.9863,16.5591,-260.537,-33.3479,-2.8143,-493.469,-130.828,-43.9887,-678.164,-178.837,143.313,-430.951,-180.401,260.315,-169.485,-164.968,32.1232,-111.728,-244.753,-136.86,-458.817,-38.0707,-315.449,-235.513,2.87146,-255.366,-277.756,-231.518
10,-3.83117e-08,2.50374e-07,8.02335e-08,-71.7653,-23.1674,106.887,-122.431,409.583,176.232,114.406,688.839,350.556,70.6803,22.7103,-107.837,20.8716,449.074,14.8217,42.0582,853.976,132.575,9.57997,-226.155,-1.65199,48.1827,-459.433,-83.2705,17.0955,-624.548,-137.395,131.242,-364.675,-166.236,143.507,-87.1172,-232.455,-86.6929,-104.484,-191.899,-44.4507,-490.819,14.6031,-241.973,-559.901,4.03412,-270.485,-745.951,-152.929
11,1.69686e-08,-1.19391e-07,-1.53939e-08,-142.918,-9.8046,11.5563,-76.882,416.266,143.098,-4.30743,798.174,357.812,142.771,9.28938,-11.6038,119.796,456.66,-43.2705,88.0997,903.021,-13.9549,-2.17416,-254.4,-23.4272,6.03375,-487.731,-122.309,1.65253,-671.627,-193.027,152.883,-441.832,-95.4436,276.786,-194.921,-17.9969,78.6981,-119.705,-137.016,-147.223,-435.799,-103.24,-281.705,-195.354,-128.421,-90.4529,-249.35,-253.071
12,-8.25077e-08,-4.17432e-09,-1.74512e-07,-99.5795,12.5638,-103.302,-76.4521,471.824,-39.5964,-118.216,908.522,74.3458,98.7999,-13.1246,102.308,133.147,433.623,223.568,57.6597,803.484,451.513,-31.5493,-260.775,-38.9875,11.1842,-504.834,-80.8701,31.605,-682.522,-186.683,96.9995,-474.023,51.8759,143.04,-210.906,143.892,160.438,-147.915,-90.5173,-103.338,-488.857,-201.172,4.14087,-430.943,-416.115,203.053,-520.17,-409.112
13,1.80214e-07,1.42546e-07,-6.07382e-08,-146.085,-20.1024,-1.27368,-183.625,431.712,9.1322,-189.655,718.388,345.547,146.154,20.1414,0.815781,112.73,465.818,48.0496,58.8206,870.786,203.018,32.6178,-256.297,-62.1426,62.5295,-452.638,-218.615,28.5855,-539.061,-409.997,215.905,-410.164,-190.182,312.596,-156.087,-69.266,132.791,-75.6888,-209.569,-98.9874,-428.301,-189.319,-235.55,-177.672,-173.118,-40.7983,-198.333,-319.577
14,-7.43884e-08,3.65764e-08,2.07997e-07,-52.6327,-44.8166,120.853,-112.369,391.314,200.666,-27.0557,809.332,323.527,51.8617,43.9798,-121.136,-9.12903,471.587,-13.4611,113.717,865.095,152.198,29.1832,-239.61,-65.4761,18.6599,-476.803,-157.634,-42.2879,-666.302,-177.9,85.002,-393.953,-270.361,129.331,-122.969,-274.44,-78.4106,-127.34,-255.678,-25.0925,-485.396,-6.3277,-242.031,-357.616,122.006,-206.392,-457.868,-122.498
15,-3.56561e-08,-5.60011e-08,-1.1944e-07,114.148,-30.5036,60.5882,51.3728,411.972,117.211,51.0413,864.727,115.858,-114.271,30.3039,-61.0845,-198.891,453.672,53.7921,-50.0958,842.103,-159.475,-4.43701,-214.957,-98.2536,-36.95,-464.866,-132.117,-20.6995,-638.214,-115.71,-159.945,-387.436,-180.301,-254.025,-119.627,-160.36,-149.193,-183.472,55.5227,95.3036,-441.791,-80.3239,256.809,-426.096,128.802,132.333,-579.517,241.222
16,1.50056e-07,3.96868e-09,-1.13019e-07,137.949,-11.5411,-12.9077,176.552,377.248,218.703,209.44,815.098,156.208,-137.808,11.2629,12.409,-77.3533,451.964,111.97,-23.8161,886.573,83.3817,-17.4645,-239.085,-50.1374,-49.4269,-488.773,-51.6757,-31.7071,-670.344,-15.578,-193.36,-429.441,-38.1486,-343.669,-217.192,86.199,-175.231,-325.88,238.552,98.6761,-467.595,-70.87,355.129,-423.618,49.2043,341.894,-642.521,226.347
17,1.11027e-07,1.7393e-08,-2.46087e-08,114.292,3.98827,-84.13,89.3615,451.805,-13.4888,-1.41913,879,-97.4805,-113.982,-4.0117,83.9135,-50.8839,397.06,292.65,-84.5705,819.334,407.626,-31.785,-227.427,-80.1011,-33.0712,-480.489,-129.968,25.2262,-639.333,-137.202,-156.192,-465.004,-59.5414,-276.541,-532.316,170.981,-109.542,-657.459,86.7349,75.4581,-411.008,-204.857,335.395,-296.146,-163.912,198.256,-443.428,-31.8436
18,5.34394e-08,2.06588e-07,1.29598e-08,54.2102,7.98608,-130.855,87.7565,435.221,18.8092,33.3293,861.4,80.6226,-54.7628,-8.0494,130.294,-27.6192,414.335,285.653,-295.979,761.416,276.803,-44.5327,-241.037,-57.8486,-63.9,-487.307,-88.2614,-22.084,-646.47,-123.493,-93.9483,-465.165,49.0774,3.61835,-407.027,207.36,156.125,-399.67,199.937,-55.4893,-444.339,-227.946,63.1667,-405.6,-468.378,200.614,-556.288,-515.75
19,1.89906e-07,8.97596e-08,2.85717e-08,87.6398,11.9428,-112.703,187.321,428.841,39.9708,75.5111,841.613,16.6663,-87.7582,-12.2464,112.119,-15.1313,431.547,202.623,-74.9722,864.74,179.906,-37.4706,-228.526,-57.8158,-74.3779,-477.48,-101.309,-49.2842,-646.25,-94.8071,-163.38,-462.25,-1.96112,-179.894,-622.664,255.125,-42.5562,-862.382,228.308,10.8683,-441.101,-208.714,251.888,-529.129,-225.168,326.175,-763.219,-146.375
20,7.49858e-08,1.67242e-07,1.5296e-08,86.6076,-30.2069,95.2349,82.6888,396.623,165.403,193.8,814.448,115.544,-86.9892,29.7925,-96.033,-129.601,438.489,39.9713,-50.0468,858.735,54.8524,12.6743,-224.474,-54.3578,20.0628,-469.47,-97.3833,-16.1376,-652.31,-106.781,-45.6005,-436.39,-219.645,-236.468,-491.316,-315.521,-255.724,-738.676,-290.68,121.708,-453.295,9.28644,114.558,-541.58,129.443,32.606,-627.632,147.206
21,1.02804e-08,6.30205e-07,1.11405e-08,-28.7839,-15.9476,131.236,-115.522,394.888,161.779,-5.27332,792.514,225.749,28.9615,17.4897,-131.104,-109.262,450.829,-116.697,110.326,754.771,17.5753,-109.762,-205.471,-1.15164,-249.043,-399.184,-22.7634,-320.592,-478.381,-81.2491,-218.131,-397.015,-145.824,-247.131,-381.588,-340.998,-368.062,-450.745,-488.973,-242.584,-399.95,75.4418,-413.012,-452.846,174.13,-488.316,-573.544,56.6473
22,-2.18049e-08,1.87384e-07,1.32515e-07,-130.871,-19.1768,49.3335,-143.072,443.077,110.759,-108.848,842.665,301.385,130.827,19.5804,-48.9104,173.329,480.555,-1.50037,301.299,859.564,191.331,22.6258,-257.972,10.4018,30.4786,-506.787,-35.5293,15.5496,-681.554,-96.5814,179.252,-464.949,-79.4259,347.841,-335.017,-267.681,229.058,-435.041,-458.911,-117.572,-490.581,29.8842,-405.772,-411.81,5.96283,-381.796,-499.415,-206.471
23,-1.46868e-08,-2.04679e-07,-1.11126e-07,124.431,-2.91374,-54.6158,133.59,451.841,28.7975,87.3793,894.218,38.5155,-125.265,1.48756,53.3163,-106.243,451.194,145.215,-136.948,901.303,131.793,-2.48975,-240.501,-72.595,-3.24438,-485.041,-135.165,19.5164,-679.598,-132.057,-166.182,-479.524,-96.4005,-431.556,-465.895,1.13214,-614.031,-501.534,144.84,135.357,-436.446,-210.409,378.83,-329.036,-292.534,644.904,-326.823,-349.72
24,-2.04005e-07,-9.51816e-08,-3.18181e-07,75.8973,26.7939,-111.528,222.868,396.129,88.9869,223.232,832.348,147.484,-76.6124,-27.3876,110.61,19.6777,386.273,214.889,-52.7798,806.537,183.356,102.617,-205.17,-31.2901,277.126,-387.147,-49.4223,394.701,-500.679,-66.8719,178.504,-418.349,55.3777,5.00494,-366.832,266.371,61.9839,-234.741,357.505,311.374,-296.03,-153.828,382.8,-33.1945,-218.873,550.597,35.0648,-89.0939
25,-3.66534e-07,-6.00275e-07,-4.07808e-07,117.771,18.3988,-67.5523,267.229,333.648,216.12,150.022,724.628,100.34,-119.224,-20.68,65.7161,-7.74255,289.19,375.418,-79.3856,731.391,334.332,120.441,-152.324,129.959,235.902,-277.949,311.343,311.78,-380.934,379.151,99.7573,-291.741,337.517,-150.399,-203.79,406.408,-213.772,-41.4224,526.991,343.151,-233.404,209.668,548.619,-74.9075,157.457,694.914,37.5934,228.75
26,-4.55554e-07,-4.19264e-07,-2.87486e-07,119.446,8.15611,-66.2995,242.349,379.211,167.615,187.893,809.903,166.849,-120.989,-9.90378,64.8972,-34.7935,353.872,312.624,-82.3633,787.254,275.457,79.1003,-213.568,77.0666,166.394,-417.147,202.514,226.878,-556.273,264.942,16.318,-400.651,223.729,-208.966,-221.066,206.007,-99.7261,-61.7677,316.174,283.563,-370.271,118.439,425.242,-165.734,7.58893,534.61,-72.3612,209.276
27,1.34346e-07,1.30759e-07,-8.69463e-08,129.823,-2.23222,-44.4023,147.52,441.02,33.855,142.799,885.196,36.8057,-129.579,2.55206,44.1762,-94.7012,444.038,140.493,-99.4172,886.81,138.722,-4.75165,-226.256,-82.8204,-44.2089,-472.468,-140.168,-15.0067,-647.882,-190.291,-174.106,-418.026,-88.8304,-293.745,-217.653,47.1815,-85.8979,-260.399,169.305,96.5855,-449.93,-175.557,284.602,-580.015,-10.6978,188.952,-804.781,26.6939
28,1.49869e-08,2.32868e-08,-1.37006e-07,134.937,-10.591,-33.6655,209.092,376.996,179.695,249.224,821.288,276.439,-134.968,10.4295,33.1991,-65.1815,444.695,141.462,-45.9742,880.049,81.4488,-11.7893,-243.794,-34.2447,-17.077,-495.881,-14.1753,41.7695,-654.995,41.0388,-167.357,-472.429,30.5975,-171.083,-447.623,286.213,-35.3931,-608.298,398.533,142.519,-471.628,-49.0328,359.524,-473.156,121.176,360.149,-617.361,318.535
29,-6.77305e-08,-2.12346e-07,-2.49904e-07,132.146,-6.18645,-27.2444,121.058,418.467,118.178,64.3893,864.689,150.859,-132.626,5.07681,26.0159,-124.087,418.129,198.425,-161.573,867.718,211.297,10.0822,-236.863,-24.4223,32.8007,-490.27,18.7158,85.7357,-636.036,46.2773,-113.69,-466.233,45.5256,-278.274,-362.605,229.142,-134.687,-473.062,370.897,172.149,-445.598,-19.0345,408.091,-356.74,90.8668,389.694,-486.824,259.22
30,9.83832e-09,-1.72667e-07,-2.6759e-07,138.152,-0.368835,-21.1036,110.967,416.299,154.937,54.8475,865.606,188.429,-139.029,-1.04529,19.2805,-151.587,415.545,181.706,-177.205,864.974,223.556,35.7032,-239.107,32.3998,58.8802,-456.277,170.536,110.502,-554.006,261.593,-85.9858,-424.265,185.769,-202.823,-328.834,378.653,14.7321,-416.694,385.824,199.244,-411.548,123.222,367.004,-300.795,278.275,190.099,-419.747,354.101
1,-2.93846e-07,-2.37287e-07,-3.15937e-07,135.103,0.0220032,-25.984,147.894,418.519,139.771,125.385,863.196,183.091,-136.263,-1.22751,24.5961,-130.592,432.381,149.068,-131.66,880.004,139.474,33.1209,-235.462,16.2908,77.4464,-466.192,121.702,147.842,-603.294,199.657,-69.2358,-438.734,127.011,-253.927,-238.755,114.358,-128.909,-174.972,292.57,207.485,-405.491,65.4106,386.177,-196.997,19.9074,339.032,-191.508,260.042
2,2.50647e-08,-1.72445e-08,-8.01739e-08,129.821,-12.5936,-32.8376,197.465,415.645,92.488,238.24,862.637,134.069,-129.536,12.6802,32.8505,-54.1831,454.075,109.617,-12.5682,902.999,91.5251,-26.5929,-218.805,-81.698,-61.5254,-469.812,-108.787,-15.5173,-631.888,-141.619,-190.894,-404.109,-87.6853,-276.312,-141.774,-25.1262,-133.968,-172.943,147.547,81.403,-442.874,-98.1322,269.685,-351.114,113.121,330.724,-411.621,365.982
3,2.81937e-08,1.66065e-08,-1.35836e-07,132.685,-6.68602,-48.1731,197.322,421.523,82.3806,226.758,862.328,135.231,-132.654,6.4895,47.6762,-72.8197,453.665,125.379,-36.0176,894.424,98.6092,-40.912,-229.278,-85.2577,-50.3099,-477.268,-128.472,-1.9115,-653.245,-126.443,-201.5,-467.994,-77.5554,-313.919,-446.292,168.44,-167.489,-630.123,170.369,91.2619,-427.325,-165.312,254.195,-225.58,-42.845,180.503,-331.853,167.228
4,3.3169e-08,-1.62744e-07,-1.39526e-07,134.862,-8.82415,-25.9418,188.587,420.603,122.514,210.474,866.369,174.661,-134.857,8.11894,25.3032,-96.5008,453.614,132.78,-62.9131,905.766,140.851,-10.558,-242.347,-28.8183,-21.4295,-493.577,15.2459,-8.15472,-643.624,64.5132,-165.443,-455.369,18.7152,-321.158,-257.269,127.359,-262.254,-459.71,279.286,130.158,-454.343,-1.48492,317.022,-288.222,145.596,268.505,-426.347,315.438
5,6.1148e-08,-6.47671e-08,-1.65268e-07,140.966,-7.37113,-28.7281,137.984,444.276,62.1879,111.382,894.289,93.744,-140.888,7.0778,28.1848,-157.349,456.97,127.228,-172.272,896.572,97.0555,-26.7175,-235.15,-74.8693,-21.9822,-483.068,-113.383,37.4947,-667.977,-102.098,-174.969,-478.576,-69.9345,-308.318,-486.637,175.971,-164.277,-669.96,279.289,111.164,-424.102,-138.526,263.161,-237.357,18.1302,135.816,-303.832,217.958
6,-2.95639e-07,-1.84639e-07,-2.19556e-07,140.447,-8.46988,-15.7838,142.558,434.039,114.219,115.879,878.602,166.239,-141.464,7.5421,14.8669,-152.819,446.306,142.199,-130.233,889.337,100.622,-7.494,-250.372,-28.6772,13.449,-500.42,7.88452,64.882,-669.364,49.7939,-145.726,-469.484,15.3217,-275.886,-215.882,7.15112,-131.148,-153.344,176.961,160.521,-437.671,-34.9502,293.222,-181.415,-68.0381,270.569,-86.2659,154.094
7,-1.18733e-07,-4.55859e-08,-1.61436e-07,134.826,-17.3636,25.7312,82.2868,421.252,146.938,53.5401,868.389,192.64,-135.51,16.85,-26.6901,-158.413,445.947,128.615,-10.3474,821.742,-95.4471,-6.73038,-237.038,-63.2343,-28.1337,-491.176,-87.6873,19.4017,-653.145,-53.4534,-174.237,-437.498,-112.991,-273.34,-176.369,-85.8259,-147.152,-271.538,79.4141,126.372,-473.595,-77.507,365.85,-480.436,54.796,364.157,-642.422,233.883
8,-2.84068e-07,-2.17679e-07,-1.50917e-07,69.3028,5.76726,-121.282,203.763,401.993,31.3746,145.808,838.878,15.6874,-70.1721,-6.72688,120.519,-38.7954,436.79,153.755,-65.3852,884.92,146.345,-38.5116,-232.582,-31.5878,-19.4001,-489.808,-37.9998,12.6414,-650.725,-50.1544,-89.6354,-452.189,96.4189,-55.699,-243.536,243.503,39.3651,-322.85,156.205,27.9023,-428.596,-175.007,44.5262,-188.614,-306.703,142.766,-182.665,-229.583
9,-8.92593e-08,7.17008e-08,-3.21062e-08,-29.39,21.235,-131.13,-31.7541,445.986,13.542,-138.081,859.756,155.421,28.4542,-21.6855,130.487,152.687,407.363,235.779,221.56,845.737,367.662,-59.271,-230.554,-34.4958,-75.0373,-484.512,-53.5107,-51.3864,-644.777,-108.064,-49.634,-481.452,74.6225,26.2285,-453.031,216.422,159.569,-444.104,214.176,-122.499,-436.292,-185.992,-48.0361,-461.417,-421.048,110.143,-525.552,-629.87
10,-1.80744e-07,2.75968e-08,5.65513e-08,-115.587,7.32793,-52.0795,-97.3639,460.771,-35.8878,-97.7702,874.592,118.876,114.062,-8.38969,50.9901,129.29,423.72,158.007,60.1921,789.671,390.198,-13.0287,-243.123,-22.3379,-7.24341,-495.714,-65.8398,-5.82312,-653.042,-152.48,121.759,-484.036,4.73071,384.214,-494.9,-11.3344,523.496,-668.846,-138.06,-140.106,-463.714,-91.169,-328.034,-467.212,-263.522,-296.94,-636.529,-483.754
11,-1.87261e-08,6.77948e-08,1.54319e-07,-93.2388,-27.2415,88.2405,-73.4432,421.799,155.261,67.3383,751.28,423.867,92.6485,26.6743,-88.3785,67.4862,471.225,-3.81171,108.155,900.019,140.941,19.6394,-245.056,-29.031,26.7499,-489.414,-90.2059,-11.2164,-662.048,-106.856,163.351,-443.291,-159.333,360.189,-302.898,-264.768,267.737,-384.391,-480.929,-79.0415,-491.773,18.908,-340.355,-408.826,50.1769,-203.076,-459.631,-155.41
12,-6.54136e-08,1.39435e-07,-6.93327e-09,20.5741,-37.7173,126.079,2.67017,419.582,193.966,103.378,853.809,230.268,-21.0936,37.3703,-126.817,-82.5862,495.45,-80.137,14.8255,924.714,-53.6608,17.0343,-256.248,-51.6346,1.82986,-502.709,-104.753,-50.9611,-689.664,-125.028,16.3686,-454.014,-256.794,-92.9595,-410.289,-484.695,-220.096,-555.256,-563.539,47.1976,-510.263,54.9537,-59.2476,-524.878,254.248,-190.591,-632.535,262.862
13,1.41144e-07,2.96446e-07,-1.59824e-07,93.818,-33.889,93.1693,-37.0559,369.963,251.443,20.5887,801.626,326.159,-93.7939,34.2046,-94.1209,-41.753,473.425,10.6312,155.454,869.101,-28.3235,1.47185,-222.255,-76.6168,-33.8857,-465.472,-140.851,-64.3183,-607.386,-155.485,-139.966,-426.284,-206.274,-397.784,-434.116,-144.695,-422.48,-605.213,-7.98383,88.3116,-500.628,-78.2765,213.026,-558.688,134.874,75.0364,-664.558,190.08
14,3.69068e-07,2.68583e-07,-5.88336e-08,138.29,-2.7415,-30.863,192.194,415.936,129.23,208.731,829.31,4.80768,-137.263,3.47876,31.056,-95.2819,439.696,138.769,-90.7481,874.195,109.087,-22.9981,-239.573,-75.4204,-44.4154,-480.371,-126.726,-4.82556,-687.041,-135.732,-207.511,-474.845,-118.393,-443.089,-477.498,20.4817,-580.388,-668.958,90.026,104.565,-472.153,-179.791,339.107,-548.969,-51.6711,372.974,-755.181,16.3244
15,2.3463e-08,1.48148e-08,-1.23575e-07,93.4812,8.9568,-117.962,94.2925,447.197,42.4484,23.8901,878.961,117.609,-93.3698,-8.9361,117.543,0.997681,405.765,322.813,-185.657,789.563,231.376,-52.7222,-239.44,-99.9618,-46.9921,-489.994,-150.12,29.3313,-662.663,-170.455,-145.091,-480.861,-9.8277,-89.1648,-408.063,214.089,84.5276,-551.665,145.328,39.4396,-427.862,-273.09,302.887,-359.3,-266.799,230.391,-521.115,-105.299
16,2.19359e-07,1.51075e-07,-1.36341e-07,121.407,3.83299,-72.9432,249.387,404.275,108.76,219,839.35,34.0247,-120.544,-3.27971,72.9808,-39.6317,445.45,177.488,-62.5508,886.023,149.453,-19.5,-240.328,-69.9748,-40.5071,-486.453,-108.768,-34.7289,-679.009,-101.606,-197.719,-489.72,-60.8831,-366.878,-538.019,167.145,-227.888,-696.51,204.86,93.7908,-477.51,-194.886,378.914,-496.642,-154.029,407.897,-705.849,-57.4238
17,-2.02921e-07,1.20197e-08,-4.11817e-07,122.896,19.9424,-73.2722,192.859,409.313,153.163,186.39,862.951,225.473,-123.643,-20.3635,71.9755,-132.317,411.977,251.44,-241.064,851.366,198.908,95.6601,-207.143,47.714,201.745,-338.251,225.973,310.971,-386.929,341.274,54.5646,-341.694,265.929,-109.871,-269.582,235.12,45.1279,-162.34,217.034,318.762,-303.214,125.349,495.153,-105.819,83.5234,428.013,-206.124,320.172
18,2.59197e-08,1.27495e-07,-6.14452e-08,-4.26962,5.43735,-142.367,78.9475,460.419,-95.8492,-115.284,857.875,-64.3712,4.1329,-5.14484,142.201,71.9537,457.346,220.148,20.4882,899.165,277.297,-5.7571,-267.13,-30.8548,50.8273,-514.042,-36.8427,124.81,-679.109,-111.695,46.5149,-491.088,127.046,157.887,-408.469,285.835,288.022,-484.77,195.527,8.14435,-479.482,-195.634,97.839,-454.624,-423.414,265.986,-599.255,-400.29
19,-3.34915e-08,-4.60127e-08,3.98535e-08,-122.226,3.80212,-55.0668,-77.1485,460.654,28.006,-56.7628,882.941,231.784,121.223,-4.86397,54.1773,226.064,449.55,94.619,48.5184,722.246,424.827,-17.3202,-254.091,-42.1471,-6.00708,-493.712,-116.956,-27.6365,-656.132,-196.741,134.901,-467.038,-51.5533,325.393,-270.764,26.1934,391.475,-216.472,-214.431,-158.478,-455.329,-131.404,-400.599,-297.508,-144.95,-334.651,-329.657,-375.787
20,-9.10324e-08,-1.89654e-07,-1.37785e-07,127.158,-4.67702,-53.1055,132.598,445.362,37.6712,102.805,889.45,58.6835,-128.025,3.35397,51.8742,-119.022,443.405,178.255,-148.515,896.324,183.108,-4.75594,-251.138,-46.9303,-9.37192,-499.417,-82.3138,10.8653,-698.885,-73.7758,-176.341,-490.325,-42.3923,-433.385,-452.126,56.34,-578.192,-479.509,244.497,137.136,-463.524,-168.124,375.896,-370.461,-263.607,608.066,-363.198,-284.06
21,-8.05946e-08,-1.74069e-07,-1.09533e-07,131.012,-5.52559,-54.6169,141.789,430.252,67.2823,101.825,872.769,83.4725,-131.403,4.73401,54.0811,-126.619,402.178,275.499,-189.858,836.858,363.142,-13.5493,-245.537,-55.0755,16.3639,-491.465,-53.5155,56.9221,-684.135,-62.0726,-135.37,-459.2,3.62817,-253.158,-230.244,110.39,-28.7205,-184.388,199.831,148.485,-415.092,-105.576,291.529,-174.599,-21.9238,254.563,-191.147,203.366
22,-1.74062e-07,-4.95079e-08,-3.05746e-07,58.0699,21.3707,-110.894,220.957,401.642,46.0202,283.608,840.104,186.785,-59.1211,-22.1025,109.586,-10.9848,372.659,282.671,-3.03204,816.053,332.942,163.096,-156.137,30.3068,375.855,-213.3,100.719,522.955,-287.887,127.525,280.08,-252.94,214.47,141.486,-94.3697,349.248,186.576,122.973,385.592,396.357,-126.837,-27.5251,441.477,148.412,-67.0834,507.073,369.127,-44.5507
23,-2.27151e-07,-4.09259e-07,-1.46348e-07,108.06,10.0671,-75.9066,323.172,271.898,153.804,142.555,593.827,30.5367,-109.502,-12.1883,74.3514,49.3754,202.087,388.012,-19.738,595.604,231.411,112.087,-162.624,111.368,234.334,-322.454,239.579,324.197,-421.833,311.004,96.5891,-335.736,278.816,-149.982,-300.22,346.308,-168.019,-203.971,412.456,333.735,-268.244,133.24,498.293,-117.32,58.1826,666.749,-77.3364,123.031
24,-2.00893e-07,-1.47907e-07,-1.85013e-07,129.549,2.99319,-64.7346,186.051,440.716,39.3051,196.78,881.35,74.3425,-129.983,-3.45853,64.3359,-89.7273,436.676,163.128,-103.145,878.168,178.59,5.16116,-247.19,-58.915,32.4421,-494.556,-39.2562,76.9622,-685.742,-22.6465,-115.862,-465.97,27.9598,-231.679,-220.57,121.107,-49.303,-149.923,256.928,156.491,-418.156,-114.448,270.48,-156.39,-124.873,282.025,-49.1105,86.8241
25,-1.90711e-07,-1.2555e-07,-1.22399e-07,96.8883,5.24806,-96.7616,202.096,421.368,18.493,218.605,865.973,15.8665,-97.2642,-5.59201,96.5244,-28.9446,433.788,169.925,-53.9805,878.751,146.599,-39.2859,-218.803,-78.0846,0.654602,-463.639,-138.271,68.092,-625.76,-162.117,-110.737,-461.923,-32.9703,-114.31,-446.132,210.867,53.5128,-570.531,184.581,76.9048,-366.208,-212.927,140.841,-96.0739,-239.14,271.51,111.354,-99.5176
26,-1.91539e-07,-2.20715e-07,-1.78816e-07,121.922,3.97073,-62.9111,200.402,389.513,154.208,165.831,839.801,158.183,-123.292,-5.68698,61.3828,-46.0446,381.968,265.328,-65.4375,826.294,304.803,43.1677,-225.601,22.0928,96.8541,-451.939,104.635,181.597,-566.634,153.841,-29.5592,-438.243,156.245,-23.5515,-329.922,320.627,156.669,-394.656,346.401,222.496,-418.594,33.847,425.105,-328.761,143.031,547.817,-481.588,317.475
27,-9.4423e-08,-1.7732e-07,-3.79577e-07,134.282,-4.18538,-37.8011,174.256,411.214,105.033,192.764,852.222,164.114,-134.843,3.20978,36.2645,-129.174,434.575,126.672,-147.861,879.609,93.991,25.2855,-236.298,19.9957,64.7856,-478.71,83.9113,142.438,-605.45,121.648,-78.7613,-460.617,133.956,-163.281,-406.388,393.705,49.689,-516.922,426.958,205.768,-439.274,33.4498,417.345,-350.949,191.515,280.989,-464.152,299.797
28,-1.67845e-07,-2.69067e-07,-4.37246e-07,136.801,11.2534,-26.6656,118.874,430.782,136.274,84.5527,884.001,161.003,-137.825,-12.822,24.5781,-188.508,422.316,132.887,-236.265,865.659,52.3357,59.064,-229.729,49.8653,110.648,-455.889,171.33,179.16,-577.857,226.419,-42.3005,-442.068,186.073,-198.074,-347.799,331.51,-9.10553,-433.698,397.953,252.18,-407.328,131.964,408.902,-273.028,278.596,283.593,-413.853,381.648
29,-2.35231e-08,-1.90773e-07,-1.20288e-07,127.996,-4.36391,-55.4168,215.607,403.843,120.521,255.912,847.857,173.663,-128.068,3.67809,55.0126,-70.649,448.072,107.517,-70.1314,893.138,60.2208,-32.6241,-220.971,-96.5886,-43.153,-470.924,-120.709,-32.3472,-657.647,-121.295,-175.849,-419.806,-51.2273,-211.201,-200.307,123.335,-60.3976,-275.017,262.853,94.6782,-409.351,-161.126,279.782,-215.511,-48.9837,300.668,-315.218,160.986
30,-2.48181e-07,-1.61901e-07,-9.23905e-08,113.55,8.53381,-85.6916,99.3271,451.197,26.5729,25.9261,891.956,75.2836,-114.39,-9.2667,85.184,-75.4454,410.431,258.655,-132.239,855.604,306.487,1.9926,-238.04,-83.093,50.1992,-484.217,-92.5129,124.714,-675.934,-78.5226,-83.1666,-462.362,6.38116,-196.979,-230.558,128.268,12.229,-189.326,227.559,143.597,-392.661,-192.673,215.945,-125.532,-244.717,277.662,-35.8416,-29.4909
1,-3.07506e-08,-1.67353e-07,-1.2941e-07,132.656,1.98863,-43.1922,129.779,438.123,106.242,60.0938,885.54,137.151,-132.96,-2.89391,42.4541,-92.0872,412.707,239.903,-106.584,858.953,321.95,39.1316,-243.298,-16.627,75.3566,-477.323,71.7294,149.933,-637.133,99.5641,-72.6104,-445.257,84.6939,-216.994,-204.506,83.2569,-101.239,-154.925,244.131,209.381,-416.963,38.7942,323.662,-256.418,259.482,253.779,-382.933,439.103
2,-5.2575e-08,-1.11122e-07,-1.29556e-07,136.074,-0.377258,-35.0079,142.686,430.49,91.6185,77.1654,870.889,116.331,-136.929,-0.76387,33.8718,-68.1635,399.896,234.057,-68.6933,839.417,314.583,39.3837,-236.434,39.1003,82.0745,-446.373,167.947,175.517,-580.53,224.569,-66.0798,-433.54,169.957,-249.641,-242.591,201.185,-75.1041,-313.095,324.423,210.672,-389.085,120.683,327.022,-175.074,241.208,300.776,-291.004,461.23
3,5.46135e-08,-1.17461e-07,-9.61164e-08,136.33,-0.671829,-38.0633,126.634,439.956,82.1024,54.4849,879.413,109.105,-136.821,-0.343582,37.0712,-99.6216,419.641,223.23,-107.604,860.437,303.286,23.77,-244.627,-20.8762,48.2888,-484.058,52.0469,134.046,-636.294,102.614,-95.2093,-451.965,70.604,-250.495,-209.446,74.9733,-89.3203,-217.492,218.54,178.598,-427.65,5.02338,337.895,-252.719,163.475,286.107,-459.013,267.258
4,-1.38185e-07,-1.90113e-07,-2.122e-07,135.061,-1.67281,-44.5158,139.663,439.192,81.4155,100.086,882.847,99.4117,-135.806,0.660172,43.5216,-151.891,414.185,243.558,-278.617,832.242,160.766,2.22862,-246.41,-65.8858,52.0165,-487.818,-43.8402,121.55,-673.653,-27.0072,-109.363,-461.491,-7.9165,-283.261,-233.142,40.7489,-90.441,-218.475,195.105,177.434,-399.607,-96.3674,304.063,-137.761,-88.8406,254.177,-130.782,146.774
5,-6.97027e-08,-1.95276e-07,-1.62469e-07,124.43,4.89902,-73.9528,139.548,439.429,41.5815,84.6392,875.851,51.3297,-124.805,-5.71307,73.1591,-101.853,423.951,206.711,-132.311,865.584,218.539,-9.77193,-238.95,-73.0943,0.744232,-490.884,-76.7317,32.2708,-680.674,-86.1166,-142.785,-451.818,-3.41437,-270.604,-213.086,68.2293,-94.7659,-201.987,226.168,125.302,-422.931,-154.817,310.976,-208.417,-94.012,242.716,-353.397,78.16
6,3.29715e-08,-4.49325e-08,-3.91208e-08,75.9948,20.8262,-119.832,139.349,451.723,0.260498,-89.3398,813.356,45.3167,-76.7101,-21.5285,119.044,-12.1741,397.774,250.068,-70.9884,828.187,265.184,-17.0688,-236.101,-57.071,-56.119,-486.346,-78.4928,-52.5311,-672.019,-120.671,-150.808,-458.538,37.0204,-230.469,-219.987,217.4,-84.1603,-229.082,348.171,19.0753,-460.567,-217.977,237.645,-526.49,-289.72,342.157,-760.267,-286.122
7,-1.43068e-07,-2.59001e-07,-4.2459e-08,132.862,-11.0474,-25.1436,92.5558,431.042,58.9731,39.5474,879.313,81.4188,-134.043,9.43488,23.9655,-96.8004,394.155,259.941,-40.2177,818.087,423.948,-4.77531,-227.697,-77.3295,-16.0789,-481.177,-61.9315,-15.1808,-667.106,-51.4969,-155.438,-414.914,-52.6323,-254.307,-172.163,11.5787,-69.9469,-169.125,156.907,129.261,-423.505,-73.9231,289.895,-217.58,44.093,127.585,-281.895,190.732
8,-2.41173e-08,1.23339e-07,7.57054e-08,101.737,-31.2209,80.5345,72.8345,406.893,165.072,129.778,855.662,185.503,-102.382,30.9628,-81.0648,-131.585,469.458,1.04944,-39.71,902.395,-88.9835,15.8678,-226.768,-76.5923,-17.7252,-463.214,-145.541,-19.6605,-641.946,-148.715,-101.157,-372.392,-227.192,-150.666,-120.434,-223.11,-146.659,-196.073,-32.4122,81.2017,-479.747,-40.1924,9.57556,-536.772,209.581,-175.86,-665.235,196.402
9,-1.1716e-07,-1.06566e-07,-1.12414e-07,137.776,-15.5964,-13.8854,202.793,395.889,172.4,226.463,800.409,3.48682,-137.795,15.4658,13.9226,-91.4056,449.549,149.151,-28.5046,891.56,216.438,-31.6192,-237.082,-13.9581,-82.0966,-474.528,74.3199,-23.5515,-592.555,186.597,-223.049,-406.725,66.8088,-286.859,-124.496,89.2883,-142.433,-145.157,305.799,75.69,-446.083,49.3256,236.906,-204.678,33.9688,63.3461,-234.378,233.009
10,-3.17149e-08,-7.20928e-08,-1.87437e-07,65.9992,5.82608,-128.284,122.691,423.955,15.069,61.1525,861.65,65.8625,-66.0785,-5.95911,127.763,18.7872,423.131,211.497,-91.1306,840.677,177.812,-53.5345,-229.219,-48.1359,-48.3326,-482.001,-52.8615,14.1062,-653.465,-72.5368,-110.109,-425.506,75.772,-122.28,-180.688,193.312,12.415,-142.144,274.247,9.4505,-434.724,-187.391,255.485,-300.82,-219.395,179.894,-500.373,-45.6788
11,5.62423e-08,1.7325e-07,1.06254e-07,-117.735,9.27899,-75.3599,-47.3122,467.797,47.6918,-54.8438,889.167,236.175,117.376,-9.20274,75.3887,205.835,444.476,178.739,29.1653,744.364,476.641,-21.4775,-259.616,-26.8344,-7.3912,-508.86,-65.4022,-23.2911,-673.553,-135.151,123.808,-466.009,27.0087,217.034,-207.864,148.021,162.833,-106.867,-80.6395,-159.099,-470.759,-131.827,-299.624,-350.936,-396.584,-130.073,-487.553,-455.415
12,-4.76526e-08,6.14409e-09,5.24662e-08,-139.781,-9.70178,-26.7677,-148.773,457.335,-63.3225,-178.75,856.39,128.449,138.824,8.88213,26.0271,100.802,466.338,118.621,30.3214,863.806,322.579,15.3203,-263.763,-32.1786,41.0168,-500.191,-119.327,28.3091,-662.576,-228.299,200.709,-451.992,-76.1543,362.628,-207.682,-110.105,200.326,-265.111,-324.741,-130.383,-474.277,-119.183,-371.145,-342.981,-235.031,-299.523,-436.297,-430.973
13,2.38981e-08,4.1816e-08,6.27329e-08,-115.48,-14.452,70.8335,-39.9299,415.185,212.544,45.2432,746.497,521.448,115.19,14.1765,-70.8054,88.1939,469.992,-93.524,160.418,906.574,-27.8572,25.9088,-247.603,7.7438,18.6958,-502.081,-33.1978,-25.5257,-675.404,-76.0215,160.012,-466.376,-101.524,281.785,-408.358,-333.97,162.646,-581.058,-437.337,-108.243,-453.182,45.9714,-339.862,-310.958,-3.39453,-189.432,-442.035,-119.347
14,1.0809e-07,2.78753e-07,-1.67561e-08,-26.3415,-39.2927,122.825,-59.3059,414.714,166.768,17.8926,839.128,222.842,26.4326,39.7292,-123.094,15.8851,488.073,-84.1932,308.677,794.437,65.8387,29.2129,-237.346,-57.0229,30.8253,-486.345,-106.372,-1.40631,-667.907,-119.853,43.1907,-433.855,-248.881,-119.245,-363.375,-460.425,-263.65,-490.067,-493.955,51.7895,-489.092,39.8342,-17.6714,-442.145,262.072,-205.606,-533.56,277.432
15,-1.73793e-07,2.40979e-07,1.11704e-07,-41.2176,-26.2041,115.86,-128.204,392.298,198.859,-16.2122,774.134,368.115,40.6038,26.3992,-115.915,5.54535,450.074,-21.6883,95.2316,843.076,111.144,23.5877,-226.618,-16.0987,28.1033,-481.97,-38.4226,-19.2728,-657.54,-52.4155,97.5533,-452.705,-159.219,95.6797,-522.334,-367.926,-20.2686,-696.688,-443.481,-26.3327,-460.527,63.1133,-191.136,-558.795,-10.637,-186.938,-757.877,-108.485
16,6.16331e-08,2.19324e-07,1.45893e-07,-90.1803,15.2039,-94.2677,-98.0213,472.75,-44.6541,-185.864,869.109,139.759,89.4238,-15.3158,93.6995,130.281,436.962,165.406,48.8144,857.304,311.418,-43.6765,-234.876,-15.776,-50.4315,-492.937,-28.2258,-44.0341,-648.658,-80.4606,27.3642,-465.747,67.55,176.37,-571.882,29.5068,209.795,-805.431,-109.8,-159.306,-440.16,-102.697,-187.455,-534.002,-356.465,-84.5531,-739.224,-463.138
17,-1.65637e-07,-7.11564e-08,-8.35952e-08,77.8728,25.3889,-119.481,134.775,429.334,29.1237,-63.2146,811.406,27.4329,-78.9186,-26.2973,118.655,61.0312,352.969,294.309,-75.1591,745.869,272.905,65.3526,-220.173,-15.3746,145.633,-460.025,10.5268,218.322,-561.648,15.4559,75.4462,-435.784,119.265,129.714,-312.186,289.474,337.81,-293.722,275.288,207.427,-423.63,-112.79,421.179,-402.327,-211.576,530.664,-560.856,-182.449
18,2.43613e-08,-1.79614e-07,-1.79692e-07,132.119,-4.99089,-47.6762,162.05,434.972,64.8483,157.981,875.753,57.4538,-132.555,3.87596,46.4996,-151.841,427.86,212.793,-269.529,857.177,163.783,-10.1336,-233.952,-90.6574,-29.7697,-479.566,-131.576,-20.0361,-664.847,-115.948,-182.899,-453.451,-71.5135,-324.966,-416.999,164.276,-208.451,-593.496,277.364,115.996,-448.741,-186.624,381.677,-402.406,-99.8125,357.578,-564.969,75.4995
19,-3.72646e-08,8.95973e-08,-4.0427e-08,-124.808,-3.57771,-52.0578,-158.277,441.826,69.7902,-220.346,844.015,277.611,124.321,3.33777,51.7619,81.8524,447.79,187.062,-14.0707,849.713,371.137,6.95741,-246.112,-49.6028,21.4791,-486.395,-133.051,16.0092,-660.52,-189.558,171.536,-494.924,-55.5071,422.28,-467.347,59.8079,659.492,-464.929,0.311584,-141.25,-467.594,-140.258,-404.604,-376.151,-108.007,-621.754,-324.841,-184.341
20,-2.93096e-08,7.49204e-08,5.7822e-08,-140.827,-24.8236,14.5547,-198.504,418.072,4.61786,-257.575,818.729,182.046,140.529,24.6345,-14.8156,64.1667,456.257,16.06,30.0734,821.653,269.952,-33.5843,-230.451,-123.646,-162.454,-384.355,-273.484,-242.863,-489.128,-411.613,-1.59381,-391.654,-315.468,217.457,-234.13,-334.394,16.8866,-173.533,-410.024,-265.604,-317.401,-167.15,-380.115,-78.357,-61.4816,-403.095,106.425,-212.055
21,-2.90576e-07,9.46848e-08,-2.18082e-07,-133.086,-1.98151,-42.8105,-64.7195,420.687,-248.293,-99.4774,721.43,102.393,130.843,1.00906,40.9789,222.024,413.295,-142.36,97.2562,726.239,113.106,35.8614,-99.0661,-231.947,74.1835,-131.425,-472.915,85.8433,-175.373,-641.764,205.337,-140.889,-403.694,435.685,-53.4295,-201.764,593.654,67.02,-73.1761,-73.4031,-119.577,-458.397,-327.614,-11.4291,-362.505,-438.798,133.258,-363.605
22,-5.56448e-08,6.74195e-08,-9.51003e-08,-127.96,-3.6552,-54.9203,-94.3668,445.961,-66.8596,-156.655,836.025,131.351,128.071,4.13617,54.9731,163.547,453.813,23.1472,70.2393,833.575,236.589,42.8031,-175.272,-171.389,95.76,-276.76,-399.188,109.975,-345.604,-573.121,216.445,-269.354,-314.014,340.081,-163.408,-74.4642,330.59,69.2686,-101.007,-53.558,-248.688,-381.575,-300.187,-133.618,-239.009,-272.681,84.7997,-231.164
23,-8.88331e-08,-1.19686e-09,-7.69298e-08,-119.188,-6.89145,-61.3007,-168.749,448.091,44.5959,-260.521,838.837,264.168,117.842,5.86401,59.9366,81.2646,460.868,173.554,-11.5182,843.499,396.529,-11.1342,-249.958,-25.0885,37.2292,-498.368,-57.9508,42.4584,-681.632,-147.377,158.988,-442.063,29.0939,239.745,-183.169,62.923,152.789,-207.838,-159.868,-114.385,-480.636,-128.901,-141.459,-499.993,-405.227,27.2868,-633.489,-532.74
24,-3.83758e-07,-1.86288e-07,-2.276e-07,-118.457,-6.22147,-73.5318,-108.869,459.493,-71.2208,-168.492,903.959,14.8113,116.972,4.99229,72.136,73.5667,450.299,190.444,-52.782,860.33,369.227,32.8775,-253.731,-69.8714,100.342,-477.35,-177.609,142.094,-591.833,-318,228.566,-474.919,-71.2738,449.322,-344.218,-17.6026,644.137,-349.345,-184.651,-45.9663,-458.502,-246.568,-84.8,-305.628,-499.223,124.252,-308.514,-559.34
25,-7.89269e-08,8.58566e-08,3.86356e-08,-125.023,-1.33778,-61.0428,-109.015,451.558,34.8123,-147.138,871.671,204.386,124.917,1.53935,61.1964,114.431,448.932,180.216,59.8143,850.341,389.316,19.6501,-250.218,-59.9491,74.0707,-472.722,-171.744,74.0602,-611.536,-287.207,218.468,-456.844,-92.5325,454.377,-297.075,-103.297,465.387,-298.761,-371.635,-85.5013,-459.046,-209.571,-252.362,-286.24,-370.319,-15.0651,-292.174,-495.677
26,-8.55169e-08,1.09827e-07,-1.24466e-07,-114.3,4.59767,-69.216,-111.26,451.12,20.0829,-143.509,877.099,167.263,113.89,-4.67931,68.6484,116.178,447.363,140.779,76.0169,862.5,304.87,59.2103,-192.205,-141.987,164.341,-326.257,-334.474,219.401,-368.745,-470.16,283.954,-326.669,-241.026,479.93,-173.292,-278.243,456.472,-176.445,-505.343,25.2524,-292.48,-395.715,27.8177,-72.7036,-601.647,247.582,-131.124,-615.612
27,1.32928e-07,2.08142e-07,4.91518e-08,-112.829,3.1519,-80.9717,-114.308,454.362,1.05634,-151.913,870.057,148.975,113.467,-2.45412,81.5297,102.654,442.722,201.911,3.2334,836.19,392.496,22.4281,-222.002,-110.903,86.9829,-384.344,-291.917,106.782,-465.253,-438.844,203.735,-388.962,-188.804,317.077,-253.876,70.5014,274.173,-23.3022,-49.2057,-65.2341,-334.939,-319.988,-256.895,-118.044,-320.062,-24.1451,-3.41779,-382.295
28,8.32022e-08,-7.71573e-08,-5.58861e-08,-112.983,-8.23115,-75.024,-171.509,452.077,-0.849976,-288.521,879.255,139.255,112.958,7.62181,74.6787,25.2084,447.43,224.946,-108.266,847.194,407.064,11.0316,-257.916,-22.8401,63.5305,-499.502,-72.6122,37.4838,-672.242,-138.88,173.592,-450.817,33.6243,236.199,-224.294,175.627,183.003,-96.3792,-46.731,-66.312,-466.465,-159.396,-67.5364,-241.861,-339.39,123.689,-187.314,-429.094
29,-3.87379e-08,-1.17131e-07,-1.70482e-08,-123.795,-7.77299,-66.4431,-153.259,454.114,-23.6592,-256.882,870.36,122.534,123.708,7.29179,66.3492,44.8121,452.994,173.419,-99.623,850.319,359.548,23.2596,-261.79,-17.7961,38.7044,-504.728,-80.984,27.0387,-664.217,-179.622,170.646,-494.903,9.5661,437.941,-409.958,-38.8173,413.278,-554.001,-227.938,-91.8205,-450.132,-151.993,-95.5334,-192.759,-290.039,121.33,-162.566,-361.441
30,-7.09854e-08,-8.64184e-08,-1.08585e-07,-101.65,1.4162,-85.7228,-131.077,457.457,-31.2374,-221.297,886.237,95.9495,101.345,-1.91142,85.2187,51.5293,445.545,191.139,-54.5599,853.756,372.855,24.7401,-249.627,-55.9162,103.094,-474.034,-146.653,179.522,-616.942,-217.552,191.683,-468.689,-5.23572,322.362,-260.154,114.954,419.611,-340.964,-124.541,-18.4511,-435.401,-257.202,-60.5302,-191.163,-379.74,155.125,-188.262,-415.008
1,-4.74554e-08,-6.61114e-08,-5.69229e-08,-114.593,0.495651,-75.352,-120.474,459.356,24.8925,-196.103,866.098,220.518,114.542,-0.796906,75.2054,80.2244,444.8,211.199,-30.1674,828.987,448.272,10.8807,-263.268,-15.7335,29.3792,-501.445,-100.854,32.8306,-630.569,-239.689,166.887,-498.208,-10.4669,416.659,-390.622,-72.6371,386.074,-502.127,-278.925,-104.793,-444.875,-164.489,-133.086,-174.28,-270.571,111.643,-114.444,-335.424
2,1.30329e-07,5.63472e-08,3.45397e-08,-100.883,6.11494,-96.8957,-91.6546,468.195,36.9625,-147.342,891.177,216.74,101.258,-6.10994,97.1564,106.081,441.688,277.822,-6.86084,818,516.475,15.6269,-254.747,-38.94,82.2523,-469.181,-154.674,104.283,-611.9,-255.106,176.673,-452.793,-37.926,224.908,-263.193,184.219,228.221,-99.1306,14.1909,-56.8263,-413.484,-213.217,-219.402,-164.225,-188.999,-66.9092,26.0647,-235.037
3,4.24954e-08,3.56979e-07,-1.1252e-07,-69.734,-0.257324,-118.368,0.456299,454.693,-25.2943,-12.636,908.253,142.703,70.0506,1.34013,118.66,82.5569,455.942,268.119,-259.749,684.03,514.142,-6.02655,-263.018,-24.7001,37.509,-508.06,-50.9597,115.696,-664.705,-152.71,106.531,-490.568,82.859,144.909,-274.494,284.617,177.928,-79.725,189.426,-79.6085,-497.165,-164.439,-179.921,-388.567,-440.237,9.59503,-424.517,-545.969
4,1.76848e-07,9.20477e-08,4.37837e-09,-128.582,-34.5654,16.0385,-220.354,422.682,23.1766,-247.791,807.094,251.628,128.765,34.4143,-16.2572,53.2417,473.748,104.575,-41.4755,863.385,308.252,61.0804,-246.241,-40.7357,96.1425,-479.268,-128.737,86.948,-625.259,-225.608,241.737,-420.159,-145.841,275.223,-143.169,-241.027,122.52,-326.011,-261.001,-53.6958,-491.116,-82.5174,-250.156,-338.625,39.194,-144.786,-186.859,-107.605
5,-1.37733e-09,1.49268e-07,-5.65269e-08,-78.2544,-38.8553,93.6469,-50.4871,404.539,166.21,25.8442,818.017,308.374,77.7501,38.4357,-94.4979,-41.0481,473.923,-93.7612,-104.618,911.541,-49.2932,41.4513,-243.43,-21.8859,70.9609,-484.588,-89.5723,16.7195,-645.375,-157.139,165.21,-418.326,-184.829,146.129,-362.495,-444.264,25.6168,-471.142,-591.602,-5.85956,-505.753,20.95,-203.277,-610.208,15.5825,-181.304,-644.79,-216.07
6,3.00982e-07,5.44791e-07,9.16367e-08,67.6023,-32.8961,104.82,-67.9716,358.42,269.176,-83.1261,774.377,365.495,-66.6882,34.276,-104.326,-51.7742,466.199,-24.8038,112.021,885.102,-9.91742,24.5481,-225.943,-80.4348,21.9336,-468.492,-143.403,19.1121,-640.61,-191.972,-44.5594,-444.917,-269.981,-234.859,-439.157,-395.199,-414.958,-635.4,-468.011,94.1713,-484.965,-27.8179,95.6663,-495.201,226.769,55.9684,-763.337,264.142
7,2.64966e-07,2.0235e-08,-6.58185e-08,132.509,1.50136,-15.194,117.099,432.943,92.9207,139.069,837.007,-84.7283,-132.241,-1.94856,14.4439,-146.905,407.445,175.479,-158.598,849.742,213.994,12.9915,-224.234,-102.159,15.5707,-468.559,-174.436,55.5601,-632.003,-147.932,-142.618,-434.365,-164.429,-405.013,-372.972,-99.6451,-442.678,-523.024,106.509,159.699,-425.738,-188.861,371.947,-402.491,-27.3317,222.02,-541.409,34.3685
8,-2.15276e-08,2.53773e-08,-9.66862e-08,116.861,25.7222,-72.1323,55.5991,444.862,104.174,-75.8369,878.324,166.668,-116.64,-25.5782,72.0943,-93.6541,351.457,339.953,-208.911,774.249,376.863,5.18626,-213.643,-107.528,24.0458,-463.134,-165.536,92.4504,-613.729,-184.613,-108.805,-468.909,-95.8209,-183.844,-495.645,175.277,-25.4875,-622.923,221.173,141.487,-409.752,-238.194,388.985,-421.781,-171.939,374.125,-612.198,-84.8662
9,-9.30074e-08,2.1256e-07,-1.41909e-07,33.5267,21.6151,-133.905,120.084,451.031,-5.99072,75.3213,899.659,60.5641,-34.0888,-21.2946,133.368,-66.2327,422.295,239.973,-240.138,837.031,288.813,-17.0513,-248.506,-43.3979,-1.45908,-499.823,-49.3704,81.6358,-665.008,-75.4446,-33.6165,-490.434,96.0629,66.0787,-447.729,260.369,211.085,-557.851,223.266,-23.1747,-471.438,-214.284,62.6554,-467.895,-480.09,158.034,-497.052,-532.204
10,-1.97769e-07,1.44859e-08,-8.1449e-08,-102.018,8.15178,-90.1547,-101.532,468.241,-40.7451,-326.483,781.009,201.973,100.644,-9.06493,88.9875,69.8251,445.258,149.262,-31.0059,871.863,266.737,3.26817,-245.042,-36.1927,36.1616,-493.988,-84.093,33.2505,-643.816,-205.214,127.078,-474.385,28.827,348.855,-436.201,144.703,517.422,-536.335,59.6003,-79.9043,-461.904,-153.385,-188.221,-487.656,-414.006,-83.4543,-590.271,-576.765
11,2.64938e-08,2.31307e-07,1.30336e-07,-138.459,-20.9225,5.79724,-112.568,420.499,119.321,-74.4333,818.229,313.666,137.997,21.0883,-5.80844,199.003,474.043,-13.3703,106.354,735.874,341.236,15.746,-263.87,-26.9359,34.8948,-496.767,-114.242,12.3598,-671.291,-185.801,208.601,-444.41,-107.882,322.333,-184.936,-118.908,120.181,-197.631,-284.161,-139.398,-491.162,-77.0987,-376.443,-426.691,-221.776,-155.075,-424.931,-337.073
12,-5.64026e-08,3.21275e-07,-4.55361e-08,-139.55,-12.9814,-35.3794,-164.089,445.006,-34.1325,-282.472,790.252,231.865,138.809,13.2005,34.6574,79.2773,458.182,108.362,-8.11426,819.02,330.977,27.8057,-248.946,-65.1857,66.1949,-478.471,-153.607,134.679,-627.596,-275.671,218.284,-491.721,-74.5474,465.218,-414.418,-111.814,514.114,-533.287,-308.448,-103.242,-488.693,-177.801,-347.706,-453.701,-323.078,-252.794,-597.22,-498.562
13,1.89161e-07,3.23251e-07,-1.4094e-07,-125.298,6.91982,-54.4072,-75.1243,459.78,-89.2072,-163.258,870.827,64.1799,126.251,-5.8719,54.847,195.365,438.63,36.8677,125.965,814.753,279.456,19.9313,-115.977,-235.468,95.3743,-93.413,-471.895,177.604,-78.7857,-653.635,193.276,-70.3568,-388.286,215.536,18.956,-45.9374,127.82,228.742,-86.049,-56.1284,-89.218,-454.65,-231.874,50.1621,-271.72,-74.9302,174.273,-345.972
14,3.84283e-08,3.04028e-07,4.12249e-08,-83.2513,-40.7201,97.4733,-173.123,388.921,183.004,-47.6489,733.552,424.529,83.1611,41.1235,-97.5842,-12.5465,470.779,10.3889,-12.8713,876.693,183.829,18.0514,-244.885,-56.1225,11.1076,-474.876,-156.803,-80.5103,-618.108,-245.193,125.316,-425.814,-252.297,256.955,-255.263,-443.828,97.6267,-397.148,-575.425,-64.3098,-505.519,-18.6856,-232.85,-530.294,167.65,-370.623,-679.757,162.204
15,5.49388e-08,1.91329e-07,-5.90636e-08,70.0037,-35.3451,110.424,-27.5606,399.139,197.607,18.2713,840.435,221.939,-69.6441,36.1043,-110.26,-197.058,449.524,2.04926,59.0178,787.128,-121.651,19.4123,-229.076,-71.7616,-5.09772,-474.652,-128.969,19.2881,-648.712,-123.15,-64.4086,-402.306,-236.808,-181.667,-169.173,-333.462,-378.042,-193.812,-311.635,77.6693,-466.35,-12.4395,175.559,-366.385,195.953,49.9479,-427.368,339.368
16,-8.17819e-08,7.82885e-08,-4.23246e-08,-124.72,-6.64662,-52.9188,-161.881,436.042,81.7737,-217.747,839.641,280.495,124.066,6.32237,52.5838,90.6638,448.182,194.447,24.4719,858.539,368.667,15.3654,-250.156,-49.3062,38.295,-490.266,-128.285,30.3093,-671.829,-192.743,189.708,-490.956,-46.5365,436.726,-431.055,62.4241,663.854,-423.658,17.6519,-128.635,-472.07,-148.791,-404.764,-404.54,-156.09,-613.953,-364.8,-252.919
17,4.58726e-08,-6.30259e-08,1.46833e-08,-136.166,-7.17687,-55.979,-160.747,431.237,74.8997,-206.903,826.154,266.346,135.832,6.46632,55.515,177.718,455.774,124.158,188.48,848.763,314.795,17.7995,-260.215,-43.2883,34.2972,-485.549,-157.509,29.9099,-660.089,-261.515,181.318,-454.66,-85.9951,279.127,-211.674,28.7725,168.827,-98.9196,-146.69,-120.651,-421.401,-167.019,-232.414,-161.355,-146.736,-39.2382,-65.7594,-238.122
18,-2.32375e-08,1.82607e-07,5.72484e-08,-122.163,-2.93239,60.7972,-235.688,450.915,-41.3817,-321.303,855.201,105.139,122.234,3.30902,-60.1764,41.9673,463.971,-121.348,-18.674,861.758,86.835,-125.386,-132.539,-171.983,-250.551,-130.8,-400.931,-329.572,-201.126,-507.356,-113.964,-151.644,-420.625,121.758,-93.4515,-340.246,38.2819,63.1758,-339.731,-355.609,-100.448,-290.894,-530.562,112.226,-126.856,-629.69,259.211,-218.77
19,-6.76835e-08,2.72012e-07,-2.24564e-08,-121.268,-7.36311,-28.3331,-109.772,343.207,-250.75,-98.8738,535.419,38.4802,119.538,6.86577,26.9072,198.844,323.345,-207.916,43.3822,511.422,103.542,31.6419,-112.352,-206.183,42.782,-207.702,-441.859,49.165,-298.168,-584.172,168.381,-203.08,-382.331,371.096,-125.219,-249.02,538.385,-63.7875,-215.25,-92.7032,-166.716,-411.972,-331.051,-47.6472,-345.275,-489.35,74.6655,-331.555
20,6.58005e-08,-1.79047e-07,5.48501e-08,-127.455,-15.6626,-41.7487,-185.563,447.216,24.5015,-260.197,869.704,199.582,127.382,14.8535,41.7006,88.5897,470.912,147.844,0.641235,864.799,366.462,19.8722,-251.984,-45.5948,42.0896,-472.971,-165.186,49.5854,-634.993,-225.567,179.286,-428.191,-93.8803,271.999,-181.88,18.6481,180.135,-6.26892,-151.355,-106.762,-411.172,-177.614,-251.57,-151.583,-120.863,-137.468,46.0101,-214.803
21,-9.43473e-08,-2.35541e-07,-4.41751e-08,-136.169,-21.1954,-14.1261,-189.241,447.915,11.6295,-261.46,856.643,216.683,135.335,19.7957,13.2301,71.2861,478.42,135.395,-25.7281,862.603,368.727,20.8909,-254.468,-6.80327,-19.7303,-494.051,-84.6324,-56.6498,-623.005,-193.065,138.935,-489.022,-65.5041,385.573,-499.774,-180.481,254.016,-553.915,-303.476,-152.268,-425.549,-55.6067,-279.391,-169.121,34.2272,-332.089,76.3145,-36.4952
22,-8.1762e-08,1.75928e-07,1.41507e-10,-143.236,-11.0682,-33.9763,-145.582,451.449,7.79755,-187.812,851.661,188.812,142.853,11.4282,33.821,144.987,464.179,72.3827,76.6403,866.996,269.567,30.5368,-240.126,-119,69.5085,-405.689,-308.346,57.5771,-459.149,-477.428,221.356,-394.373,-264.1,448.621,-290.538,-344.281,419.931,-370.119,-553.275,-94.3846,-383.702,-306.206,-260.88,-221.827,-514.728,-88.9122,-335.43,-626.212
23,-1.51649e-07,-1.48905e-09,-3.65182e-08,-117.017,-4.9628,-72.598,-119.827,457.934,-37.9088,-197.852,902.282,64.9339,115.916,4.19249,71.6827,74.2427,450.928,177.083,-45.7413,839.334,393.616,31.0168,-240.776,-77.9756,94.3916,-447.444,-205.478,98.725,-546.995,-350.411,222.654,-437.153,-114.793,437.209,-295.527,-156.231,418.858,-300.501,-403.255,-52.0525,-419.882,-268.116,-146.754,-240.586,-491.995,115.783,-244.58,-568.921
24,-1.30777e-07,-6.55027e-09,-5.09089e-08,-112.221,6.56784,-62.6116,-119.768,452.539,12.1871,-159.106,886.351,144.42,111.242,-7.34178,61.7626,95.4437,431.56,165.99,63.683,788.673,421.896,38.3233,-179.251,-160.924,117.151,-323.704,-358.694,134.629,-406.727,-478.15,242.966,-330.865,-268.854,459.966,-201.106,-257.339,377.322,-160.842,-489.039,-18.608,-276.326,-413.267,4.7561,-59.9177,-635.086,211.979,-120.727,-666.501
25,3.95033e-08,-2.117e-07,1.15483e-07,-120.614,-9.07539,-62.9865,-146.153,458.849,-32.7655,-250.308,877.977,106.15,120.495,8.17801,63.0255,48.7541,448.197,200.249,-76.6891,836.158,404.701,10.8497,-255.282,-14.6265,49.1967,-494.5,-93.8035,49.0922,-663.89,-127.005,171.731,-437.555,-12.3293,272.071,-186.164,59.4602,289.816,-101.114,-163.325,-90.9173,-432.342,-139.429,-221.927,-179.563,-213.027,-19.1873,-140.862,-334.118
26,5.41307e-08,-8.29986e-08,6.99382e-09,-134.81,-13.3188,-30.493,-134.516,425.237,120.238,-134.763,828.022,326.655,134.248,12.3833,29.7805,152.924,460.838,104.155,119.951,866.098,289.301,10.9796,-248.413,-61.4444,7.86075,-453.741,-211.296,-5.28351,-613.326,-328.81,161.9,-411.616,-176.133,275.656,-165.75,-82.2515,136.087,-18.4185,-235.916,-146.879,-400.474,-170.803,-295.796,-177.127,-53.1827,-190.073,-7.87592,-193.943
27,9.03788e-08,-4.57918e-08,-1.5464e-07,-123.769,-6.92778,-56.2193,-120.353,430.15,75.4333,-143.823,830.43,294.726,123.63,6.4155,55.5248,140.587,457.903,124.018,120.48,880.664,278.203,20.7999,-246.065,-53.1315,81.3389,-450.917,-185.995,69.7422,-583.749,-329.128,201.776,-414.342,-94.7288,249.246,-155.01,5.71301,186.511,-27.3028,-167.86,-53.9701,-394.61,-243.706,-34.7538,-116.493,-337.336,189.122,-74.5488,-375.951
28,1.53886e-07,5.74283e-08,-1.69743e-07,-120.255,-1.89609,-63.5104,-150.216,436.729,55.6223,-189.823,837.214,247.503,120.628,2.00266,63.1254,113.27,457.385,114.995,88.1767,889.401,246.59,28.968,-221.03,-118.613,96.1722,-371.115,-312.887,109.958,-418.558,-492.85,212.701,-378.932,-213.615,323.139,-178.851,-59.0404,336.697,-134.224,-266.095,-36.9431,-302.601,-359.543,-40.0164,-18.1698,-388.948,196.638,-18.8315,-440.879
29,3.65636e-08,2.56789e-08,-1.80872e-07,-130.409,-1.00204,-60.5362,-145.374,433.981,77.147,-177.985,822.417,301.37,130.141,0.742172,59.7086,133.77,450.778,131.794,103.234,868.786,288.235,1.62631,-256.357,-48.4377,46.6776,-468.713,-176.312,51.6488,-574.039,-348.636,175.8,-455.922,-83.9537,266.706,-254.08,89.6081,182.133,-99.2817,-92.5483,-93.273,-416.388,-223.624,-74.3047,-141.763,-315.037,116.885,-300.703,-322.116
30,9.03183e-08,-4.25859e-08,9.62052e-08,-129.128,-5.22917,-51.6612,-134.961,447.034,60.24,-160.542,848.119,267.262,128.902,4.63965,51.501,198.38,459.254,121.703,145.245,786.784,421.936,4.26653,-249.299,-42.5171,27.636,-463.885,-175.374,1.68158,-614.195,-285.673,159.35,-431.214,-103.057,266.661,-214.406,49.8016,157.07,-62.496,-111.871,-118.106,-394.834,-183.433,-256.906,-139.532,-141.453,-66.5604,-21.4021,-217.603
1,3.17191e-08,-5.27461e-08,6.82615e-08,-144.383,-16.1999,-15.42,-174.223,426.069,84.5072,-193.194,811.536,302.33,144.103,15.6087,15.2009,122.453,459.286,115.553,77.8665,848.776,314.354,27.5765,-258.602,-48.5443,55.0446,-486.743,-153.627,44.4987,-662.794,-243.888,206.792,-441.867,-107.365,307.063,-205.304,20.1198,158.478,-92.522,-153.766,-108.228,-443.313,-146.558,-248.677,-199.48,-181.939,-33.8701,-291.1,-282.266
2,-4.40034e-08,3.24164e-07,-5.23685e-08,-124.335,-23.1337,32.4712,-216.247,440.22,45.5472,-107.858,632.467,411.607,122.856,22.4943,-33.9372,70.4384,475.117,26.2383,40.4854,854.04,232.417,26.827,-249.223,-12.9763,96.7897,-485.851,-71.2697,81.5203,-658.032,-159.079,237.911,-397.466,-79.6391,294.894,-107.083,-114.591,79.4116,-73.9271,-194.955,-67.2627,-507.128,-25.3096,-302.049,-590.775,-181.882,-317.262,-785.396,-295.045
3,-3.19381e-08,-1.06153e-07,-4.63238e-08,-116.791,4.04947,-83.1692,-132.21,422.899,90.1768,-189.352,794.629,330.221,116.115,-5.14232,82.3454,162.051,447.992,88.3357,163.723,890.924,114.151,-8.48653,-250.157,-45.9022,40.3491,-482.056,-136.517,74.4924,-663.276,-191.156,146.083,-449.291,-26.9858,219.134,-220.376,115.853,157.996,-111.254,-87.0947,-90.8163,-419.805,-200.949,-169.547,-154.426,-242.471,67.3907,-194.138,-265.669
4,-6.58254e-08,4.10347e-08,-8.32779e-08,40.4375,25.1706,-132.977,7.13422,476.496,-29.9022,-145.344,896.138,78.3667,-40.8982,-25.3673,132.439,-22.5391,397.616,310.996,-241.137,773.79,435.2,-23.0723,-243.614,-89.4,-12.8627,-492.065,-119.155,36.0562,-681.079,-149.732,-78.8512,-471.106,40.0024,-62.5706,-228.828,210.664,135.117,-201.013,186.185,39.9955,-440.198,-270.514,283.915,-400.532,-378.458,341.461,-566.473,-235.815
5,2.11299e-07,2.67685e-07,-9.97179e-08,-107.08,5.82544,-96.9246,-97.9231,464.343,-82.8217,-344.119,724.832,185.204,107.914,-4.843,97.1612,80.3105,446.012,141.095,-34.4548,851.978,283.212,39.0816,-254.402,-35.6578,123.722,-468.058,-123.88,252.57,-593.783,-237.661,205.224,-445.269,10.4246,226.155,-199.677,153.111,219.726,-146.279,-20.9597,-3.97089,-422.956,-213.595,-48.5933,-160.683,-302.766,148.4,-197.702,-279.735
6,-6.78192e-08,-6.37404e-08,1.84269e-07,-119.243,-33.8129,30.7187,-153.473,419.346,72.5264,-152.098,841.304,238.553,118.873,33.2482,-30.3981,54.4471,465.836,97.8672,33.6087,827.167,365.739,35.3898,-235.88,-41.2052,70.4732,-473.256,-117.02,39.8222,-650.201,-153.572,205.981,-390.117,-134.552,291.709,-120.144,-97.7434,60.5024,-74.1046,-169.458,-67.3496,-463.685,-52.761,-320.972,-354.043,-87.5469,-164.631,-440.333,-198.268
7,2.69873e-08,2.14882e-07,8.23606e-08,29.8415,-44.1451,113.362,-59.7631,389.606,206.652,-39.7292,833.852,287.778,-30.3591,44.2074,-113.684,-62.7589,498.687,-79.4677,198.811,851.761,-111.235,53.5694,-226.722,-75.3274,38.1545,-464.18,-159.151,50.2739,-636.398,-163.961,21.3984,-359.183,-263.402,-12.6241,-91.3736,-309.454,-136.914,-129.175,-122.631,73.0255,-476.661,-17.6492,-4.39679,-518.647,231.69,-173.914,-592.803,142.594
8,1.13151e-07,3.78864e-08,-3.21473e-08,87.5465,-36.6381,95.7233,-46.9755,339.977,305.786,22.5234,788.825,348.086,-87.3698,36.6653,-96.0357,-96.8571,462.729,70.7661,5.91022,891.226,150.114,12.4112,-225.774,-86.4983,-26.4766,-467.278,-150.137,-36.3774,-651.985,-148.747,-117.733,-384.88,-236.332,-293.027,-161.873,-225.695,-234.068,-285.38,-28.4501,85.7617,-453.77,-52.6767,198.595,-388.271,192.499,21.8508,-476.732,231.209
9,1.90593e-07,2.6712e-08,-1.57364e-07,141.195,-0.755936,-3.62701,101.896,434.655,89.7723,121.337,864.363,29.2583,-140.923,0.466278,2.86742,-209.435,382.054,238.538,-287.725,805.231,317.773,15.0801,-230.755,-90.6454,43.4232,-477.166,-137.854,71.9883,-647.826,-163.497,-121.605,-482.125,-143.778,-379.478,-553.741,-2.2796,-332.992,-755.665,134.603,182.533,-421.283,-135.915,370.557,-327.415,39.5313,225.853,-497.379,164.642
10,2.60665e-09,-4.95459e-08,-2.48281e-07,110.459,16.6333,-77.2615,95.2559,416.501,108.748,9.13055,853.198,151.545,-110.169,-16.6023,76.8766,-151.477,409.965,220.654,-336.508,800.696,101.172,-15.4958,-216.146,-95.9384,-13.7423,-462.411,-153.142,48.0303,-608.721,-202.982,-136.637,-453.706,-57.3045,-136.933,-320.247,200.239,56.685,-360.05,241.874,104.392,-415.406,-225.794,337.938,-360.684,-112.521,366.882,-571.577,3.24792
