,0.000921322,-0.000258061,-0.00115488,0.974811,0.438177,0.653598,0.590961,0.922598,0.606128,0.561428,0.969589,0.533964,0.023784,0.559084,0.342817,0.38741,0.916648,0.554194,0.449112,0.978944,0.487074,0.532508,-0.00511902,0.376122,0.535531,0.00494247,0.409313,0.546718,0.0346594,0.436849,0.404324,0.0482978,0.369277,0.263302,0.212973,0.37944,0.120926,0.26927,0.427918,0.666183,0.106987,0.433276,0.785063,0.284604,0.528014,0.842589,0.33677,0.619945
,-0.00155393,-0.00126861,-0.00387038,0.993609,0.556082,0.430172,0.64473,0.869691,0.713702,0.589209,0.938641,0.605074,0.00123796,0.438729,0.56232,0.381821,0.848687,0.664491,0.421136,0.92929,0.501258,0.649503,0.0451681,0.606997,0.683707,0.094087,0.674591,0.708738,0.155415,0.67183,0.526894,0.107504,0.662472,0.369933,0.312958,0.66604,0.482953,0.383094,0.729291,0.767868,0.242992,0.609412,0.739095,0.512384,0.61174,0.688559,0.527253,0.729248
,-0.00108111,-0.0012947,-0.00170006,0.993616,0.492671,0.680617,0.523678,0.808669,0.790894,0.524331,0.905704,0.648158,0.0053331,0.505626,0.317871,0.274528,0.789291,0.707161,0.356035,0.910532,0.598646,0.40466,0.154749,0.845408,0.398043,0.213854,0.911351,0.418909,0.265695,0.912755,0.313151,0.245253,0.784459,0.226519,0.411491,0.583566,0.121331,0.520751,0.57983,0.539203,0.30009,0.856806,0.695641,0.462892,0.724704,0.699717,0.555576,0.737669
,-0.00284335,-0.00209632,-0.00186329,0.960205,0.460928,0.733961,0.527236,0.861315,0.745436,0.520793,0.936362,0.618223,0.0373915,0.536348,0.264209,0.310548,0.845592,0.633173,0.391707,0.941427,0.541561,0.409689,0.0601872,0.687156,0.391591,0.103905,0.753539,0.40097,0.15194,0.76609,0.316064,0.166091,0.647411,0.296684,0.410346,0.487924,0.288984,0.529581,0.590272,0.539743,0.202201,0.735307,0.676914,0.405115,0.642158,0.614501,0.507429,0.693822
,0.000205016,0.00197126,6.82427e-07,0.953987,0.45281,0.699685,0.611732,0.920295,0.630361,0.592448,0.973228,0.551833,0.0475062,0.549657,0.30176,0.385124,0.910607,0.546761,0.459095,0.980158,0.496306,0.581125,0.0499619,0.333385,0.520469,0.0465426,0.331668,0.544014,0.079459,0.340619,0.415828,0.15211,0.315571,0.358328,0.442584,0.398792,0.411164,0.420787,0.546821,0.644082,0.0935329,0.405528,0.59362,0.143331,0.615867,0.522307,0.118172,0.578973
,0.00129168,0.000559685,-0.000415846,0.940046,0.420756,0.740783,0.526844,0.861294,0.756471,0.504473,0.934012,0.700384,0.0602079,0.578516,0.257705,0.386997,0.913051,0.582641,0.480773,0.970469,0.51632,0.465455,-0.0329225,0.467913,0.436485,-0.00278275,0.530732,0.446337,0.0358196,0.567091,0.332044,0.0689675,0.463688,0.238608,0.306286,0.550008,0.185312,0.300119,0.649816,0.576912,0.0922143,0.589969,0.565342,0.329043,0.740533,0.444124,0.312163,0.736761
,0.000595028,-0.000846797,-0.00216244,0.956346,0.452021,0.736812,0.541663,0.913725,0.665947,0.51059,0.969905,0.600117,0.0433415,0.546016,0.259922,0.327058,0.907815,0.550399,0.404956,0.977068,0.508963,0.498191,-0.00754162,0.500042,0.460991,0.0129363,0.574012,0.484527,0.0599471,0.594056,0.359229,0.0772797,0.503529,0.236673,0.312843,0.527306,0.255217,0.333641,0.669295,0.596657,0.111158,0.610218,0.648391,0.295951,0.749458,0.527475,0.316664,0.764437
,0.00121421,-0.00130393,-0.000719123,0.915731,0.441671,0.776682,0.532616,0.90905,0.666905,0.494056,0.971555,0.606121,0.0844702,0.555638,0.221099,0.321867,0.90519,0.546279,0.402369,0.976824,0.517119,0.413194,0.0101096,0.613926,0.359939,0.0886208,0.692061,0.363041,0.158237,0.712406,0.282908,0.152892,0.603468,0.194355,0.33033,0.673987,0.280074,0.320216,0.754034,0.497334,0.19541,0.730012,0.518873,0.440569,0.809926,0.385386,0.458338,0.775888
,-0.00234977,-0.00206634,-0.00197042,0.908192,0.445676,0.796421,0.52538,0.903934,0.689402,0.507691,0.959543,0.629095,0.0879054,0.549621,0.19922,0.355908,0.909845,0.531823,0.432197,0.9775,0.502562,0.454302,0.00568265,0.572255,0.409374,0.0509908,0.657525,0.433117,0.108854,0.681694,0.334509,0.126877,0.557275,0.315248,0.404937,0.466011,0.341064,0.498372,0.591691,0.549631,0.162549,0.685307,0.638187,0.41251,0.698785,0.485549,0.447275,0.714933
,-0.00163572,-0.000900133,-0.000196393,0.933271,0.402724,0.712984,0.603981,0.891855,0.659643,0.58619,0.952303,0.616928,0.0635059,0.594383,0.284214,0.442104,0.920514,0.535486,0.508298,0.984228,0.490794,0.538701,0.0463828,0.304694,0.50234,0.0308513,0.345265,0.540774,0.0677695,0.374679,0.409895,0.15322,0.310444,0.39184,0.467448,0.333902,0.376402,0.470441,0.526072,0.611145,0.126486,0.429281,0.586368,0.368279,0.592564,0.463922,0.36058,0.602765
,0.00144441,0.0010881,-0.000664502,0.958416,0.444443,0.717956,0.603001,0.903532,0.684299,0.584049,0.957705,0.623168,0.0429129,0.556167,0.281273,0.426373,0.922938,0.530136,0.496719,0.980786,0.493884,0.523108,0.0267802,0.363335,0.510535,0.0185133,0.416368,0.543018,0.0522753,0.452042,0.396751,0.0660347,0.359707,0.253611,0.225222,0.470165,0.287905,0.187939,0.536885,0.623287,0.120183,0.485563,0.586509,0.315739,0.664707,0.491922,0.26671,0.641216
,-0.000447191,-0.000631273,0.0006455,0.917395,0.431499,0.789132,0.564815,0.901268,0.684176,0.550654,0.954438,0.629572,0.0797427,0.564978,0.20832,0.392948,0.913824,0.537236,0.463312,0.977018,0.51885,0.481001,-0.00347695,0.445365,0.417804,0.0165679,0.515446,0.394732,0.0693497,0.566852,0.356033,0.102177,0.415104,0.319085,0.393531,0.363965,0.277673,0.340295,0.476795,0.544302,0.103047,0.588543,0.522659,0.371162,0.685145,0.405562,0.358818,0.666657
,0.00148872,-9.69828e-05,-0.000380103,0.916593,0.436361,0.777458,0.558097,0.915998,0.651178,0.543617,0.967886,0.576167,0.083299,0.562063,0.220339,0.379089,0.919391,0.515915,0.464825,0.976864,0.471144,0.547549,0.0341775,0.359682,0.521302,0.0224852,0.434622,0.536083,0.0665892,0.510305,0.413905,0.0760167,0.374706,0.267451,0.263594,0.466921,0.303561,0.234088,0.559648,0.628753,0.129062,0.503417,0.572351,0.351805,0.67516,0.445062,0.335522,0.649964
,-0.00338818,-0.00251154,-0.00119095,0.873403,0.418704,0.847978,0.532211,0.910373,0.671948,0.512744,0.971892,0.598289,0.121218,0.575824,0.147991,0.355507,0.926322,0.499835,0.45306,0.986678,0.463042,0.507486,-0.0333129,0.447348,0.462138,-0.00314745,0.533067,0.465063,0.030098,0.57047,0.383393,0.0803135,0.421315,0.37925,0.400239,0.348251,0.374635,0.486877,0.509875,0.589743,0.118419,0.597729,0.643297,0.409421,0.634848,0.533524,0.486795,0.688635
,-0.00188567,0.000697651,-0.000893262,0.800702,0.397091,0.887253,0.449886,0.874004,0.688551,0.484308,0.951902,0.605907,0.19566,0.601268,0.109234,0.368651,0.918885,0.522985,0.566592,0.924888,0.418419,0.53988,-0.0104063,0.414299,0.489145,-0.00146946,0.43192,0.504627,0.0388178,0.457291,0.423359,0.105065,0.34022,0.423838,0.427739,0.308613,0.391443,0.455164,0.492783,0.603304,0.0696732,0.510982,0.628715,0.23175,0.664479,0.529047,0.225102,0.613178
,-0.00342547,-0.00108509,-0.00226812,0.98848,0.48841,0.346766,0.670146,0.892069,0.640722,0.57672,0.956331,0.557806,0.00866145,0.509531,0.650649,0.406206,0.915898,0.599852,0.449966,0.984353,0.513627,0.442446,0.0144118,0.354992,0.467828,0.00882571,0.401377,0.505669,0.0586567,0.433289,0.355688,0.0861397,0.459245,0.351669,0.332529,0.608756,0.4642,0.293281,0.578958,0.593652,0.117353,0.349976,0.653686,0.406804,0.315707,0.594931,0.426941,0.512222
,-0.000376305,0.00215007,-0.000180754,0.837086,0.552386,0.118818,0.515846,0.945817,0.522673,0.429581,0.974274,0.499214,0.162886,0.449676,0.881402,0.489949,0.881274,0.74399,0.528225,0.960567,0.665133,0.449981,-0.0154038,0.351751,0.46167,0.00322221,0.399806,0.515842,0.0374297,0.407721,0.380592,0.0320068,0.525473,0.479238,0.161516,0.681607,0.583023,0.172305,0.686,0.56129,0.0810612,0.294837,0.716064,0.149589,0.391584,0.68587,0.153881,0.554609
,-0.00100625,0.00038898,-0.00109098,0.301098,0.538661,0.0779807,0.504402,0.933961,0.444778,0.480787,0.958605,0.523051,0.693305,0.457356,0.916438,0.498772,0.870832,0.697183,0.415523,0.929975,0.665428,0.473423,0.00601496,0.438815,0.510388,0.00823686,0.449948,0.507868,0.0573096,0.424474,0.542789,0.0513941,0.57212,0.638351,0.219863,0.659161,0.724591,0.195485,0.619352,0.438078,0.0971963,0.340005,0.451768,0.204616,0.201476,0.477498,0.212755,0.207174
,-0.00121313,0.0012033,0.000837087,-0.0460525,0.462345,0.490028,0.349565,0.910488,0.599095,0.359787,0.86911,0.719643,1.04391,0.537476,0.509652,0.625276,0.924998,0.50816,0.543766,0.976722,0.54116,0.534825,-0.0568358,0.416013,0.547165,-0.00476024,0.365756,0.529337,0.0456964,0.357747,0.668471,0.0629043,0.409029,0.795169,0.303648,0.401899,0.81561,0.326397,0.322456,0.399208,0.0747648,0.386123,0.261434,0.263125,0.329888,0.419289,0.291369,0.309349
,-0.00176195,0.000587006,-0.000524908,0.0542311,0.39187,0.799844,0.418232,0.919862,0.642953,0.496016,0.948987,0.653059,0.942275,0.605959,0.197289,0.594434,0.950122,0.388509,0.587566,0.985729,0.451301,0.562938,-0.0578681,0.479055,0.540129,-0.0198502,0.433161,0.47807,0.0280774,0.385496,0.646044,0.0692746,0.369998,0.674914,0.2974,0.246566,0.539794,0.310174,0.247986,0.42354,0.0440838,0.52732,0.272461,0.168219,0.509342,0.310378,0.212091,0.407218
,0.00296163,0.00320555,0.00108656,0.417057,0.366358,0.961952,0.341063,0.889966,0.674244,0.395816,0.942668,0.665723,0.586422,0.637392,0.0403261,0.558648,0.945698,0.501752,0.604305,0.97765,0.54211,0.609534,0.00359105,0.387827,0.559456,0.00515828,0.405988,0.496482,0.0451273,0.416858,0.57734,0.0883286,0.292302,0.465832,0.233377,0.178026,0.370011,0.224487,0.298729,0.547461,0.0742181,0.543087,0.478918,0.241828,0.709697,0.394819,0.283874,0.652388
,0.00281215,0.00411458,-0.00122529,0.923542,0.455243,0.777444,0.570094,0.886843,0.711585,0.610008,0.922814,0.554475,0.0792863,0.548395,0.22222,0.364754,0.887528,0.548264,0.438813,0.955665,0.501667,0.518359,0.00752366,0.370905,0.4957,0.0156723,0.401592,0.516972,0.0389413,0.424232,0.39868,0.0618208,0.328036,0.26332,0.210666,0.33795,0.148332,0.185946,0.402036,0.604024,0.0600739,0.451555,0.683101,0.14617,0.607943,0.625509,0.119136,0.677559
,-0.000267064,-0.000586729,-0.00204139,1.02853,0.506384,0.472203,0.559738,0.932223,0.593924,0.487107,0.977657,0.549003,-0.028891,0.492565,0.525147,0.315842,0.862062,0.706091,0.374535,0.939741,0.493265,0.530987,-0.0207272,0.353092,0.516127,-0.00249964,0.404574,0.55421,0.027902,0.450508,0.373868,0.0781473,0.43159,0.322859,0.391699,0.517857,0.435043,0.392915,0.608929,0.667718,0.0982497,0.38786,0.776399,0.237916,0.538394,0.634974,0.246927,0.596381
,0.0028156,0.00177516,-0.00165872,1.01436,0.467312,0.542381,0.639631,0.878315,0.726036,0.60514,0.941792,0.600472,-0.0103254,0.535385,0.457479,0.395878,0.918756,0.580139,0.441461,0.978462,0.514844,0.491622,0.00160076,0.353722,0.478533,0.00471758,0.399699,0.461503,0.044529,0.447908,0.360572,0.0630856,0.377296,0.216157,0.180089,0.471454,0.214531,0.169119,0.572157,0.616614,0.0821416,0.400797,0.757751,0.202348,0.499363,0.681988,0.168271,0.58812
,-7.9754e-05,0.000799123,-0.00243055,0.998548,0.4853,0.677276,0.523064,0.868405,0.761641,0.528327,0.935103,0.660378,0.000637442,0.513936,0.319224,0.273858,0.883946,0.580191,0.336731,0.955623,0.497156,0.434274,0.164144,0.836997,0.425216,0.252848,0.890802,0.429425,0.318177,0.872242,0.330967,0.298605,0.78959,0.293584,0.404038,0.655028,0.389207,0.460631,0.685555,0.562912,0.322325,0.84424,0.673834,0.473905,0.758517,0.55517,0.454813,0.761162
,-0.00123792,-0.00117797,-0.00123632,0.876933,0.528165,0.121919,0.611689,0.919464,0.53107,0.495969,0.954312,0.476888,0.12154,0.470032,0.875927,0.473087,0.877655,0.736068,0.464134,0.951003,0.625056,0.506067,-0.00419322,0.429627,0.541463,0.000279896,0.450445,0.582129,0.0551016,0.453579,0.438342,0.0455268,0.547484,0.404987,0.203754,0.703498,0.510777,0.234545,0.682352,0.600409,0.110009,0.339913,0.690926,0.268057,0.305261,0.715573,0.252262,0.36781
,-0.000585005,-0.000728404,-0.000342738,0.221624,0.524256,0.0489655,0.474766,0.951376,0.464943,0.448967,0.983438,0.535725,0.777344,0.473863,0.949823,0.600819,0.899174,0.712508,0.4161,0.895317,0.718782,0.475551,-0.0525065,0.463964,0.529166,-0.0156242,0.445668,0.520488,0.019882,0.411902,0.58155,0.0342188,0.583848,0.601652,0.32819,0.710042,0.713669,0.396366,0.665203,0.42644,0.0817132,0.331149,0.356897,0.341835,0.260323,0.482193,0.378813,0.275582
,0.000862411,-0.000215318,-0.000750503,0.979095,0.432587,0.664605,0.596936,0.91869,0.600573,0.566233,0.967422,0.535048,0.0193869,0.564408,0.331963,0.366,0.917753,0.549955,0.430235,0.980898,0.489869,0.518448,-0.00926872,0.375858,0.513413,0.00601332,0.396825,0.528325,0.0324939,0.4343,0.392369,0.0682906,0.353154,0.2661,0.25858,0.345021,0.121469,0.299195,0.382209,0.652197,0.0958788,0.423592,0.781706,0.268758,0.518322,0.836447,0.310689,0.597619
,-0.000880454,-0.00166676,-0.00144456,0.976802,0.427486,0.701442,0.593624,0.913572,0.61863,0.565344,0.960998,0.549579,0.0215159,0.569542,0.296003,0.283331,0.88862,0.599162,0.344527,0.960825,0.533233,0.511104,0.00847591,0.36919,0.502801,0.0107936,0.473329,0.519153,0.0423048,0.490967,0.391169,0.0975018,0.427969,0.343327,0.420767,0.445255,0.396549,0.462768,0.591098,0.623903,0.141636,0.511434,0.633773,0.423096,0.596833,0.498375,0.428845,0.624065
,-0.00128885,-0.00193827,-0.00270172,0.896048,0.551315,0.248522,0.670114,0.861012,0.691441,0.627837,0.93211,0.655424,0.0962117,0.440854,0.742854,0.46729,0.833616,0.75043,0.498942,0.937559,0.606727,0.749472,0.235386,0.768282,0.777613,0.352312,0.823871,0.772556,0.382476,0.798689,0.618653,0.368783,0.831702,0.486833,0.536024,0.748497,0.554323,0.626293,0.672031,0.820159,0.454822,0.703166,0.8099,0.645316,0.604365,0.845859,0.714503,0.579166
,0.000813724,-0.00185837,6.21106e-05,0.975465,0.506575,0.613712,0.568767,0.850389,0.750043,0.540539,0.798633,0.525549,0.0211391,0.486572,0.380644,0.296929,0.696597,0.76204,0.414311,0.833559,0.57834,0.468311,0.151976,0.842452,0.474756,0.195967,0.875813,0.485251,0.239979,0.85793,0.372434,0.241067,0.766938,0.24791,0.405868,0.564998,0.145312,0.477598,0.578556,0.598248,0.310065,0.794883,0.726347,0.44379,0.686567,0.775526,0.513615,0.709556
,-0.00276914,-0.00268173,-0.0019966,0.986194,0.45809,0.621799,0.609835,0.907134,0.649418,0.579998,0.963704,0.596124,0.00868183,0.536147,0.37309,0.371226,0.903865,0.581489,0.435746,0.973982,0.520193,0.512463,-0.0036777,0.436937,0.500956,0.00594214,0.521266,0.507291,0.043938,0.529886,0.385448,0.100096,0.484142,0.340337,0.413416,0.491294,0.383065,0.501881,0.618813,0.631569,0.140534,0.536172,0.661815,0.427786,0.569696,0.564491,0.508429,0.657156
,0.000592277,-0.000514857,-0.00128429,1.01484,0.463412,0.54014,0.646734,0.91513,0.635761,0.598861,0.978973,0.609597,-0.0149573,0.535181,0.458049,0.39581,0.927071,0.572794,0.459993,0.99307,0.519306,0.507974,0.0192996,0.31532,0.576315,0.0182995,0.389239,0.590474,0.0700159,0.442664,0.438159,0.0605971,0.39668,0.317422,0.131519,0.533247,0.418481,0.202256,0.558827,0.677709,0.187031,0.401523,0.686943,0.480625,0.468921,0.671857,0.579246,0.578825
,0.00174817,-0.000178633,-0.00227294,1.002,0.463768,0.6392,0.583718,0.897285,0.685885,0.53675,0.960795,0.574106,-0.00249761,0.533561,0.356035,0.325669,0.881847,0.623753,0.403167,0.96097,0.561301,0.500034,-0.0116835,0.583854,0.48915,0.0248208,0.644878,0.50585,0.10793,0.663765,0.370201,0.0690715,0.597847,0.250373,0.216194,0.645231,0.323265,0.225713,0.707097,0.625056,0.119528,0.630122,0.6919,0.280599,0.754939,0.568524,0.233287,0.777345
,0.00113217,-0.000589542,-0.00122704,0.957898,0.441258,0.704476,0.567983,0.889924,0.713059,0.536611,0.957651,0.65989,0.0426627,0.557587,0.293775,0.384819,0.917501,0.53468,0.449595,0.980079,0.508147,0.477328,-0.00874105,0.536416,0.47193,0.02857,0.625582,0.480376,0.0941554,0.669691,0.359613,0.0739242,0.561351,0.259992,0.263797,0.65312,0.332979,0.29936,0.734811,0.602257,0.146514,0.652507,0.581136,0.378171,0.784775,0.445511,0.384208,0.78
,0.000951039,-0.00151609,-0.000532177,0.925161,0.461516,0.779448,0.538045,0.905291,0.684264,0.498121,0.969741,0.608786,0.0755774,0.53676,0.220013,0.331269,0.897401,0.522573,0.401651,0.968576,0.463319,0.474655,0.0105223,0.643484,0.425171,0.0906279,0.72157,0.41746,0.149808,0.740352,0.336136,0.13109,0.619434,0.237261,0.309143,0.673004,0.313979,0.359058,0.739874,0.545773,0.226719,0.751974,0.528734,0.463058,0.824262,0.423453,0.475289,0.796354
,-0.00115229,-0.00177942,-0.00174326,0.971621,0.455578,0.643799,0.596176,0.870932,0.723475,0.580025,0.936531,0.667174,0.0255278,0.540645,0.351957,0.423587,0.91069,0.54574,0.490349,0.974806,0.484438,0.525797,0.0339282,0.342874,0.501353,0.0182962,0.419554,0.519762,0.0542466,0.425147,0.393231,0.13031,0.40056,0.335861,0.42514,0.486658,0.329162,0.436384,0.639087,0.620957,0.14157,0.470645,0.642748,0.398186,0.607261,0.527964,0.39778,0.673853
,-0.00225645,-0.00290323,-0.00179139,1.00071,0.467152,0.570715,0.580898,0.918766,0.606756,0.524192,0.971529,0.553174,-0.00495434,0.527407,0.424948,0.31977,0.882296,0.632306,0.38451,0.963921,0.552926,0.538686,-0.00232137,0.398978,0.526155,0.00978351,0.507503,0.555085,0.0381533,0.534759,0.402225,0.10257,0.495187,0.345645,0.418216,0.521489,0.409359,0.485063,0.642783,0.652003,0.151591,0.501821,0.689193,0.430037,0.548537,0.586839,0.492066,0.64963
,-0.00120754,-0.00186305,0.000215089,0.980819,0.435617,0.727201,0.561251,0.9176,0.625185,0.522703,0.967845,0.563037,0.0151179,0.559475,0.270119,0.30912,0.900424,0.596458,0.37109,0.967568,0.572382,0.4892,-0.0224135,0.473532,0.467546,0.0207618,0.596319,0.489306,0.0557158,0.633642,0.372946,0.0921518,0.511354,0.345989,0.415736,0.44821,0.389657,0.477264,0.585426,0.590935,0.154486,0.635518,0.573404,0.422701,0.71403,0.496866,0.458797,0.774341
,-0.00105167,-0.00180072,0.000400784,0.964556,0.463636,0.734777,0.583943,0.914787,0.646417,0.534609,0.96279,0.585251,0.0318547,0.531516,0.262915,0.335261,0.883738,0.596259,0.397059,0.957783,0.574831,0.473145,-0.00249483,0.57875,0.426445,0.0642457,0.681291,0.45071,0.12143,0.724396,0.347799,0.117686,0.576119,0.315778,0.405301,0.472987,0.298657,0.417297,0.601381,0.553023,0.195369,0.712904,0.548953,0.463665,0.742169,0.455793,0.464465,0.771466
,-2.3726e-05,-0.00164379,0.000506405,0.966568,0.449983,0.738192,0.570036,0.917123,0.633129,0.537625,0.964889,0.55938,0.0310317,0.546112,0.26,0.324977,0.888353,0.599932,0.39026,0.961156,0.560372,0.527037,-0.00704457,0.470386,0.48916,0.025784,0.575682,0.503959,0.0770871,0.641389,0.397474,0.095013,0.496212,0.347087,0.403601,0.42336,0.397103,0.461342,0.576583,0.603369,0.159576,0.616281,0.581192,0.417416,0.711637,0.480184,0.422025,0.725286
,-0.00188054,-0.00210013,-0.00187624,0.969863,0.44614,0.704593,0.571239,0.913765,0.647999,0.533564,0.967319,0.57514,0.027214,0.550231,0.292289,0.273262,0.890466,0.579112,0.358408,0.962592,0.465783,0.525737,-0.00380768,0.420001,0.515421,0.00976,0.525373,0.544046,0.0484006,0.561997,0.40506,0.0914628,0.465605,0.353668,0.410763,0.43326,0.396822,0.45894,0.583064,0.634438,0.157355,0.550023,0.662046,0.440744,0.582265,0.53073,0.465511,0.648444
,-0.000433432,-0.00120328,-0.00133947,1.01473,0.463632,0.57125,0.6024,0.91662,0.61977,0.557426,0.968238,0.543301,-0.0161293,0.533827,0.425968,0.340293,0.899813,0.60199,0.404859,0.970138,0.523104,0.503968,0.00703429,0.378153,0.489457,0.00673515,0.457356,0.522895,0.0436125,0.47415,0.377665,0.107266,0.435841,0.327907,0.419781,0.439516,0.398367,0.450319,0.593948,0.621724,0.129218,0.477914,0.665662,0.379789,0.605472,0.537172,0.353984,0.657409
,0.00127715,-0.000308654,-0.000554953,0.981847,0.502642,0.370151,0.643786,0.894924,0.634704,0.534418,0.932142,0.48324,0.0177002,0.496023,0.628201,0.415191,0.888819,0.616223,0.45195,0.964644,0.547957,0.493746,0.0324424,0.36592,0.465047,0.0222525,0.387364,0.504359,0.0612863,0.385632,0.368332,0.127,0.433252,0.333368,0.421818,0.520268,0.438807,0.44999,0.600996,0.58457,0.113645,0.350919,0.727197,0.175415,0.450295,0.737667,0.120873,0.501127
,0.000270121,-0.00115463,0.000878381,0.920712,0.435437,0.792007,0.564928,0.915093,0.598476,0.542991,0.966382,0.513905,0.0793553,0.563122,0.209017,0.302811,0.874548,0.598813,0.360358,0.944179,0.602103,0.567576,0.0336814,0.369001,0.513637,0.0214051,0.434573,0.501904,0.0568977,0.448184,0.424604,0.120498,0.374612,0.392378,0.438815,0.392782,0.409538,0.441732,0.556852,0.614691,0.144366,0.506081,0.598276,0.426046,0.600453,0.506779,0.372681,0.602031
,-0.00142844,0.00114113,0.00170357,0.43154,0.369635,0.987872,0.438457,0.911034,0.692305,0.484979,0.97149,0.658436,0.567027,0.63091,0.0135534,0.511403,0.968014,0.401766,0.603273,0.993335,0.427915,0.592498,-0.0122004,0.419374,0.546981,0.00656286,0.381989,0.529988,0.0463976,0.427568,0.564974,0.1599,0.294292,0.54916,0.483466,0.303301,0.408061,0.468066,0.43512,0.520193,0.0534021,0.525183,0.358184,0.154091,0.645196,0.335403,0.206955,0.512192
,-0.000633365,-0.00119034,0.000815611,0.943572,0.400928,0.756653,0.552107,0.864529,0.771449,0.624796,0.909687,0.577742,0.0549831,0.596273,0.241968,0.362354,0.911605,0.612285,0.452742,0.98074,0.567712,0.434097,-0.0238944,0.428522,0.377779,0.0167777,0.532147,0.381744,0.070298,0.612911,0.318039,0.130385,0.439524,0.349023,0.470724,0.40706,0.351873,0.481438,0.578352,0.514024,0.113803,0.602667,0.52578,0.404394,0.682136,0.414886,0.390721,0.685006
,0.000139999,-0.00112433,-0.00227696,0.946613,0.516322,0.235382,0.61378,0.908862,0.593942,0.54356,0.966681,0.550929,0.0542742,0.483063,0.762669,0.424262,0.885599,0.69233,0.411502,0.956866,0.55818,0.456984,0.0224047,0.385068,0.463975,0.012395,0.448954,0.515567,0.0510777,0.476156,0.369536,0.115275,0.51531,0.327706,0.421741,0.571751,0.444613,0.437732,0.647525,0.583713,0.118738,0.376759,0.735579,0.312099,0.482494,0.614352,0.276187,0.570267
,0.000221472,0.00034502,-0.000248657,0.358218,0.527877,0.0230294,0.479174,0.94928,0.488891,0.450638,0.979879,0.555598,0.638219,0.46848,0.972912,0.53943,0.875246,0.776889,0.377776,0.892339,0.731613,0.426703,-0.0279059,0.427162,0.494498,-0.00192141,0.435308,0.513154,0.0417519,0.403851,0.525411,0.0855471,0.568741,0.518713,0.380105,0.677164,0.561773,0.488666,0.63021,0.440558,0.109372,0.315519,0.487881,0.311148,0.186334,0.594156,0.326768,0.230934
,-0.00182243,-0.000917511,-0.000193652,0.157829,0.488595,0.102204,0.469513,0.953611,0.401025,0.42848,0.974869,0.491911,0.838465,0.508605,0.895357,0.529806,0.920483,0.686983,0.442743,0.973983,0.642318,0.497391,-0.0392922,0.505218,0.54471,-0.0112815,0.467201,0.570958,0.0348584,0.435905,0.623927,0.0802398,0.572961,0.681668,0.392906,0.619016,0.64629,0.417802,0.47041,0.423843,0.0938571,0.384941,0.378316,0.302888,0.246316,0.486948,0.271323,0.318435
,-0.00095253,0.000992828,0.000808205,-0.00113785,0.497431,0.405054,0.333452,0.912112,0.624148,0.353816,0.905125,0.707889,0.997782,0.500856,0.593026,0.671601,0.916576,0.526351,0.62038,0.975029,0.544116,0.522644,-0.037625,0.453999,0.508212,-0.00623298,0.410866,0.493816,0.0300251,0.386645,0.638649,0.0321961,0.450513,0.777199,0.217772,0.387503,0.750992,0.215076,0.312539,0.365655,0.103614,0.413132,0.284641,0.349241,0.349841,0.424365,0.338289,0.344301
,-0.00038854,0.0024009,0.00120539,0.0757366,0.392152,0.73913,0.379071,0.924916,0.597428,0.464693,0.958786,0.606958,0.922206,0.608231,0.260651,0.634588,0.942694,0.456067,0.621206,0.916346,0.615338,0.608787,-0.0305764,0.485897,0.568466,-0.00964627,0.459656,0.527347,0.0278735,0.454219,0.658973,0.0712306,0.388446,0.680327,0.2965,0.257942,0.532921,0.314911,0.256731,0.45718,0.0601274,0.53929,0.307,0.213251,0.51466,0.311178,0.220382,0.445328
,-0.00138577,0.00157439,0.000528505,0.0428054,0.433055,0.643917,0.301618,0.914039,0.504268,0.37694,0.920653,0.609215,0.950534,0.562597,0.350745,0.551106,0.911689,0.564817,0.506226,0.941792,0.625467,0.549199,-0.0109053,0.506358,0.549124,-0.00116664,0.463233,0.531314,0.0454266,0.410614,0.669411,0.0697714,0.459768,0.757508,0.178651,0.374833,0.727456,0.169831,0.322122,0.412126,0.0708617,0.516805,0.292203,0.141795,0.480913,0.321919,0.128237,0.447111
,0.00077514,0.0027125,-6.80541e-05,0.550724,0.584743,0.0625933,0.49445,0.970032,0.457477,0.388369,0.954641,0.516956,0.446818,0.415689,0.934834,0.502675,0.89114,0.698174,0.458776,0.960051,0.628578,0.419913,0.0270907,0.353878,0.45904,0.0161449,0.396261,0.511832,0.056002,0.397301,0.421969,0.0659417,0.508165,0.444218,0.239041,0.621233,0.506042,0.271731,0.612609,0.475837,0.0934366,0.280272,0.60376,0.120478,0.256783,0.608381,0.085589,0.353946
,-0.000880361,-0.00152629,-0.00195017,0.927074,0.5789,0.208805,0.631732,0.923834,0.59848,0.477451,0.934585,0.49833,0.0686207,0.414593,0.784483,0.45507,0.805332,0.789874,0.408931,0.902942,0.6809,0.650821,0.0411473,0.576592,0.629722,0.071418,0.668458,0.612216,0.142178,0.666545,0.502599,0.11769,0.671924,0.418839,0.256373,0.738631,0.510367,0.294145,0.727127,0.725362,0.142954,0.578683,0.818328,0.264047,0.596436,0.801548,0.255072,0.647769
,0.00243236,-0.000385562,-0.00190757,0.958259,0.458748,0.718833,0.57944,0.919846,0.655886,0.573946,0.973915,0.570125,0.0437489,0.540626,0.278789,0.301654,0.905677,0.5384,0.371727,0.974443,0.445538,0.570701,0.0325073,0.320022,0.523564,0.0174423,0.378984,0.51567,0.0511829,0.424809,0.409444,0.106504,0.344161,0.25795,0.264528,0.429487,0.25296,0.259534,0.556826,0.644206,0.112086,0.445121,0.691747,0.251286,0.647961,0.544861,0.254823,0.669391
,-0.00168105,-0.000276022,-8.54431e-05,0.0327229,0.408077,0.682393,0.408848,0.923034,0.628534,0.481258,0.95546,0.670781,0.964597,0.59015,0.316864,0.639403,0.93688,0.566477,0.596716,0.982218,0.607311,0.535629,-0.0293716,0.430175,0.500111,-0.00462689,0.405704,0.481622,0.0255599,0.404282,0.630135,0.0481134,0.389472,0.780318,0.2363,0.362017,0.852684,0.312557,0.30241,0.376036,0.0682338,0.484492,0.244661,0.233708,0.61142,0.14378,0.316794,0.625227
,0.000152163,0.00232639,0.00176099,0.212513,0.423833,0.883603,0.273693,0.906767,0.571973,0.417058,0.923422,0.627835,0.788226,0.578435,0.118769,0.505806,0.935748,0.434167,0.547601,0.940009,0.560815,0.28438,0.0260637,0.376705,0.200096,0.117033,0.395062,0.177792,0.182623,0.39503,0.334088,0.144995,0.29393,0.505552,0.37428,0.259559,0.369533,0.443981,0.337465,0.208763,0.240731,0.51849,0.248317,0.482359,0.610069,0.181658,0.549852,0.54716
,-0.00233082,0.00188047,-0.000897115,0.0380993,0.474102,0.735967,0.271052,0.873519,0.367478,0.427364,0.892337,0.567783,0.958452,0.526535,0.262375,0.537517,0.871913,0.297482,0.570651,0.912553,0.481596,0.241809,0.318997,0.121955,0.288294,0.360787,0.0829175,0.29035,0.397891,0.0967737,0.443384,0.3763,0.140827,0.610091,0.487436,0.310358,0.662551,0.580843,0.379675,0.192373,0.435844,0.163373,0.157161,0.576563,0.256628,0.14621,0.602145,0.26097
,0.000658877,0.00118715,-0.000416796,0.0565376,0.417507,0.708579,0.338525,0.925487,0.550113,0.437907,0.954992,0.609123,0.94461,0.584091,0.292421,0.55492,0.931698,0.40681,0.568216,0.980996,0.50842,0.346455,0.12487,0.187398,0.32409,0.216014,0.139154,0.310201,0.278532,0.132849,0.4903,0.262115,0.17052,0.647807,0.438821,0.315892,0.555344,0.571491,0.36142,0.228376,0.290223,0.257803,0.214792,0.46052,0.457657,0.211408,0.549945,0.414435
,-0.00235317,0.000634729,0.00073737,-0.00339565,0.421434,0.662547,0.355297,0.899698,0.625795,0.428445,0.922263,0.660182,0.998835,0.57633,0.335256,0.61959,0.910668,0.552336,0.574261,0.952133,0.594595,0.523151,-0.0409654,0.449838,0.536162,-0.00467378,0.412383,0.491282,0.0126327,0.384119,0.662007,0.0976668,0.390071,0.683568,0.423608,0.379846,0.544833,0.416098,0.360536,0.397256,0.0636138,0.473114,0.280191,0.176463,0.369727,0.371597,0.154788,0.347475
,6.61503e-05,0.00126822,0.000281169,-0.0127667,0.414114,0.598114,0.327362,0.927104,0.498194,0.377872,0.976688,0.513377,1.00989,0.584604,0.399667,0.608133,0.934721,0.574264,0.548633,0.953085,0.647228,0.535401,-0.0437654,0.416669,0.518662,0.00399441,0.349797,0.464291,0.0779719,0.308622,0.650883,0.0822633,0.352248,0.670125,0.356628,0.263102,0.571903,0.390709,0.219389,0.370202,0.0763146,0.391919,0.250553,0.251045,0.326037,0.269241,0.309803,0.251688
,-0.0013173,2.27359e-06,0.000415859,0.0139322,0.449507,0.602034,0.424176,0.927203,0.607116,0.490485,0.964463,0.625141,0.98246,0.547683,0.395829,0.651438,0.928432,0.512671,0.608202,0.980042,0.558272,0.461111,-0.0312609,0.411053,0.454209,0.0137787,0.353566,0.431837,0.05988,0.336807,0.602196,0.07213,0.354246,0.695363,0.346957,0.30284,0.581028,0.374251,0.248098,0.323619,0.0982325,0.405166,0.188803,0.303373,0.413065,0.237266,0.362244,0.330376
,0.000588358,0.0027682,0.00124889,-0.00137529,0.487245,0.610225,0.419278,0.947635,0.598882,0.48429,0.970361,0.627023,1.0019,0.515308,0.391214,0.67415,0.928492,0.523978,0.630351,0.973985,0.56747,0.393361,-0.000409998,0.346931,0.390903,0.0997655,0.243702,0.390702,0.253857,0.191909,0.536293,0.16636,0.267451,0.633928,0.436554,0.272354,0.487072,0.44418,0.298196,0.28193,0.189055,0.316293,0.174839,0.37887,0.387353,0.321465,0.424233,0.35103
,0.000436965,-1.38476e-05,0.000463152,-0.00449494,0.449033,0.572602,0.388391,0.925579,0.588261,0.458906,0.963899,0.612921,1.00344,0.549497,0.426662,0.649742,0.918461,0.540526,0.597374,0.966384,0.593178,0.422376,-0.0149326,0.364867,0.40086,0.063672,0.282766,0.368554,0.151704,0.236439,0.555056,0.120229,0.309218,0.669726,0.399872,0.413117,0.569869,0.519954,0.400862,0.286104,0.181594,0.353577,0.215552,0.421603,0.44003,0.288026,0.507835,0.340281
,-0.000218592,-0.0017169,-0.000340305,-0.010323,0.413989,0.578261,0.315357,0.925546,0.569144,0.385859,0.956885,0.634765,1.00824,0.582275,0.419849,0.599556,0.930926,0.610514,0.537343,0.969462,0.640069,0.545469,-0.0571371,0.495712,0.560438,-0.0167272,0.442961,0.503485,0.0215466,0.426622,0.680256,0.089113,0.468187,0.712302,0.429148,0.50873,0.589846,0.480817,0.421194,0.404527,0.0676391,0.442361,0.322782,0.320269,0.388134,0.34307,0.403961,0.293972
,0.000230417,-0.00157376,0.000797201,0.0201235,0.41643,0.61723,0.331456,0.931342,0.576784,0.397314,0.952077,0.652132,0.977872,0.579523,0.380964,0.60088,0.930068,0.599417,0.533911,0.968386,0.640598,0.565381,-0.026011,0.486997,0.518102,-0.00671645,0.433619,0.484259,0.0372557,0.406815,0.643998,0.0725494,0.41241,0.706228,0.298012,0.283357,0.585859,0.263203,0.272187,0.383478,0.117175,0.464568,0.321519,0.394391,0.447214,0.360099,0.436216,0.340157
,0.000189874,-0.00114267,-7.41163e-05,-0.0061613,0.436721,0.555541,0.346278,0.930563,0.569024,0.411229,0.969067,0.612278,1.00444,0.560198,0.442455,0.622744,0.927909,0.605619,0.560137,0.975423,0.628585,0.496862,-0.0372809,0.4413,0.504973,0.00868206,0.358643,0.507935,0.0805624,0.322857,0.634838,0.0871289,0.401734,0.716158,0.396139,0.432858,0.669242,0.372178,0.331257,0.364427,0.106915,0.379341,0.285729,0.378499,0.430973,0.338169,0.441791,0.343171
,0.000237483,-0.0009314,0.00080468,0.0133618,0.434152,0.597097,0.395674,0.938151,0.59155,0.460959,0.958859,0.651199,0.983647,0.561524,0.400258,0.675208,0.933271,0.57241,0.602575,0.962884,0.638267,0.541901,-0.0500454,0.483077,0.491807,-0.0134503,0.421054,0.450669,0.0475271,0.362612,0.622067,0.0562853,0.395686,0.69805,0.287805,0.25997,0.561062,0.280501,0.284542,0.368887,0.109061,0.466606,0.315872,0.39106,0.477485,0.385754,0.465902,0.383461
,0.00112035,-0.00137738,0.000498594,-0.00631049,0.465181,0.450852,0.382095,0.939889,0.580838,0.446789,0.970696,0.630655,1.00575,0.53168,0.548253,0.676797,0.926239,0.602365,0.582748,0.95036,0.662748,0.47785,-0.0345879,0.438834,0.479628,0.0135262,0.35461,0.449635,0.0694454,0.345698,0.609457,0.0846605,0.404229,0.683056,0.375138,0.523498,0.581541,0.494287,0.462193,0.348079,0.128647,0.385247,0.301174,0.408241,0.505313,0.362468,0.535717,0.431792
,0.00138469,0.00213057,0.000562555,-0.00138012,0.481544,0.374114,0.401634,0.946028,0.542383,0.469034,0.980175,0.597321,0.999841,0.518246,0.624258,0.6468,0.926328,0.588946,0.526449,0.892672,0.711331,0.46536,-0.0711662,0.438885,0.489724,-0.020813,0.392987,0.464528,0.0352952,0.360995,0.631208,0.0570242,0.460015,0.683496,0.385507,0.535734,0.584594,0.464367,0.43585,0.330705,0.0735399,0.388893,0.214826,0.240124,0.347935,0.269904,0.27505,0.272658
,0.00213022,0.001189,0.00116272,0.235132,0.347968,0.884773,0.319405,0.87244,0.666126,0.435184,0.925013,0.678312,0.76538,0.651309,0.114588,0.561766,0.93394,0.528454,0.561241,0.970283,0.583351,0.576503,-0.00959735,0.371382,0.510413,0.0136323,0.359892,0.481745,0.0457757,0.36526,0.582896,0.126879,0.266054,0.524281,0.433605,0.246289,0.438786,0.331224,0.324473,0.451228,0.0980969,0.502346,0.399984,0.367025,0.618057,0.397201,0.429295,0.503374
,0.00150469,0.00411016,0.000684855,0.659458,0.384172,0.968173,0.530909,0.898452,0.664149,0.575278,0.938825,0.586188,0.341739,0.618385,0.0319263,0.322717,0.910144,0.467236,0.377436,0.964077,0.501467,0.541533,-0.015814,0.379876,0.505818,0.00550941,0.393258,0.492945,0.0336959,0.418059,0.481159,0.0669966,0.26613,0.382175,0.228107,0.202334,0.332619,0.196683,0.28753,0.555467,0.0567,0.540837,0.455172,0.174243,0.67761,0.413579,0.149209,0.638766
,0.0031178,0.0030767,-0.00116447,1.01591,0.480432,0.581409,0.589526,0.871671,0.721376,0.556251,0.931409,0.614729,-0.0137755,0.521838,0.417068,0.362924,0.900695,0.555075,0.452053,0.951316,0.445085,0.477899,0.0333883,0.318931,0.465376,0.0364506,0.347556,0.496977,0.0489972,0.368779,0.35003,0.0847554,0.338055,0.230648,0.252517,0.414485,0.168376,0.199949,0.476522,0.60405,0.100302,0.360679,0.718059,0.156618,0.529742,0.702443,0.117152,0.582029
,0.000962142,0.000252378,-0.000231202,0.851141,0.529155,0.119817,0.577696,0.938313,0.494013,0.451032,0.957485,0.437829,0.147318,0.468208,0.876943,0.505352,0.88618,0.719488,0.48842,0.961078,0.646658,0.431627,-0.0160535,0.389907,0.456342,-0.00253727,0.431405,0.499133,0.0271393,0.464674,0.358984,0.0620485,0.525996,0.308328,0.257176,0.673809,0.417761,0.222653,0.71475,0.564033,0.107941,0.339695,0.706589,0.276859,0.401128,0.62411,0.256277,0.527518
,0.00014685,0.0032679,7.48676e-05,0.530203,0.591653,0.00102955,0.498956,0.948723,0.500802,0.442941,0.969881,0.537038,0.468033,0.410198,0.998133,0.591331,0.862735,0.750528,0.516411,0.942185,0.66382,0.454239,-0.0143973,0.365096,0.484348,0.0140671,0.405361,0.522191,0.0389856,0.379842,0.460386,0.0383364,0.556906,0.485752,0.30381,0.672413,0.55912,0.379018,0.670554,0.473987,0.100032,0.251234,0.558609,0.227886,0.164767,0.620576,0.195011,0.250353
,-0.000223172,0.00244173,-0.000312055,0.14891,0.52368,0.139659,0.514113,0.950186,0.443191,0.531129,0.993089,0.50241,0.84804,0.476367,0.857441,0.532872,0.903569,0.700231,0.419284,0.938656,0.691315,0.469666,-0.0512979,0.447997,0.503877,-0.0246168,0.43743,0.521905,0.0593312,0.392643,0.600779,0.0367416,0.531879,0.722061,0.177098,0.485922,0.727372,0.230607,0.40978,0.373708,0.0746831,0.366446,0.358086,0.212123,0.239035,0.455929,0.24878,0.335616
,-0.00191178,0.000880639,-0.00112963,-0.0417781,0.475602,0.506984,0.343341,0.931514,0.565319,0.379776,0.894927,0.688831,1.03755,0.522344,0.489042,0.637715,0.916848,0.553655,0.574673,0.966699,0.590982,0.531035,-0.0509475,0.402362,0.523535,-0.00725508,0.386445,0.5192,0.0244155,0.323779,0.663377,0.0228448,0.437819,0.807873,0.196915,0.413263,0.837126,0.216957,0.36478,0.372875,0.0546171,0.409445,0.250947,0.18882,0.35846,0.298355,0.199831,0.279233
,-0.000649344,0.000645783,0.00141457,0.122223,0.374746,0.894262,0.443616,0.900016,0.638378,0.517375,0.943331,0.620501,0.875863,0.623925,0.105635,0.563391,0.938951,0.388648,0.624218,0.928072,0.525605,0.57737,-0.0208181,0.454641,0.537905,0.000963651,0.406594,0.475888,0.0389388,0.423873,0.631201,0.113639,0.320148,0.632628,0.435865,0.298681,0.474679,0.423259,0.374417,0.453647,0.0536115,0.538698,0.287804,0.219452,0.58037,0.38107,0.283083,0.445752
,-0.00199255,0.00164239,-0.000110397,0.0530566,0.405428,0.765846,0.312271,0.903616,0.607678,0.408232,0.929472,0.656668,0.941787,0.592276,0.23025,0.57161,0.923935,0.52392,0.553898,0.961023,0.585032,0.535515,-0.0392573,0.416559,0.530661,-0.00487604,0.383948,0.517559,0.0347559,0.367677,0.668848,0.0568574,0.361334,0.758952,0.250867,0.257324,0.62978,0.230576,0.267655,0.391629,0.0356926,0.462882,0.258386,0.176503,0.446522,0.274429,0.211145,0.372565
,0.00171631,0.00369286,0.000571682,0.0343182,0.433048,0.72202,0.316294,0.903574,0.470951,0.383779,0.937726,0.514747,0.966741,0.56983,0.279875,0.635065,0.919044,0.477866,0.643703,0.934621,0.54083,0.270591,0.268461,0.133833,0.249739,0.412356,0.121784,0.224165,0.506063,0.123147,0.421407,0.411846,0.145232,0.603672,0.43424,0.27415,0.523547,0.519908,0.358603,0.175343,0.440462,0.227639,0.212735,0.508952,0.415462,0.250505,0.554765,0.386489
,0.0020306,0.00373336,9.25234e-06,0.681198,0.337476,0.927943,0.449896,0.834756,0.795454,0.576264,0.880462,0.651114,0.321908,0.666509,0.0731934,0.374368,0.922838,0.531138,0.49738,0.961626,0.520888,0.448248,-0.0154403,0.369922,0.412612,0.0170819,0.418349,0.374691,0.0497303,0.43651,0.403601,0.0768624,0.266885,0.362555,0.320209,0.176074,0.240823,0.305787,0.250556,0.487505,0.088869,0.558844,0.505741,0.343696,0.674675,0.416607,0.373742,0.620092
,9.29679e-05,-0.000892171,-0.00161678,1.00028,0.4381,0.616362,0.572833,0.915727,0.614444,0.529956,0.968926,0.552804,-0.00162527,0.559514,0.380243,0.306911,0.898516,0.607777,0.429344,0.951302,0.445106,0.490819,0.00406467,0.361013,0.484259,0.0119176,0.403844,0.504348,0.0386814,0.431263,0.354455,0.103752,0.399712,0.2663,0.389571,0.452497,0.247917,0.418914,0.615423,0.627209,0.108721,0.413471,0.747743,0.303866,0.520874,0.692867,0.27494,0.627155
,-0.00175873,0.000351115,-0.000464654,0.0305734,0.417857,0.686356,0.396129,0.908563,0.640721,0.465774,0.946111,0.668932,0.965468,0.579768,0.311285,0.638911,0.927402,0.554433,0.607869,0.971542,0.590622,0.522633,-0.0216561,0.414968,0.508614,0.00236495,0.392299,0.490089,0.0233627,0.393997,0.642612,0.051607,0.381463,0.776719,0.263936,0.365759,0.84473,0.344648,0.299698,0.378615,0.0575723,0.475348,0.245312,0.226574,0.589238,0.149293,0.291304,0.601353
,7.64407e-06,-0.002037,0.000569643,-0.00795302,0.424686,0.691197,0.385324,0.908035,0.631131,0.459322,0.932617,0.66757,1.00608,0.571325,0.307625,0.647996,0.929816,0.475152,0.636472,0.977106,0.510079,0.528797,-0.0500551,0.468002,0.472082,0.00860555,0.375444,0.444182,0.0367523,0.371196,0.60701,0.103164,0.360967,0.680544,0.421716,0.41668,0.525049,0.493465,0.398537,0.355167,0.133885,0.454304,0.306345,0.419845,0.531418,0.353949,0.495584,0.423686
,-0.000306518,0.00286441,0.00205035,0.290214,0.451513,0.933691,0.275394,0.914394,0.612493,0.369519,0.944632,0.615005,0.713603,0.554587,0.0736387,0.491758,0.941474,0.41842,0.543126,0.960227,0.528356,0.0862399,0.257118,0.398139,0.0444114,0.393073,0.356844,0.0492349,0.457842,0.386598,0.215169,0.400446,0.25635,0.461189,0.496185,0.308445,0.460017,0.571358,0.410743,0.0552733,0.448371,0.492972,0.190248,0.601879,0.643303,0.188266,0.66444,0.661231
,-0.00142783,0.00398521,0.000175867,0.0920034,0.436158,0.75322,0.228664,0.831374,0.375228,0.409096,0.818446,0.57272,0.904537,0.566231,0.245677,0.485414,0.849176,0.274863,0.557231,0.829426,0.51071,0.258262,0.297587,0.120917,0.264131,0.309804,0.12768,0.268481,0.344776,0.14199,0.415186,0.327864,0.136309,0.610738,0.443186,0.279416,0.660559,0.530983,0.381603,0.196575,0.386404,0.244857,0.15784,0.471447,0.427776,0.132809,0.54253,0.477591
,0.000382591,-0.00120942,0.000474846,-0.00499406,0.425633,0.687753,0.350127,0.910215,0.613213,0.410839,0.950491,0.633081,1.00404,0.57171,0.311279,0.614945,0.921386,0.520914,0.578637,0.967478,0.563556,0.478459,-0.0323247,0.35244,0.448163,0.025934,0.304959,0.439179,0.0509374,0.318135,0.592967,0.111247,0.298838,0.6607,0.425061,0.363758,0.524181,0.517238,0.35892,0.331003,0.129302,0.401251,0.302847,0.398976,0.527198,0.332727,0.526676,0.437669
,0.00085652,1.3463e-05,0.000257269,0.124901,0.384025,0.837601,0.323311,0.925828,0.62352,0.396472,0.957044,0.663515,0.876451,0.615547,0.163163,0.571541,0.94973,0.547659,0.564085,0.976303,0.611167,0.587253,-0.0234743,0.462707,0.473068,-0.00394322,0.478257,0.423096,0.0568102,0.459433,0.569177,0.0443989,0.374621,0.568265,0.228048,0.235194,0.490181,0.279022,0.252783,0.412403,0.140637,0.576802,0.386941,0.449686,0.626651,0.344742,0.580036,0.606287
,0.000948395,0.00326804,0.00138528,0.0778379,0.420593,0.779548,0.34012,0.921127,0.58119,0.435959,0.950861,0.615905,0.921865,0.581318,0.220599,0.563195,0.931589,0.460242,0.556068,0.979447,0.522452,0.40274,0.0300902,0.310196,0.363031,0.0796416,0.270944,0.329309,0.163454,0.271244,0.51434,0.131963,0.239785,0.575153,0.331543,0.164958,0.424252,0.314883,0.233706,0.265344,0.143055,0.374757,0.153243,0.322908,0.420891,0.193481,0.327087,0.34479
,-0.000864315,0.000579756,0.00183251,0.0189245,0.449822,0.638807,0.352703,0.940824,0.53805,0.41685,0.978139,0.575888,0.978708,0.548802,0.360952,0.637759,0.928118,0.536241,0.603279,0.965323,0.604307,0.441405,-0.0156829,0.373445,0.405104,0.0322968,0.313948,0.37854,0.114704,0.302048,0.553127,0.0988828,0.302504,0.616951,0.360731,0.214636,0.444054,0.362116,0.274851,0.294868,0.13235,0.386606,0.184591,0.328053,0.40488,0.286197,0.373393,0.339965
,-0.00115026,0.00128387,0.00108557,0.00153202,0.508818,0.577437,0.413946,0.94061,0.580855,0.478115,0.974144,0.611416,0.995265,0.490304,0.421325,0.681859,0.898423,0.538138,0.659017,0.957895,0.58824,0.359759,0.0210163,0.363262,0.341144,0.0945422,0.287747,0.352307,0.205582,0.23316,0.498902,0.126671,0.298701,0.592924,0.404313,0.284561,0.449618,0.423881,0.342774,0.241661,0.216571,0.35547,0.157289,0.396382,0.385269,0.314407,0.42794,0.358872
,0.000305321,-0.00182687,0.000936247,0.0428717,0.408542,0.650169,0.312705,0.918799,0.547969,0.373585,0.961967,0.606732,0.956029,0.587993,0.349379,0.588844,0.926252,0.595454,0.546066,0.967528,0.6452,0.535078,-0.0311433,0.476791,0.517504,-0.00259212,0.414496,0.503356,0.0306699,0.418213,0.638904,0.114406,0.395018,0.644019,0.448959,0.365896,0.531786,0.47437,0.318902,0.383504,0.112473,0.464105,0.304385,0.38629,0.481307,0.326936,0.456917,0.374226
,0.000136367,-0.00160656,2.50089e-05,0.0965571,0.416302,0.780185,0.434889,0.914209,0.638097,0.508418,0.950923,0.658656,0.903129,0.581685,0.219833,0.599859,0.934501,0.461405,0.596064,0.980989,0.512685,0.499361,-0.0173974,0.460074,0.438253,0.0176202,0.399325,0.407883,0.0578075,0.375086,0.558762,0.120609,0.340541,0.629299,0.442579,0.369898,0.484253,0.535557,0.396081,0.361741,0.131144,0.512931,0.353507,0.403121,0.628657,0.352986,0.510876,0.517961
,-0.000935857,-0.00199944,-0.00046156,-0.0333575,0.430638,0.683321,0.404904,0.914686,0.635639,0.478489,0.946628,0.654133,1.03052,0.565644,0.314444,0.619634,0.930498,0.478999,0.587673,0.988922,0.492889,0.465482,-0.0574714,0.439399,0.416404,0.0396363,0.326114,0.377748,0.0968181,0.281118,0.559763,0.108344,0.33317,0.65164,0.41264,0.417266,0.524915,0.514731,0.407962,0.305438,0.170849,0.393165,0.280542,0.455795,0.394418,0.334144,0.502551,0.298727
,0.00085715,-0.000742451,0.000110552,0.00298968,0.443348,0.647302,0.389065,0.910513,0.625955,0.461789,0.931537,0.667588,0.995958,0.554255,0.351313,0.600645,0.914555,0.507152,0.553789,0.980867,0.502692,0.458074,-0.00256261,0.399341,0.398589,0.08249,0.295835,0.351709,0.181764,0.257456,0.54667,0.131473,0.313979,0.673026,0.396513,0.39097,0.559037,0.464648,0.327442,0.298135,0.212283,0.367736,0.272709,0.481965,0.418619,0.319227,0.516679,0.326189
,-0.0012753,-0.001009,0.000123611,-0.0181191,0.438458,0.678224,0.40832,0.904098,0.658303,0.476271,0.9363,0.677277,1.01528,0.558977,0.320341,0.620648,0.92168,0.500349,0.580613,0.979882,0.522218,0.491466,-0.0504718,0.477585,0.451807,0.0115037,0.37302,0.391655,0.0895119,0.322136,0.590549,0.0924062,0.35928,0.673636,0.400077,0.416003,0.537298,0.475065,0.40259,0.334084,0.123005,0.446334,0.271642,0.400825,0.413871,0.328721,0.345535,0.372114
,-0.000498152,-0.00293837,0.00123007,0.00854179,0.440853,0.683955,0.392798,0.937913,0.62573,0.462873,0.974237,0.642509,0.989542,0.554787,0.316051,0.689506,0.940233,0.47895,0.673831,0.971918,0.557886,0.512633,-0.0422728,0.484337,0.440257,0.0122672,0.405819,0.415985,0.0491373,0.403096,0.573476,0.104816,0.3924,0.681597,0.414812,0.437676,0.524663,0.49787,0.41845,0.33982,0.148679,0.472008,0.295374,0.433196,0.556609,0.356004,0.518325,0.443166
,4.37811e-05,-0.00112217,0.000948191,0.0325871,0.412928,0.765841,0.386269,0.90586,0.643345,0.467476,0.931808,0.675666,0.966052,0.584241,0.233851,0.615529,0.924372,0.484968,0.591297,0.97375,0.532859,0.534718,-0.0539939,0.430045,0.496615,0.000299372,0.366983,0.467637,0.0272628,0.365768,0.622194,0.107479,0.339431,0.674443,0.432761,0.393048,0.512163,0.483416,0.386906,0.373752,0.1003,0.458271,0.28922,0.383142,0.505618,0.353527,0.392068,0.392338
,-0.000379324,0.00247896,0.000794391,0.23232,0.413675,0.898702,0.383663,0.894581,0.671845,0.55804,0.853568,0.682522,0.763635,0.58462,0.0977523,0.525438,0.906461,0.525919,0.523113,0.953143,0.552555,0.520084,0.0301113,0.496519,0.548399,0.0403627,0.415326,0.513678,0.0749981,0.396705,0.612064,0.180964,0.352192,0.598525,0.492788,0.346596,0.442052,0.487317,0.416139,0.45888,0.065606,0.507238,0.338115,0.149205,0.506432,0.345089,0.143175,0.43496
,0.000168006,-0.00118209,-0.000152415,-0.0330751,0.463541,0.543109,0.426404,0.901551,0.640565,0.49474,0.921217,0.686475,1.03253,0.534536,0.456714,0.619264,0.914116,0.472671,0.548705,0.980053,0.473677,0.495437,-0.0389805,0.450851,0.505599,0.00705447,0.375642,0.502038,0.0330829,0.355175,0.630226,0.0954136,0.415966,0.685148,0.414224,0.494211,0.539646,0.47912,0.446495,0.364206,0.125255,0.397688,0.311675,0.412103,0.413671,0.445573,0.407168,0.380648
,-0.000816908,-4.13299e-05,-0.00172784,0.128574,0.547014,0.114678,0.426807,0.959491,0.46809,0.434002,0.989493,0.532051,0.86852,0.450893,0.881619,0.631927,0.890868,0.717258,0.531785,0.925438,0.724242,0.433842,-0.0545756,0.418217,0.510829,-0.0130779,0.417766,0.524614,0.0233833,0.359911,0.583327,0.0597203,0.54868,0.598222,0.402575,0.605641,0.587879,0.463928,0.472213,0.404633,0.0677331,0.306648,0.50189,0.242205,0.212192,0.609392,0.263201,0.296021
,0.00178429,0.00141135,-0.000601368,-0.0448898,0.425113,0.495252,0.326241,0.917659,0.514093,0.395909,0.871851,0.679793,1.04515,0.575033,0.50304,0.612563,0.923359,0.556376,0.53243,0.962366,0.590475,0.568391,-0.0436223,0.369655,0.562968,0.0483604,0.277745,0.522338,0.151109,0.193205,0.683115,0.130527,0.33062,0.708422,0.442525,0.458922,0.571565,0.502825,0.406366,0.408641,0.133384,0.317667,0.342389,0.424855,0.382368,0.473288,0.434289,0.344579
,-0.000736518,0.000362143,0.00205938,0.303683,0.332886,0.950795,0.393105,0.875529,0.694912,0.48261,0.928121,0.667798,0.693442,0.663993,0.0481445,0.496984,0.92918,0.499995,0.562945,0.959244,0.563118,0.561189,-0.00280129,0.362664,0.51842,0.0199172,0.339733,0.468919,0.0378242,0.366468,0.573258,0.148501,0.25839,0.589312,0.466661,0.317698,0.446939,0.475008,0.380863,0.476713,0.0714853,0.48778,0.338076,0.295086,0.589051,0.380862,0.29632,0.451464
,-0.00035303,-0.000554467,-0.00118257,0.925764,0.386298,0.726002,0.546751,0.897073,0.616126,0.524253,0.962396,0.554666,0.0737729,0.612958,0.272145,0.317001,0.911101,0.56164,0.471888,0.946628,0.395343,0.490692,0.0575025,0.293921,0.461952,0.0339678,0.365672,0.48519,0.0628316,0.412893,0.367694,0.155727,0.339522,0.340154,0.469096,0.39622,0.405172,0.444779,0.552988,0.587622,0.118759,0.418991,0.670027,0.2457,0.59381,0.56992,0.231652,0.648724
,0.0014857,3.92939e-05,-0.001119,1.01454,0.457061,0.451856,0.664213,0.86086,0.711941,0.608714,0.931689,0.576648,-0.0140179,0.541901,0.546284,0.432275,0.909377,0.614966,0.486496,0.971028,0.526074,0.463375,-0.00151742,0.394833,0.449282,0.00582769,0.447443,0.476894,0.0342253,0.487642,0.339651,0.109153,0.467581,0.281891,0.397994,0.565931,0.389808,0.368085,0.654221,0.590729,0.0907835,0.42778,0.735453,0.247487,0.538066,0.686886,0.198159,0.640657
,0.00109928,0.000172208,-0.000243651,0.926302,0.515013,0.18619,0.582398,0.938614,0.492737,0.49628,0.971227,0.438446,0.074852,0.4849,0.813005,0.457381,0.85397,0.780579,0.452725,0.934135,0.700617,0.433347,0.0270004,0.331991,0.46589,0.0155787,0.367856,0.519806,0.0618349,0.396849,0.370843,0.0697202,0.448309,0.32552,0.168342,0.624287,0.428569,0.189514,0.570251,0.56934,0.152131,0.303223,0.722322,0.339416,0.388815,0.606715,0.303997,0.500629
,0.000529103,0.00204543,0.000128315,0.702201,0.529932,0.0119018,0.580892,0.921319,0.523229,0.514808,0.960337,0.535471,0.295737,0.469832,0.986009,0.479446,0.871404,0.774166,0.335212,0.902356,0.630194,0.406617,-0.00629194,0.37866,0.434586,0.00755329,0.410252,0.484147,0.0554811,0.407083,0.423079,0.0695425,0.546159,0.507606,0.259649,0.649328,0.585334,0.328346,0.632863,0.448711,0.115996,0.281758,0.541168,0.260481,0.17559,0.608031,0.244,0.238186
,0.00188026,0.000888709,0.000282888,0.826891,0.544697,0.0796116,0.674318,0.914665,0.543206,0.537301,0.948094,0.500629,0.172665,0.45417,0.918214,0.491291,0.888774,0.698059,0.458061,0.959048,0.578033,0.421425,0.0243121,0.378729,0.423946,0.0191198,0.396989,0.463645,0.0556768,0.428497,0.364811,0.0727744,0.500181,0.388334,0.102499,0.682205,0.468096,0.0791531,0.648555,0.50984,0.119507,0.299637,0.666752,0.171397,0.345917,0.678112,0.133995,0.438514
,0.000742434,0.00165586,0.000151446,0.823041,0.387405,0.855238,0.576136,0.881065,0.661622,0.600374,0.931287,0.554495,0.175534,0.611049,0.141783,0.382721,0.895779,0.548971,0.471916,0.955754,0.510716,0.526572,0.0342225,0.385982,0.519845,0.0285485,0.40098,0.488629,0.0502809,0.419559,0.463654,0.101448,0.304078,0.351565,0.198222,0.289421,0.342311,0.145775,0.361504,0.611947,0.106287,0.502295,0.575366,0.162418,0.594259,0.514258,0.206074,0.597735
,0.000101786,0.00623966,0.000110302,0.392638,0.440617,0.989525,0.390146,0.879256,0.658201,0.494225,0.917715,0.614531,0.608025,0.565138,0.0109639,0.402011,0.908232,0.405368,0.56106,0.89871,0.49065,0.269841,0.0807082,0.497569,0.246583,0.111281,0.476833,0.259152,0.205134,0.438618,0.318863,0.145106,0.370581,0.344634,0.278188,0.271885,0.276022,0.300839,0.251828,0.276359,0.16412,0.563795,0.224297,0.226409,0.625555,0.223507,0.234827,0.548622
,-0.00021589,0.00185529,0.00131203,0.0118589,0.428567,0.684021,0.364294,0.929512,0.610035,0.438997,0.948746,0.655735,0.987979,0.57294,0.317556,0.670038,0.938231,0.510958,0.667213,0.956209,0.584184,0.547439,-0.0477186,0.521799,0.530422,-0.0153758,0.463856,0.512513,0.0242445,0.427173,0.652355,0.0697811,0.430396,0.731329,0.312127,0.32235,0.62837,0.309297,0.268455,0.391521,0.0658642,0.521444,0.229115,0.256003,0.507783,0.282961,0.274234,0.405921
,-0.000145414,-0.00202652,-0.00110026,0.964121,0.489256,0.296281,0.6239,0.938651,0.532658,0.543629,0.980643,0.512532,0.0327651,0.505422,0.698873,0.404874,0.908601,0.645439,0.423611,0.97911,0.552134,0.494775,-0.00498082,0.347733,0.496178,0.0102207,0.362574,0.515502,0.0259859,0.40069,0.362459,0.0536207,0.415104,0.22477,0.216748,0.507378,0.130881,0.273487,0.602389,0.62452,0.124553,0.298061,0.751226,0.315697,0.298738,0.85601,0.365984,0.328232
,-0.00201985,-0.000942393,-0.0031503,0.783093,0.600118,0.0839935,0.707674,0.88055,0.589481,0.616068,0.942362,0.571895,0.214239,0.397666,0.912586,0.524306,0.843084,0.709303,0.470396,0.927113,0.579891,0.715169,0.0814436,0.434361,0.780878,0.125448,0.449733,0.798291,0.185281,0.449351,0.651727,0.121451,0.551835,0.508507,0.288942,0.689946,0.529783,0.417168,0.720014,0.786667,0.276783,0.35066,0.753867,0.529047,0.350325,0.803372,0.558364,0.46958
,-0.00362904,-0.00594332,-0.0040377,0.939278,0.568789,0.248026,0.749299,0.815391,0.709502,0.577031,0.875712,0.546212,0.0552997,0.422698,0.745126,0.498299,0.745111,0.856445,0.455607,0.885881,0.661162,0.752544,0.210714,0.772542,0.739018,0.253983,0.81646,0.735791,0.291892,0.782311,0.585641,0.261832,0.806003,0.407504,0.407761,0.786336,0.367065,0.521279,0.813756,0.81594,0.344678,0.688575,0.86421,0.498965,0.613878,0.883923,0.559708,0.64196
,-0.00451043,-0.00415113,-0.0028464,0.945526,0.530566,0.252699,0.725953,0.862907,0.66371,0.597224,0.928475,0.582444,0.048714,0.462912,0.742071,0.472642,0.810386,0.798888,0.453952,0.916533,0.629469,0.665858,0.0609006,0.661612,0.668436,0.0901362,0.705833,0.671797,0.135785,0.697053,0.515617,0.141074,0.703496,0.369439,0.395171,0.648396,0.434361,0.510322,0.697153,0.761048,0.196296,0.603767,0.78211,0.433465,0.508922,0.794449,0.501256,0.631398
,0.00133015,0.00129464,-0.000860854,0.984232,0.491799,0.334378,0.63697,0.927366,0.537433,0.57318,0.975061,0.511601,0.0166747,0.509394,0.66478,0.415822,0.901379,0.64111,0.444473,0.971158,0.555864,0.490032,0.0298642,0.326288,0.454581,0.02502,0.357488,0.489481,0.0542237,0.357218,0.355809,0.121809,0.421924,0.314338,0.397658,0.539075,0.442521,0.40335,0.61592,0.588803,0.109935,0.33046,0.688522,0.134699,0.496115,0.601522,0.111901,0.532377
,0.000148385,0.000230562,-0.0013565,1.00331,0.460607,0.374427,0.694746,0.860597,0.675115,0.629927,0.935519,0.642146,-0.00342491,0.538791,0.623834,0.44382,0.902042,0.641999,0.474179,0.967448,0.525033,0.475275,-0.0130358,0.428164,0.482132,-0.00253928,0.485563,0.532275,0.0478906,0.529907,0.361474,0.0614882,0.529512,0.394061,0.230063,0.703604,0.472323,0.21599,0.742706,0.631118,0.0864115,0.44808,0.738378,0.211762,0.58847,0.697075,0.211534,0.690654
,-0.000670599,-0.00210244,-0.00247429,0.992897,0.477043,0.398378,0.61214,0.903847,0.617039,0.53137,0.962372,0.573733,0.00530908,0.518816,0.59704,0.387951,0.875232,0.694212,0.409923,0.960683,0.594932,0.521137,0.00391762,0.448764,0.53278,0.00406548,0.518997,0.565414,0.0647704,0.533818,0.406512,0.0683583,0.54296,0.324393,0.292022,0.664321,0.413732,0.288821,0.727421,0.658412,0.114632,0.475968,0.770697,0.295717,0.567243,0.713565,0.280927,0.658485
,9.74092e-05,-0.00170957,-0.00264941,1.0153,0.498753,0.421284,0.602671,0.901585,0.651742,0.526282,0.96294,0.5942,-0.0185718,0.49597,0.571916,0.361868,0.872624,0.678887,0.401234,0.959177,0.601531,0.57486,-0.00157103,0.567935,0.559262,0.0440775,0.673326,0.584081,0.137803,0.694553,0.429762,0.114892,0.669299,0.373432,0.316633,0.767231,0.501901,0.319178,0.735677,0.683373,0.151546,0.608213,0.743355,0.336063,0.69849,0.602162,0.316586,0.709943
,-0.00290937,-0.00234938,-0.00312808,1.00393,0.500212,0.40308,0.637322,0.9039,0.637424,0.563894,0.961448,0.591293,-0.00825554,0.49529,0.591744,0.38178,0.889615,0.648971,0.42655,0.967424,0.556269,0.569446,0.00734386,0.53415,0.578115,0.0324068,0.623685,0.612225,0.0939211,0.648317,0.443819,0.098849,0.616367,0.340217,0.382279,0.585313,0.417141,0.449356,0.684098,0.690964,0.158112,0.55447,0.756114,0.410918,0.517549,0.685288,0.437918,0.658931
,0.000248166,-0.000170737,-0.000793801,0.984223,0.453133,0.377515,0.683837,0.900903,0.592786,0.62407,0.961103,0.564587,0.0168373,0.54719,0.622534,0.454251,0.911508,0.61281,0.492748,0.980041,0.530458,0.444234,0.0480911,0.328642,0.436997,0.0281458,0.389387,0.489096,0.0684636,0.393552,0.34172,0.13724,0.422955,0.325669,0.452956,0.489304,0.414156,0.450449,0.603886,0.574817,0.117585,0.402436,0.678595,0.299775,0.582828,0.680651,0.320905,0.716387
,0.000279146,0.000164421,-0.00134491,0.994905,0.475179,0.320312,0.683703,0.907034,0.583244,0.617948,0.960911,0.56522,0.0052059,0.524088,0.677835,0.436575,0.911094,0.627257,0.479714,0.975336,0.534271,0.414209,0.022473,0.321177,0.448386,0.0193694,0.369377,0.499352,0.0494491,0.404881,0.332819,0.0664053,0.432081,0.301227,0.231033,0.622539,0.394376,0.204236,0.616509,0.583899,0.134442,0.339984,0.668287,0.390306,0.473602,0.596806,0.36331,0.608594
,0.000328406,-0.00161132,-0.00138145,1.00303,0.4672,0.403237,0.675505,0.906074,0.621132,0.609265,0.963412,0.5867,-0.00301313,0.530168,0.594381,0.414115,0.911042,0.634041,0.464764,0.981559,0.55701,0.477857,-0.00949829,0.439545,0.477712,0.000173137,0.51547,0.494646,0.0580144,0.547431,0.363079,0.080404,0.518807,0.296522,0.368787,0.594262,0.338457,0.296011,0.676751,0.619731,0.105151,0.492282,0.710096,0.34513,0.605572,0.645924,0.313077,0.688975
,0.000605425,-0.000641258,-0.00163632,1.02579,0.472622,0.392844,0.628023,0.930762,0.564181,0.556427,0.980687,0.542619,-0.0255063,0.526283,0.60513,0.356402,0.91443,0.628952,0.403976,0.976515,0.533435,0.443973,0.00810826,0.342964,0.477151,0.0125428,0.384715,0.529053,0.0363325,0.423054,0.355085,0.0546721,0.438946,0.304866,0.201632,0.627722,0.396271,0.182782,0.676752,0.602233,0.137936,0.364885,0.674254,0.381812,0.516304,0.571864,0.378206,0.636107
,-0.00292712,-0.0018281,-0.00217382,1.02386,0.468522,0.441128,0.632315,0.920086,0.613301,0.558826,0.970981,0.582112,-0.0276536,0.528016,0.555453,0.360699,0.903667,0.642674,0.427343,0.972545,0.535355,0.484282,-0.0291288,0.43984,0.513129,-0.00788186,0.507987,0.549696,0.0350981,0.536443,0.379626,0.0647532,0.51575,0.325945,0.398948,0.511521,0.41582,0.461004,0.620155,0.647701,0.123225,0.461172,0.694258,0.422155,0.455958,0.647076,0.493864,0.601471
,-0.00117558,-0.000451346,-0.00159838,1.00289,0.435333,0.595982,0.575759,0.90675,0.64419,0.525585,0.964662,0.596494,-0.0054467,0.562751,0.40044,0.355393,0.903305,0.630223,0.493983,0.935456,0.429809,0.485883,0.00348963,0.367365,0.470904,0.00299934,0.410836,0.515416,0.0495376,0.459368,0.355699,0.100219,0.400159,0.3276,0.427744,0.447523,0.406377,0.397351,0.566202,0.616242,0.0842789,0.42161,0.742588,0.206512,0.541982,0.699312,0.198212,0.644744
,-0.00281255,-0.00215524,-0.00149423,0.758496,0.521651,0.0476081,0.689746,0.886666,0.535091,0.574784,0.946402,0.500096,0.238261,0.474767,0.949548,0.468846,0.894065,0.653267,0.46339,0.970121,0.559967,0.419243,0.01439,0.433736,0.479773,0.00460938,0.461345,0.51032,0.051692,0.461831,0.426699,0.0839296,0.588808,0.469053,0.378796,0.674206,0.516436,0.369717,0.608675,0.525532,0.133064,0.330972,0.528764,0.416964,0.288816,0.575743,0.442619,0.393387
,-0.000883756,0.000709909,-0.000317883,0.390377,0.579373,0.0108765,0.468749,0.932545,0.518256,0.423409,0.95932,0.576219,0.606133,0.418945,0.986731,0.65046,0.864367,0.72845,0.62289,0.948622,0.679104,0.375713,0.019351,0.427637,0.423276,0.0108424,0.445577,0.462061,0.0569878,0.418601,0.460269,0.0514829,0.569172,0.522301,0.226122,0.655565,0.587366,0.304416,0.640738,0.386982,0.12472,0.320759,0.467169,0.220228,0.208737,0.557535,0.26034,0.176295
,-0.00178954,0.000273235,0.000559914,0.0688689,0.527475,0.305741,0.407185,0.947965,0.471591,0.444904,0.9685,0.55631,0.925445,0.468562,0.690197,0.628268,0.880874,0.657164,0.533193,0.917859,0.691235,0.472677,-0.0113961,0.453135,0.492117,-0.00234254,0.433044,0.496403,0.0496299,0.385444,0.604105,0.0486181,0.506209,0.75497,0.19561,0.498797,0.802111,0.183382,0.445917,0.370762,0.094991,0.408909,0.280845,0.216049,0.319056,0.330323,0.201344,0.25554
,-0.000185407,0.000671235,0.00152791,0.152225,0.398471,0.829148,0.42963,0.907321,0.652047,0.532943,0.892203,0.72246,0.845575,0.599412,0.170335,0.56965,0.928815,0.508839,0.559853,0.978406,0.557059,0.541177,-0.0161231,0.439098,0.526635,0.00507349,0.408276,0.492338,0.0416109,0.419502,0.639011,0.093796,0.358411,0.739355,0.335534,0.324355,0.651194,0.336574,0.256277,0.427015,0.0645711,0.51124,0.272646,0.258155,0.538747,0.382713,0.295383,0.433614
,-0.00064766,0.00138055,-6.86463e-05,0.57674,0.359378,0.97029,0.501051,0.905009,0.688587,0.55216,0.95564,0.616993,0.421321,0.639327,0.0269573,0.427312,0.953262,0.438879,0.507975,0.991956,0.452303,0.535715,-0.043502,0.391693,0.50133,-0.0105757,0.393488,0.462381,0.0170247,0.405937,0.51566,0.0819068,0.270612,0.444836,0.257271,0.172976,0.363334,0.244555,0.210586,0.543307,0.0445265,0.544749,0.459708,0.174462,0.681663,0.389682,0.203467,0.66046
,0.00139747,0.00293511,-0.00158242,0.849936,0.373664,0.847533,0.463774,0.853263,0.742849,0.508015,0.923353,0.669231,0.150152,0.627514,0.148916,0.466041,0.931036,0.522078,0.586145,0.961442,0.465942,0.503082,0.0396505,0.339299,0.465063,0.0332545,0.356794,0.452314,0.0902778,0.383201,0.384461,0.112653,0.316124,0.246719,0.239907,0.407003,0.243911,0.217651,0.517862,0.581181,0.0549719,0.420895,0.640891,0.150079,0.598063,0.53794,0.186444,0.620988
,0.00365414,0.00265924,-0.000582511,1.01581,0.489899,0.384881,0.67889,0.901207,0.627473,0.608336,0.940482,0.494169,-0.0119843,0.512852,0.61584,0.415271,0.896997,0.639531,0.449291,0.964236,0.539911,0.451772,-0.00271051,0.341808,0.454371,0.0157171,0.371152,0.497155,0.0193594,0.397947,0.327775,0.0588096,0.395292,0.217274,0.208292,0.520697,0.150733,0.183321,0.572071,0.596154,0.0858426,0.326525,0.724792,0.157088,0.467421,0.704233,0.138269,0.526753
,0.000232307,0.000146681,-0.00122351,0.848679,0.533554,0.0599936,0.587025,0.933808,0.545545,0.509775,0.971203,0.55562,0.151734,0.466523,0.938446,0.506588,0.862755,0.808227,0.396536,0.9178,0.60574,0.389445,-0.00238654,0.290338,0.451755,0.00439022,0.347372,0.5229,0.0410638,0.372025,0.380159,0.0521384,0.493094,0.447303,0.258893,0.653959,0.543086,0.246489,0.602659,0.53616,0.13386,0.239791,0.70069,0.293871,0.316761,0.624651,0.262698,0.460791
,0.00217187,0.00149579,-0.00134991,0.95284,0.514433,0.227918,0.732557,0.889045,0.608148,0.613811,0.946694,0.510086,0.0503739,0.487631,0.772224,0.468053,0.902804,0.675021,0.464965,0.970726,0.56164,0.459107,-0.00455783,0.353229,0.45834,0.00855777,0.389407,0.474616,0.0265105,0.423422,0.335992,0.0423155,0.4471,0.266806,0.164186,0.621647,0.358736,0.168483,0.635586,0.586229,0.0800348,0.312492,0.751281,0.194825,0.395737,0.723725,0.164493,0.486756
,-0.00200912,0.000119007,-0.0040774,0.958393,0.574549,0.22669,0.679514,0.894299,0.650066,0.596423,0.961297,0.614381,0.0388152,0.423879,0.768474,0.380144,0.869024,0.742806,0.365737,0.951711,0.588263,0.700581,0.0766182,0.600052,0.704333,0.183002,0.729679,0.735181,0.286554,0.754035,0.547715,0.206446,0.741512,0.433845,0.359814,0.668435,0.519837,0.456159,0.642319,0.793473,0.268995,0.61019,0.828632,0.476673,0.562101,0.734953,0.430148,0.691542
,0.000256631,0.00126233,-0.000608369,0.484075,0.52042,-0.0310389,0.572626,0.947597,0.414984,0.435565,0.958156,0.456482,0.515415,0.480671,1.03042,0.573887,0.914809,0.714123,0.511123,0.977937,0.63046,0.487924,-0.0701201,0.435273,0.551085,-0.0239165,0.462521,0.594865,0.026422,0.41589,0.540959,0.040799,0.616399,0.607871,0.258597,0.703343,0.663163,0.282515,0.630424,0.507331,0.077897,0.311796,0.564241,0.225127,0.20708,0.644518,0.221159,0.300805
,-0.000331599,-0.000455571,0.000394589,0.0441056,0.514318,0.294598,0.426154,0.947843,0.531911,0.46677,0.973665,0.617819,0.952158,0.481719,0.702085,0.720055,0.906941,0.599062,0.526704,0.880864,0.709876,0.463678,-0.0382243,0.411591,0.493373,1.35154e-05,0.381084,0.479962,0.0468784,0.352403,0.615135,0.067466,0.455505,0.716739,0.358952,0.524628,0.724209,0.427007,0.403677,0.353837,0.104082,0.371507,0.232557,0.338433,0.402095,0.309275,0.364477,0.314094
,-0.000901311,-0.00187776,-0.00136421,0.97429,0.482676,0.301914,0.622969,0.931895,0.541035,0.551854,0.977693,0.523519,0.0224717,0.512387,0.693494,0.392754,0.90074,0.675724,0.417181,0.976378,0.579757,0.490023,-0.0310009,0.401559,0.489956,-0.00670179,0.416298,0.508982,0.00881503,0.444197,0.353934,0.0416449,0.463758,0.223581,0.226782,0.545378,0.152029,0.285349,0.657509,0.626159,0.0951973,0.33737,0.749273,0.285822,0.318996,0.835449,0.346647,0.363842
,-0.000797966,-0.00172346,-0.00108448,0.988667,0.47951,0.296277,0.631593,0.916136,0.56899,0.551332,0.967372,0.537023,0.0098702,0.517537,0.701726,0.385549,0.859135,0.764858,0.3942,0.94375,0.676671,0.471585,-0.0172995,0.384476,0.516089,0.00265893,0.445572,0.543696,0.0219471,0.452934,0.388317,0.0761559,0.505216,0.340717,0.388482,0.582582,0.47626,0.444285,0.632804,0.636613,0.147704,0.395516,0.693131,0.427071,0.488253,0.638142,0.438109,0.628193
,-0.00172339,-0.000490177,-0.00302719,0.716597,0.579879,0.0863568,0.70588,0.8863,0.548917,0.648262,0.947161,0.593305,0.279481,0.417389,0.908764,0.495223,0.829345,0.771433,0.498049,0.932334,0.660414,0.841986,0.201389,0.563545,0.881132,0.330078,0.602355,0.89496,0.374734,0.59447,0.736972,0.304855,0.695155,0.597211,0.487503,0.746991,0.603302,0.609814,0.735548,0.864953,0.460211,0.468075,0.792914,0.660015,0.456627,0.77908,0.735952,0.493738
,-0.00224902,-0.00405207,-0.00144899,0.903056,0.537697,0.216864,0.801793,0.750992,0.650672,0.57305,0.794782,0.508185,0.091563,0.454387,0.777337,0.552473,0.657209,0.867989,0.488763,0.811376,0.605759,0.735026,0.185519,0.733552,0.737425,0.201597,0.743511,0.745149,0.255479,0.731439,0.582982,0.213052,0.753122,0.407775,0.337486,0.744968,0.394063,0.433739,0.750407,0.807266,0.306906,0.617526,0.830721,0.468378,0.544354,0.868202,0.498611,0.584624
,-0.00198904,-0.00146443,-0.00183181,0.983208,0.511299,0.258536,0.673126,0.927049,0.542578,0.601963,0.972681,0.53205,0.0151697,0.486964,0.739978,0.420539,0.89395,0.661858,0.4424,0.966417,0.577325,0.510818,-0.0213438,0.376424,0.532416,-0.000979148,0.460067,0.558801,0.0205165,0.482366,0.404689,0.0686496,0.527135,0.354677,0.395532,0.589959,0.464115,0.462846,0.664384,0.643988,0.144382,0.387269,0.679124,0.440203,0.416156,0.65347,0.513616,0.564988
,-0.00188823,-0.00124307,-0.00121187,0.861388,0.519714,0.139073,0.688182,0.906872,0.52293,0.613601,0.963167,0.500194,0.137208,0.479002,0.860045,0.478189,0.891035,0.668088,0.469729,0.966736,0.560104,0.417619,0.0480946,0.33622,0.500137,0.0354117,0.359416,0.552115,0.0739196,0.37825,0.40899,0.0731365,0.472246,0.43096,0.23115,0.651742,0.524784,0.236329,0.62437,0.570673,0.2007,0.29572,0.592856,0.483701,0.336132,0.647601,0.598919,0.463927
,-0.00189643,-0.00218529,-0.00177046,0.954762,0.514947,0.265338,0.686593,0.873651,0.651054,0.585461,0.946974,0.577723,0.0401237,0.478648,0.728962,0.461971,0.838739,0.755535,0.46336,0.937954,0.645267,0.590512,0.0314674,0.546318,0.597822,0.0491839,0.606336,0.637667,0.12656,0.614115,0.477116,0.0993931,0.642702,0.489947,0.31584,0.727291,0.585654,0.331046,0.713872,0.704792,0.143908,0.525128,0.782019,0.315895,0.603776,0.801821,0.283711,0.690079
,-0.000934881,-0.00175565,-0.00375819,1.00086,0.484511,0.359001,0.662059,0.896282,0.604629,0.599822,0.954658,0.580954,-0.00295749,0.511849,0.635268,0.383125,0.891829,0.628443,0.417545,0.967207,0.531785,0.553016,0.00529948,0.54192,0.565259,0.0176728,0.58527,0.608153,0.0920011,0.590082,0.435825,0.0745848,0.622623,0.399132,0.260114,0.777592,0.522528,0.2652,0.758428,0.689382,0.121488,0.524758,0.776855,0.299893,0.63773,0.652892,0.29298,0.680492
,-0.00166183,-0.00266403,-0.00432917,1.01026,0.542124,0.400537,0.610091,0.91669,0.634122,0.542122,0.974322,0.57926,-0.0140814,0.452022,0.591677,0.32685,0.879457,0.634139,0.368405,0.959553,0.509362,0.623845,0.0213685,0.604564,0.611829,0.0445347,0.674134,0.635831,0.116568,0.668295,0.466423,0.0951515,0.669574,0.376518,0.302812,0.734782,0.487835,0.31002,0.742385,0.732137,0.156121,0.61634,0.771237,0.356087,0.698715,0.654345,0.319719,0.724883
,-0.000232902,-0.00188884,-0.00119097,0.977418,0.483845,0.293293,0.70086,0.888595,0.619251,0.633494,0.951958,0.586157,0.0223122,0.513596,0.705201,0.438634,0.90545,0.610885,0.460751,0.97463,0.513606,0.431588,0.0427916,0.297413,0.455653,0.0268372,0.377268,0.476411,0.0455292,0.408723,0.354347,0.119836,0.455799,0.367987,0.410299,0.591492,0.457568,0.395477,0.667662,0.587046,0.153928,0.343875,0.685314,0.397567,0.469303,0.663876,0.372153,0.605209
,-0.00245724,-0.00160298,-0.000914758,0.923536,0.531976,0.180365,0.591749,0.937979,0.530558,0.510861,0.979243,0.532562,0.0733306,0.465289,0.817744,0.434085,0.867464,0.749419,0.426229,0.954036,0.646173,0.504174,0.00103957,0.325716,0.550447,0.0111906,0.405931,0.594793,0.0292485,0.440654,0.432128,0.0726502,0.507696,0.37723,0.388253,0.594887,0.500424,0.441626,0.64814,0.63211,0.172022,0.314549,0.642834,0.462456,0.332226,0.651035,0.52067,0.501905
,-0.000304461,-0.00165696,-0.00128129,0.994799,0.507551,0.338892,0.620323,0.924345,0.605771,0.52908,0.975274,0.566266,0.00406507,0.489071,0.658356,0.418301,0.86976,0.732231,0.440489,0.955873,0.654497,0.582049,-0.011823,0.465113,0.575993,0.0193043,0.572887,0.613801,0.0637932,0.573597,0.440987,0.0916156,0.578245,0.364222,0.407239,0.563906,0.433469,0.460152,0.657307,0.69271,0.145675,0.529727,0.714514,0.368066,0.685329,0.637705,0.336156,0.756043
,-0.000520544,-0.00110022,-0.00128274,1.00755,0.498722,0.36942,0.632435,0.916384,0.591965,0.538183,0.966209,0.554924,-0.0107408,0.49702,0.626343,0.440992,0.856832,0.726873,0.461551,0.945154,0.650531,0.582578,0.00496777,0.581987,0.582814,0.0557351,0.670695,0.633085,0.114188,0.666914,0.446467,0.104608,0.655055,0.343003,0.379484,0.645078,0.44889,0.374971,0.701716,0.6939,0.175899,0.605853,0.71675,0.426728,0.672531,0.663936,0.385025,0.768043
,0.000540728,-0.00116298,-0.000951647,1.0085,0.497622,0.358023,0.617373,0.926256,0.582981,0.526089,0.971483,0.550987,-0.0103385,0.498588,0.638277,0.411155,0.876758,0.716948,0.439922,0.956688,0.64445,0.549838,-0.0150755,0.456201,0.548507,0.0113776,0.552879,0.601827,0.0645401,0.575874,0.422021,0.0841787,0.565552,0.342448,0.403639,0.558204,0.440502,0.426457,0.643152,0.664353,0.13409,0.498332,0.723985,0.370734,0.618093,0.655749,0.295712,0.662844
,-0.00136817,-0.00188231,-0.00210099,1.00377,0.493887,0.333955,0.629598,0.92546,0.582333,0.550404,0.973607,0.545707,-0.00654945,0.502334,0.662338,0.361579,0.871252,0.735581,0.344864,0.941217,0.567731,0.504669,-0.0194364,0.361804,0.552292,0.00695168,0.455408,0.592408,0.0312794,0.47911,0.410143,0.0736161,0.494816,0.321152,0.38637,0.534647,0.43984,0.425928,0.63019,0.663281,0.164492,0.404077,0.701472,0.453637,0.44139,0.637927,0.4702,0.597501
,-0.000690126,-0.00193343,-0.00160861,0.964117,0.518411,0.224152,0.62949,0.925707,0.544727,0.542168,0.969279,0.519513,0.0344813,0.478551,0.772889,0.409039,0.881107,0.701807,0.426189,0.959512,0.59883,0.479506,-0.00118754,0.346686,0.500228,0.00334255,0.421973,0.525116,0.0250286,0.434985,0.382095,0.0843416,0.498872,0.329378,0.400986,0.553562,0.437288,0.434807,0.647371,0.615257,0.139205,0.349741,0.706072,0.402683,0.437768,0.63153,0.351857,0.560289
,0.000326451,-0.000444876,-0.000387334,0.783456,0.577847,0.0530198,0.629303,0.938528,0.505718,0.449399,0.930611,0.516237,0.213874,0.419531,0.944046,0.494095,0.854691,0.741548,0.460275,0.938992,0.62394,0.464205,0.00578251,0.380291,0.442487,0.00868452,0.420182,0.461198,0.0327339,0.40919,0.375361,0.0768905,0.535298,0.355463,0.395957,0.656239,0.443547,0.420215,0.714851,0.5174,0.0984031,0.291026,0.657274,0.1733,0.300709,0.687033,0.135565,0.362723
,-0.00141651,-0.00256437,-0.000420387,0.995569,0.458904,0.406214,0.585395,0.916961,0.561146,0.518124,0.971421,0.535905,2.55704e-05,0.535079,0.589391,0.413831,0.851038,0.750598,0.477379,0.93345,0.709403,0.489983,0.0263389,0.337804,0.483145,0.014769,0.437017,0.48935,0.0371085,0.460829,0.371476,0.12526,0.454533,0.33997,0.43081,0.514569,0.451934,0.452505,0.609063,0.618904,0.138584,0.424942,0.692044,0.396075,0.534487,0.56727,0.389868,0.621341
,-0.000238786,0.00122118,0.000749558,0.879474,0.383621,0.800404,0.56689,0.891776,0.66131,0.566237,0.956787,0.592607,0.11812,0.615416,0.197616,0.380838,0.927032,0.513295,0.477661,0.97971,0.433288,0.533268,0.0286113,0.33935,0.481473,0.0359119,0.352026,0.485974,0.0595084,0.388254,0.417029,0.172408,0.297279,0.407331,0.468508,0.353029,0.406668,0.437992,0.504351,0.574632,0.0776088,0.456299,0.505506,0.165885,0.650382,0.397903,0.186084,0.624416
,-0.00116,-0.00105511,-0.00111301,1.0139,0.441928,0.448209,0.688835,0.880301,0.668227,0.617791,0.9226,0.49345,-0.0139717,0.557585,0.55193,0.418947,0.90694,0.649047,0.48389,0.973764,0.597699,0.433695,0.003383,0.47071,0.416108,0.0225943,0.57552,0.483041,0.103482,0.638568,0.314736,0.13434,0.562133,0.318814,0.465547,0.568057,0.409161,0.465413,0.691415,0.569554,0.114105,0.539517,0.656783,0.405379,0.527396,0.531415,0.415128,0.64427
,-0.000314009,-0.00071379,-0.00185581,0.746173,0.521871,0.0214908,0.613672,0.90957,0.519698,0.529644,0.960492,0.52743,0.253529,0.477632,0.976567,0.523461,0.880281,0.706194,0.449079,0.945845,0.576906,0.387742,0.0226163,0.39903,0.450393,0.0137982,0.446237,0.511425,0.049253,0.445122,0.409517,0.113516,0.570208,0.42578,0.424597,0.639659,0.500534,0.467036,0.673964,0.508534,0.12642,0.319459,0.669146,0.336045,0.34996,0.596466,0.273725,0.493126
,0.000556854,0.00171535,0.00105202,0.0608574,0.534756,0.218903,0.45415,0.955292,0.550496,0.467793,0.977518,0.620211,0.937809,0.465528,0.781206,0.700869,0.901821,0.676167,0.515946,0.892999,0.737768,0.454961,-0.0517406,0.443705,0.491967,-0.0178164,0.433489,0.483237,0.0313678,0.39838,0.605825,0.0686062,0.526279,0.646313,0.404792,0.608484,0.589292,0.486034,0.477677,0.353266,0.0873538,0.371113,0.299751,0.299903,0.225869,0.423459,0.28054,0.270909
,-0.000471808,6.08326e-05,0.000519468,-0.021376,0.463925,0.400157,0.358945,0.944381,0.445691,0.401724,0.957238,0.561525,1.01781,0.533016,0.597081,0.601249,0.923883,0.621062,0.516589,0.958536,0.654836,0.53212,-0.0618837,0.432497,0.541123,-0.0076125,0.378674,0.52213,0.0411417,0.328844,0.670362,0.0841488,0.433343,0.74094,0.404925,0.430812,0.611416,0.400812,0.342665,0.379719,0.0835399,0.382867,0.252158,0.30564,0.339009,0.328881,0.307788,0.284165
,0.000236615,0.000414019,0.000621118,0.0692671,0.446199,0.764218,0.461077,0.900424,0.706126,0.521161,0.889243,0.775619,0.929654,0.552774,0.235885,0.589291,0.927571,0.426608,0.588904,0.982003,0.466193,0.554323,-0.0223541,0.516225,0.518457,-0.00983728,0.466226,0.481553,0.0297204,0.442521,0.636209,0.0681999,0.410489,0.688397,0.258679,0.276722,0.589182,0.23066,0.280388,0.400114,0.10641,0.536399,0.272974,0.328734,0.50123,0.390328,0.304737,0.453173
,0.0010702,0.00275993,-0.000165902,0.401748,0.353499,0.958151,0.442896,0.899933,0.662911,0.506577,0.946557,0.612948,0.598593,0.64813,0.0408414,0.520708,0.945817,0.435161,0.671315,0.920474,0.51663,0.561251,0.00273702,0.380392,0.530774,0.00868526,0.391843,0.499732,0.036395,0.4098,0.538169,0.104258,0.277741,0.427753,0.291461,0.189682,0.337633,0.279662,0.249073,0.547537,0.0674784,0.530693,0.487375,0.234126,0.687143,0.381301,0.256083,0.668362
,-0.00172072,0.00238593,0.00110598,0.346261,0.402343,0.932172,0.378245,0.876555,0.693207,0.488392,0.906343,0.692088,0.65145,0.598386,0.0676211,0.510902,0.90747,0.492454,0.552669,0.947162,0.541019,0.549456,0.0289785,0.466221,0.52801,0.0138354,0.460915,0.486266,0.0456251,0.460143,0.583792,0.083358,0.358513,0.56744,0.175617,0.253349,0.481248,0.168387,0.27699,0.47557,0.0984469,0.552334,0.371944,0.150002,0.496158,0.39172,0.136836,0.459063
,0.000610229,0.00217152,0.00144448,0.163633,0.556867,0.148375,0.406568,0.960456,0.463315,0.39793,0.965107,0.567687,0.833547,0.442716,0.849507,0.629208,0.894238,0.663946,0.526868,0.954968,0.648828,0.408413,0.00877798,0.466897,0.448262,0.000925839,0.47128,0.467602,0.0535326,0.439207,0.524887,0.068897,0.562801,0.619884,0.139507,0.526909,0.617003,0.109824,0.461548,0.353075,0.120526,0.398192,0.374393,0.167882,0.253966,0.448866,0.146752,0.26672
,-0.00163997,-0.000704519,-0.000827675,0.790461,0.594874,0.0543258,0.625011,0.915179,0.532966,0.463329,0.929405,0.506495,0.205637,0.401735,0.942594,0.563528,0.809475,0.7821,0.457957,0.893825,0.628096,0.637031,0.0447455,0.467739,0.647354,0.0396658,0.510673,0.665348,0.130999,0.510809,0.565239,0.102119,0.609388,0.58956,0.328766,0.705848,0.692542,0.385404,0.674539,0.690911,0.138448,0.388811,0.779406,0.262841,0.355435,0.792247,0.241572,0.41895
,0.000241201,-0.00177835,-0.00177913,0.992797,0.481505,0.322166,0.650605,0.921059,0.566692,0.581275,0.969218,0.522849,0.005575,0.514335,0.673446,0.361627,0.885053,0.707381,0.349915,0.954899,0.569355,0.478747,0.0110379,0.309852,0.469243,0.0166648,0.366222,0.485691,0.0391194,0.412715,0.34843,0.082531,0.437524,0.294046,0.252381,0.619672,0.370205,0.223961,0.675687,0.606684,0.111224,0.320173,0.75312,0.262784,0.433706,0.69564,0.239386,0.558846
,-0.000368957,0.000887102,-0.000400267,0.0344755,0.486778,0.305822,0.350027,0.928207,0.571358,0.379544,0.949581,0.642784,0.963712,0.512326,0.693075,0.583276,0.905165,0.683797,0.491913,0.950803,0.680975,0.514585,-0.0187064,0.395954,0.521283,0.00862615,0.364723,0.512859,0.0429715,0.357765,0.64588,0.0365461,0.451943,0.77971,0.215689,0.547765,0.88236,0.293201,0.522451,0.369708,0.0907852,0.363275,0.229893,0.281719,0.427967,0.149029,0.367038,0.417924
,-0.000290194,0.000741786,0.000572495,-0.0252769,0.407494,0.554293,0.31228,0.903435,0.509831,0.359693,0.933936,0.590723,1.02417,0.5918,0.444733,0.566502,0.913709,0.527054,0.516451,0.935407,0.626506,0.429575,0.0196035,0.240666,0.334509,0.128735,0.221969,0.317739,0.195565,0.191999,0.500585,0.15105,0.217755,0.646588,0.38565,0.27643,0.503172,0.450131,0.295495,0.255153,0.253614,0.338276,0.246188,0.496477,0.46055,0.271073,0.596299,0.402893
,-0.00287699,0.000937473,-0.00215923,0.00359905,0.492735,0.340315,0.437816,0.906161,0.271068,0.443993,0.873734,0.547331,0.98804,0.503636,0.652853,0.716223,0.870353,0.381844,0.553795,0.883054,0.542075,0.575192,0.340993,0.0135306,0.574802,0.426452,0.0192425,0.565495,0.474907,0.0201899,0.674246,0.429096,0.138276,0.788423,0.517339,0.367722,0.84351,0.579681,0.481805,0.432209,0.468082,0.0675249,0.281125,0.544744,0.249736,0.251146,0.610563,0.320701
,-0.000550938,0.00066752,-0.000941587,0.0227154,0.486489,0.295145,0.409997,0.93252,0.442352,0.413505,0.944637,0.563106,0.977698,0.515306,0.705054,0.660761,0.911243,0.53355,0.538777,0.941949,0.608546,0.589748,0.154579,0.140537,0.596711,0.255382,0.0941877,0.583684,0.323347,0.071432,0.683568,0.286655,0.219065,0.726286,0.43719,0.455344,0.688282,0.580892,0.466411,0.45049,0.328108,0.13894,0.299376,0.456625,0.336224,0.343863,0.584803,0.392529
,-0.000879535,-1.18501e-05,-0.000761681,0.0554353,0.474412,0.271345,0.3402,0.93474,0.547573,0.358122,0.946377,0.635461,0.939546,0.521754,0.723568,0.582718,0.918363,0.671414,0.493332,0.947394,0.694643,0.476649,-0.0281144,0.447367,0.537277,-0.00546605,0.441064,0.532794,0.0241751,0.389253,0.635349,0.0951575,0.528157,0.661074,0.422789,0.54991,0.583365,0.431656,0.433856,0.394456,0.0766455,0.373833,0.405001,0.192408,0.219817,0.511289,0.20296,0.228972
,-0.00379958,-0.00184443,-0.00225346,0.0581614,0.476913,0.225722,0.396389,0.946631,0.438235,0.407194,0.98667,0.499619,0.936301,0.518501,0.769073,0.575417,0.907697,0.686896,0.470395,0.956629,0.679946,0.568935,-0.0373432,0.353446,0.601364,0.0192732,0.319428,0.607893,0.104125,0.261882,0.693741,0.0587272,0.43774,0.797286,0.305422,0.494483,0.873299,0.355448,0.420148,0.457484,0.100642,0.264446,0.442705,0.332578,0.153989,0.565409,0.375717,0.214546
,-0.000781455,0.000850066,0.00038253,0.0336716,0.495137,0.272307,0.396252,0.938356,0.538337,0.41858,0.966693,0.602893,0.965935,0.505615,0.728267,0.614175,0.906318,0.677521,0.532983,0.951148,0.690761,0.541199,-0.0287501,0.374255,0.574687,0.0247205,0.32539,0.556614,0.0865834,0.284869,0.685266,0.0787681,0.418589,0.800571,0.339778,0.435498,0.767823,0.38269,0.316728,0.421064,0.100052,0.29884,0.331201,0.346559,0.244264,0.48765,0.384404,0.249073
,-0.000846702,0.00108739,-0.00123234,0.0736675,0.517287,0.24182,0.394145,0.937899,0.524431,0.420515,0.970051,0.58267,0.924803,0.482408,0.756064,0.615832,0.904734,0.641373,0.541989,0.95782,0.645303,0.624151,0.113159,0.2022,0.666352,0.197121,0.15997,0.666162,0.302744,0.148293,0.740223,0.223105,0.284817,0.817179,0.429987,0.31508,0.762562,0.448563,0.242774,0.523091,0.280632,0.125796,0.517645,0.500555,0.0822591,0.634246,0.470018,0.184027
,0.00131612,0.00206081,0.000486652,0.0791557,0.511892,0.197971,0.391285,0.94128,0.506469,0.416034,0.965694,0.572707,0.923228,0.490712,0.804113,0.603006,0.90005,0.697407,0.501532,0.943383,0.692472,0.547025,0.0402694,0.267392,0.587799,0.128748,0.203231,0.581277,0.216822,0.171671,0.672902,0.154035,0.331861,0.711335,0.37126,0.555126,0.654991,0.531038,0.495063,0.439734,0.234601,0.196194,0.328185,0.467857,0.27946,0.482583,0.537906,0.310565
,0.000823785,-0.000763934,-0.000553328,0.0785818,0.469413,0.220156,0.33761,0.938897,0.504669,0.343192,0.971385,0.567412,0.92133,0.528313,0.778558,0.529551,0.904802,0.718521,0.439554,0.949421,0.700315,0.523128,-0.0475806,0.452082,0.563984,-0.00680131,0.42616,0.529045,0.0325349,0.395596,0.647605,0.0854507,0.532238,0.658769,0.392818,0.627485,0.601194,0.491682,0.496431,0.438742,0.0920092,0.345484,0.454192,0.378564,0.265924,0.565096,0.440147,0.285184
,-0.000383544,-0.00115971,-0.000168794,0.0382515,0.471123,0.252163,0.354735,0.941022,0.483136,0.360062,0.965881,0.558303,0.961427,0.527082,0.747488,0.548145,0.910417,0.671291,0.444358,0.951136,0.674736,0.548768,-0.0570576,0.462661,0.538774,-0.0129529,0.41765,0.521172,0.0396799,0.365182,0.645133,0.0365689,0.510565,0.789889,0.257513,0.47988,0.737074,0.245231,0.396206,0.415243,0.109716,0.352366,0.435562,0.413975,0.300486,0.563779,0.453303,0.321875
,-0.000702826,-0.000855627,-0.0010751,0.12085,0.505414,0.180249,0.37555,0.944508,0.475982,0.379037,0.975705,0.54382,0.878012,0.492737,0.817873,0.554516,0.902899,0.687533,0.469407,0.953022,0.6819,0.551872,-0.0273062,0.382713,0.604159,0.0231764,0.350896,0.636104,0.0817704,0.336867,0.662787,0.0656346,0.497231,0.714769,0.366685,0.585723,0.740811,0.359962,0.453395,0.482831,0.125686,0.254561,0.458855,0.415126,0.237666,0.582641,0.439643,0.292823
,-0.000469856,-0.000654569,-0.000563593,0.0725748,0.501979,0.218932,0.3855,0.946488,0.528972,0.392471,0.963244,0.611681,0.927238,0.496897,0.780522,0.581732,0.902148,0.705921,0.482966,0.939431,0.722497,0.522811,-0.060673,0.466987,0.529305,-0.00908876,0.397452,0.525538,0.0696378,0.320342,0.641978,0.0329048,0.492518,0.776057,0.271604,0.456602,0.721022,0.273168,0.368006,0.403293,0.115415,0.34075,0.410573,0.427301,0.31412,0.558372,0.478885,0.335985
,0.00129038,0.000557893,0.000341977,0.123712,0.522949,0.138572,0.412542,0.955706,0.540366,0.418471,0.978761,0.609623,0.877689,0.47707,0.862402,0.606256,0.899007,0.766988,0.495921,0.933403,0.759211,0.532763,-0.0398301,0.418317,0.582995,0.0288886,0.342742,0.579393,0.086259,0.308833,0.650191,0.0832598,0.467782,0.651431,0.36447,0.633399,0.627876,0.490201,0.530127,0.44748,0.149447,0.29545,0.353134,0.434553,0.371246,0.458714,0.553579,0.390429
,0.000420747,0.00353444,-0.00111406,0.239896,0.499169,0.0584788,0.498974,0.941625,0.481592,0.490299,0.989327,0.56929,0.761286,0.504871,0.942613,0.583944,0.913392,0.758094,0.355351,0.859895,0.757955,0.487359,-0.0600611,0.448181,0.537561,-0.0168743,0.44817,0.587996,0.0392454,0.385273,0.591326,0.0413757,0.576592,0.599436,0.356234,0.702505,0.598199,0.500651,0.627049,0.426493,0.0587259,0.340796,0.379407,0.272765,0.195298,0.501414,0.31405,0.221797
,0.00175097,0.000911363,4.33502e-05,0.0203958,0.371141,0.559828,0.291777,0.908242,0.527352,0.36491,0.926736,0.62863,0.980287,0.628296,0.439356,0.55614,0.931361,0.608188,0.47668,0.958305,0.647123,0.628073,-0.0190216,0.414551,0.5971,0.0170154,0.369108,0.566328,0.0743656,0.330853,0.704794,0.119445,0.370565,0.684132,0.451939,0.340696,0.565504,0.368015,0.377919,0.450364,0.0652835,0.416952,0.332669,0.308781,0.531056,0.415247,0.440389,0.459541
,-1.3637e-05,0.00147791,-0.000559672,0.208116,0.355132,0.849314,0.451171,0.889321,0.662384,0.510817,0.933495,0.659543,0.790005,0.643303,0.147509,0.46671,0.931538,0.426391,0.441582,0.984728,0.454654,0.586913,-0.0121457,0.454083,0.571529,0.0107534,0.40892,0.513394,0.0564558,0.381966,0.640571,0.121476,0.335443,0.600229,0.292102,0.200805,0.508324,0.289855,0.195065,0.49443,0.049415,0.513138,0.363865,0.112925,0.51452,0.394865,0.196953,0.400715
,0.00298002,0.00539397,0.000907294,0.752153,0.37737,0.890991,0.434765,0.841225,0.75959,0.452712,0.906493,0.690661,0.251256,0.62778,0.11085,0.456536,0.923743,0.489598,0.562002,0.970221,0.47585,0.55147,0.0306288,0.331291,0.521745,0.0296991,0.3542,0.515198,0.0606979,0.355963,0.464528,0.0919931,0.258732,0.35261,0.236233,0.234577,0.24835,0.201394,0.263422,0.586579,0.0719529,0.467802,0.562795,0.195864,0.662419,0.527298,0.133933,0.661155
,0.00262343,0.000200347,-0.000651668,0.994251,0.505732,0.443327,0.608425,0.918943,0.593194,0.571191,0.945244,0.445393,0.0067443,0.492599,0.553875,0.366308,0.86445,0.673179,0.411577,0.950819,0.596384,0.527237,0.0348105,0.285731,0.515284,0.0296205,0.322654,0.54267,0.0683608,0.388839,0.382234,0.103693,0.35382,0.242021,0.284467,0.438012,0.231993,0.261914,0.581188,0.646944,0.136163,0.318093,0.746645,0.262724,0.484466,0.619979,0.25191,0.536539
,-0.000213145,0.000251261,-0.000957289,0.935884,0.596118,0.230942,0.550717,0.931373,0.603818,0.456599,0.970809,0.582346,0.0649373,0.404419,0.768918,0.416815,0.80795,0.823938,0.38361,0.909397,0.684057,0.510871,0.0607174,0.274469,0.52389,0.0360064,0.331701,0.570475,0.0846302,0.361457,0.410611,0.0653908,0.415626,0.385767,0.195066,0.627245,0.478168,0.208113,0.644608,0.630166,0.153493,0.272232,0.757983,0.248812,0.383194,0.704876,0.214279,0.471873
,-0.000920865,0.00210456,-0.00140504,0.625053,0.580792,0.00052458,0.611226,0.937806,0.499816,0.537199,0.98401,0.524543,0.37285,0.420404,0.997475,0.442823,0.879437,0.732295,0.366252,0.943845,0.636659,0.464242,-0.0245629,0.408967,0.497991,-0.00717937,0.449786,0.562324,0.0389763,0.442952,0.473711,0.0415247,0.588487,0.548201,0.229987,0.685815,0.617765,0.243158,0.645766,0.47848,0.0866178,0.294458,0.540828,0.215556,0.167388,0.584265,0.27549,0.229263
,-0.00195811,0.000143424,-0.000806426,0.11948,0.53055,0.163717,0.403273,0.955755,0.467006,0.32295,0.910597,0.601579,0.875399,0.466042,0.831931,0.571869,0.90261,0.649148,0.4825,0.962957,0.624776,0.506849,-0.0160902,0.424078,0.536192,-0.000311181,0.41449,0.525854,0.0578434,0.346077,0.608569,0.0593197,0.527917,0.731988,0.238387,0.6062,0.798528,0.254745,0.555243,0.42622,0.0969538,0.351072,0.373884,0.201305,0.213669,0.449479,0.225935,0.205096
,0.000262315,0.00229017,0.00129046,-0.016445,0.422052,0.521627,0.392918,0.905965,0.618118,0.457347,0.933626,0.662426,1.01472,0.578567,0.478331,0.694389,0.931659,0.500078,0.558852,0.888341,0.664879,0.533013,-0.0621466,0.443492,0.534906,-0.00358243,0.383842,0.510108,0.0333819,0.36057,0.676985,0.092555,0.404761,0.714751,0.421501,0.424753,0.564124,0.437153,0.365109,0.371414,0.0652339,0.42199,0.248632,0.245271,0.348292,0.409504,0.31383,0.335091
,-0.000558442,0.00318094,-0.000450853,-0.020513,0.451686,0.368034,0.344573,0.931523,0.473248,0.346418,0.916316,0.617863,1.01775,0.549132,0.629273,0.580834,0.915652,0.611659,0.495224,0.933963,0.659356,0.558301,-0.0256383,0.363273,0.56669,0.017954,0.343827,0.602304,0.0722843,0.293481,0.685112,0.040097,0.434791,0.807617,0.254262,0.429636,0.796576,0.256387,0.351677,0.404721,0.0679108,0.328374,0.267755,0.225793,0.277347,0.354963,0.222241,0.247508
,0.00187288,0.00320051,-0.00139544,0.0326445,0.525953,0.297058,0.428053,0.94693,0.421255,0.409984,0.96617,0.526513,0.970913,0.477958,0.704583,0.690938,0.895921,0.546127,0.569753,0.931621,0.631622,0.541789,0.299627,0.00614738,0.59632,0.471194,0.0202793,0.634658,0.5609,0.011328,0.664124,0.507301,0.152156,0.645339,0.570091,0.474979,0.568631,0.666775,0.474685,0.448123,0.500995,0.071008,0.344835,0.589161,0.313315,0.454237,0.632367,0.330264
,0.000380478,0.00301018,0.000408168,0.189478,0.348173,0.863587,0.336096,0.873034,0.678238,0.471629,0.881234,0.722821,0.810187,0.653334,0.135997,0.493742,0.928365,0.521856,0.49258,0.965607,0.580145,0.537847,-0.0157064,0.382281,0.510751,0.0221857,0.340578,0.440109,0.0807323,0.316233,0.607091,0.113174,0.274663,0.672259,0.370249,0.201105,0.550815,0.329704,0.204012,0.440586,0.0496694,0.476292,0.344185,0.170557,0.621017,0.289197,0.178364,0.60587
,0.000543949,0.00189435,-0.000584789,0.76111,0.368231,0.911895,0.472684,0.88369,0.692024,0.506779,0.947366,0.612456,0.24023,0.634603,0.0887146,0.31874,0.906915,0.514212,0.53254,0.916464,0.415704,0.540701,0.0229672,0.349481,0.494296,0.0224483,0.368872,0.51533,0.0534842,0.407339,0.44787,0.13924,0.288616,0.387182,0.432989,0.277072,0.270133,0.43921,0.349914,0.571378,0.0921337,0.482099,0.615959,0.288762,0.640838,0.523937,0.312534,0.701953
,-0.000809722,0.000775133,-0.000419056,0.0348004,0.475326,0.30261,0.346645,0.922175,0.582671,0.38093,0.946874,0.644355,0.962761,0.523464,0.696141,0.591633,0.90556,0.690565,0.513337,0.955646,0.679645,0.532215,-0.0285999,0.396576,0.538359,0.00407021,0.369568,0.523637,0.032903,0.355387,0.66113,0.040945,0.460025,0.789099,0.242138,0.549566,0.884934,0.315427,0.532041,0.38133,0.0859326,0.355342,0.229786,0.261246,0.394294,0.153383,0.345796,0.380731
,0.000454185,-0.000624018,0.000145379,-0.00789037,0.473347,0.291196,0.347709,0.917164,0.576181,0.386712,0.938529,0.636647,1.00665,0.524001,0.707075,0.674201,0.913222,0.626138,0.604502,0.950282,0.650645,0.537319,-0.0532065,0.409197,0.534299,0.00962251,0.33986,0.523336,0.0433551,0.304048,0.654088,0.0811905,0.424478,0.68667,0.402015,0.526403,0.592829,0.490314,0.441144,0.388684,0.140864,0.338397,0.344476,0.436622,0.400844,0.474158,0.504766,0.388756
,-0.000230074,0.00180799,0.000566816,0.0443397,0.489187,0.726782,0.277389,0.937685,0.466405,0.325712,0.956502,0.548827,0.955929,0.512219,0.275533,0.545447,0.921494,0.401105,0.489354,0.957412,0.527933,0.23708,0.259113,0.13929,0.245052,0.427187,0.0924152,0.252384,0.451979,0.120526,0.406282,0.417171,0.123024,0.58439,0.488172,0.272403,0.515797,0.57761,0.334374,0.17224,0.48882,0.22324,0.146074,0.633919,0.414767,0.1446,0.67752,0.399251
,-0.000670133,0.00269318,-0.000222341,0.0476763,0.472652,0.394317,0.395541,0.825359,0.268748,0.444315,0.758643,0.512513,0.945872,0.525492,0.600364,0.694238,0.779579,0.321755,0.523849,0.765186,0.536927,0.566344,0.308492,0.067566,0.542915,0.336667,0.0508112,0.537849,0.365581,0.0631827,0.643232,0.360139,0.157521,0.746444,0.465021,0.335195,0.810897,0.509234,0.403224,0.41443,0.416977,0.110683,0.278838,0.518624,0.261802,0.22293,0.579416,0.338083
,0.00065149,-0.00177274,0.00054307,0.0245987,0.441681,0.344276,0.324423,0.933828,0.528602,0.358295,0.965476,0.600276,0.975131,0.5553,0.655546,0.589666,0.928499,0.647849,0.500091,0.959081,0.678458,0.541665,-0.0330707,0.40436,0.542212,0.024427,0.332057,0.538166,0.0656985,0.330884,0.652384,0.110539,0.417374,0.682037,0.423728,0.519435,0.599501,0.540211,0.438564,0.401479,0.151954,0.328548,0.331728,0.44367,0.418964,0.419331,0.564182,0.401402
,-0.000934132,-0.00233209,-0.000437378,-0.00790116,0.421034,0.447311,0.320972,0.934557,0.51645,0.357621,0.957394,0.609592,1.00479,0.573743,0.549347,0.573254,0.936076,0.636438,0.485433,0.957876,0.679677,0.543801,-0.0391478,0.485716,0.479437,-0.00038518,0.413941,0.458094,0.0763718,0.355147,0.61852,0.0430894,0.442937,0.755853,0.192058,0.382371,0.643097,0.245277,0.354426,0.359559,0.136367,0.441969,0.313215,0.431022,0.527577,0.310705,0.580292,0.498106
,-0.000809525,0.00174186,1.40106e-06,-0.0342626,0.458826,0.373268,0.361939,0.938243,0.512833,0.396892,0.954312,0.594409,1.03284,0.542518,0.626154,0.643157,0.921705,0.57868,0.542335,0.960287,0.626299,0.564027,-0.00406438,0.25041,0.570054,0.103624,0.186531,0.54419,0.222256,0.142868,0.68769,0.148036,0.264031,0.79683,0.344542,0.269625,0.741,0.34426,0.216263,0.412881,0.181735,0.209005,0.325533,0.393012,0.14313,0.446433,0.361408,0.178278
,-0.00150147,-1.47431e-05,-0.000361566,0.063532,0.48161,0.229205,0.386107,0.945006,0.469683,0.391538,0.985632,0.526924,0.932364,0.515516,0.767382,0.576059,0.908332,0.674649,0.474309,0.945109,0.693075,0.565034,-0.00565412,0.336449,0.595322,0.0544748,0.291098,0.575204,0.144045,0.237687,0.688779,0.100602,0.398535,0.789413,0.340906,0.399062,0.740367,0.381753,0.299239,0.451877,0.142511,0.244415,0.401478,0.379484,0.159051,0.560683,0.409705,0.209349
,-0.00129482,-6.48542e-05,-0.000504049,0.0814208,0.524639,0.266455,0.386162,0.939379,0.516977,0.412198,0.975776,0.570225,0.914929,0.472473,0.730379,0.596167,0.888787,0.664481,0.535133,0.917311,0.708299,0.580354,0.144846,0.162486,0.618433,0.200125,0.13535,0.602266,0.268928,0.142329,0.705825,0.218452,0.259748,0.804204,0.409717,0.329468,0.715857,0.456966,0.251792,0.482687,0.298145,0.109479,0.502299,0.509775,0.058841,0.614374,0.475544,0.156428
,0.000391122,-0.00209604,0.00114339,0.0501181,0.466263,0.265057,0.361404,0.94596,0.474539,0.363568,0.970594,0.549377,0.949441,0.530389,0.73509,0.551883,0.905576,0.695884,0.457106,0.943366,0.699042,0.522746,-0.0411388,0.469308,0.549429,-0.000913493,0.404619,0.537795,0.0399717,0.404461,0.646043,0.100155,0.49084,0.682084,0.420606,0.547526,0.664222,0.489132,0.431943,0.416075,0.129002,0.364046,0.351454,0.423491,0.354419,0.48535,0.464841,0.336693
,0.000535948,-0.000821769,6.92457e-05,-0.00283346,0.450427,0.386261,0.372323,0.910907,0.618984,0.425179,0.939685,0.669502,1.00074,0.546082,0.611082,0.650685,0.918333,0.607803,0.56641,0.959794,0.636922,0.523019,-0.0243354,0.371119,0.507455,0.0470631,0.285184,0.49681,0.0849891,0.253812,0.637793,0.128917,0.343276,0.684413,0.435483,0.449984,0.57351,0.533668,0.391794,0.364523,0.163552,0.33488,0.302298,0.425248,0.466362,0.38997,0.535536,0.412716
,0.000894839,-0.000453384,-0.00153108,0.0383509,0.474277,0.290299,0.385613,0.91603,0.576685,0.420348,0.941176,0.652108,0.961135,0.523812,0.707111,0.638984,0.915371,0.626009,0.566704,0.967786,0.630948,0.54361,-0.0185916,0.388553,0.582067,0.0503869,0.310904,0.553359,0.111323,0.253574,0.671258,0.125894,0.41661,0.667249,0.44331,0.510531,0.603264,0.528883,0.429435,0.450111,0.169909,0.267108,0.476008,0.468975,0.267362,0.601617,0.500093,0.314005
,0.00152362,0.000568597,-0.00168062,0.0514543,0.493054,0.263103,0.357591,0.922892,0.557982,0.39582,0.945372,0.626382,0.949938,0.507344,0.735463,0.613074,0.914848,0.617739,0.548748,0.97258,0.61393,0.560738,0.0426478,0.251222,0.59713,0.144319,0.181914,0.583671,0.258395,0.131355,0.680426,0.165156,0.30951,0.715274,0.425936,0.46596,0.691886,0.471301,0.375102,0.465796,0.269659,0.159422,0.472506,0.539882,0.231217,0.605812,0.529712,0.278792
,0.000362016,0.000254246,-0.00179081,0.0135836,0.49639,0.274197,0.362134,0.920026,0.578303,0.402132,0.936218,0.655727,0.98542,0.50264,0.722718,0.632518,0.90818,0.633137,0.557118,0.961269,0.636348,0.503406,-0.0437682,0.398397,0.546871,0.0294396,0.320746,0.539722,0.119967,0.239012,0.649458,0.0797908,0.426317,0.678597,0.371112,0.568277,0.600681,0.490119,0.47109,0.413905,0.146299,0.285776,0.449689,0.450751,0.282979,0.561298,0.379869,0.343202
,0.000894241,-0.000421642,0.000952526,0.0183591,0.480616,0.307301,0.371905,0.933638,0.562342,0.411433,0.95212,0.637146,0.9808,0.517184,0.692102,0.693798,0.916734,0.623888,0.580469,0.916275,0.70832,0.508942,-0.0265017,0.410815,0.527535,0.0351218,0.3217,0.50206,0.0842155,0.286014,0.635653,0.107186,0.409108,0.678568,0.400024,0.540878,0.585892,0.50993,0.460403,0.391029,0.169666,0.323139,0.328177,0.45236,0.404544,0.458909,0.528346,0.399884
,0.000314051,-0.000522239,0.000675857,-0.0385399,0.439676,0.442484,0.335064,0.911774,0.585252,0.394022,0.929485,0.65625,1.0375,0.558118,0.556698,0.621784,0.916767,0.61825,0.543017,0.950289,0.650408,0.55782,-0.0492599,0.398174,0.555367,0.00821691,0.343807,0.534332,0.0409473,0.317207,0.675467,0.0953749,0.405227,0.704826,0.406657,0.520447,0.586722,0.49376,0.43723,0.400129,0.117109,0.357418,0.333653,0.409128,0.376191,0.477154,0.384974,0.364815
,-0.000435677,0.00320955,-0.0005185,0.0362365,0.413801,0.621123,0.295631,0.926532,0.548471,0.439525,0.818689,0.715781,0.958249,0.583814,0.373408,0.57245,0.932743,0.536384,0.522238,0.953178,0.606301,0.556248,-0.0263171,0.472769,0.597757,0.00926661,0.427525,0.562237,0.0451871,0.380518,0.701583,0.144606,0.430204,0.696917,0.478238,0.427724,0.540067,0.503774,0.414449,0.437866,0.0479249,0.470134,0.298137,0.126939,0.376231,0.31898,0.122206,0.357884
,-0.000316219,-0.00105102,-0.000458652,0.0643779,0.515241,0.189774,0.374486,0.908468,0.590604,0.396071,0.919024,0.671444,0.933103,0.480681,0.807155,0.659341,0.905369,0.593303,0.590741,0.973416,0.542637,0.482201,-0.0286011,0.403715,0.540445,0.0137337,0.3612,0.556939,0.0405181,0.356572,0.624519,0.0871426,0.477637,0.647678,0.395674,0.586342,0.586438,0.483672,0.474106,0.416168,0.142594,0.306856,0.38631,0.441619,0.333799,0.533673,0.436519,0.373816
,-0.000651737,0.000406284,-0.000824534,0.65083,0.59406,0.00398624,0.50524,0.964363,0.477242,0.419536,0.981831,0.534242,0.347451,0.405206,0.994011,0.484265,0.854532,0.797396,0.365697,0.909145,0.71546,0.451617,-0.0125954,0.312489,0.486411,0.00195207,0.378849,0.527969,0.0246681,0.387496,0.435749,0.0629545,0.537984,0.464587,0.389514,0.651602,0.572937,0.435332,0.625257,0.536672,0.120486,0.242186,0.688065,0.264136,0.238564,0.686644,0.238586,0.390007
,0.00209207,0.00265035,-0.000987306,0.100596,0.521869,0.138465,0.40666,0.951689,0.427283,0.313546,0.875838,0.592443,0.902515,0.481798,0.86242,0.581814,0.903371,0.641662,0.480582,0.952046,0.633644,0.581945,-0.0389861,0.4252,0.625105,0.0302108,0.374045,0.691162,0.102389,0.321856,0.674151,0.0916031,0.511339,0.652241,0.410758,0.611988,0.622863,0.464809,0.510685,0.49617,0.139178,0.295099,0.466798,0.437107,0.291572,0.578888,0.434625,0.366187
,-0.000671478,-0.000631093,0.00182444,0.0552316,0.373949,0.614586,0.354535,0.904763,0.573941,0.415935,0.947903,0.621507,0.943391,0.623945,0.386609,0.557283,0.923377,0.602039,0.518416,0.938433,0.678069,0.574203,0.00632274,0.413566,0.571034,0.0240917,0.381018,0.530807,0.0521589,0.384629,0.674787,0.152755,0.380735,0.694847,0.468719,0.439321,0.528909,0.503678,0.428551,0.437786,0.0950225,0.444615,0.285545,0.297662,0.442296,0.404171,0.305642,0.41037
,0.000267201,0.00212755,0.000815451,0.611307,0.335392,0.922855,0.442467,0.873747,0.700563,0.475852,0.943293,0.648323,0.386762,0.664842,0.075943,0.446118,0.956529,0.439492,0.610245,0.951927,0.421311,0.612323,0.0287252,0.342003,0.538216,0.0347749,0.338191,0.538685,0.0644483,0.376873,0.519881,0.187054,0.264659,0.497049,0.489686,0.293597,0.412418,0.47402,0.454451,0.5671,0.0809555,0.477255,0.496208,0.178956,0.665866,0.398989,0.224589,0.595234
,0.00112031,0.000375113,-0.000318291,0.826543,0.363406,0.857059,0.454466,0.821991,0.794152,0.509046,0.915433,0.681177,0.174114,0.636697,0.141773,0.413777,0.920241,0.577198,0.50302,0.973581,0.561996,0.52602,0.0310443,0.318575,0.472587,0.0311288,0.347354,0.473374,0.0505709,0.388231,0.403119,0.158561,0.289045,0.314805,0.438309,0.351249,0.355089,0.389896,0.506543,0.578832,0.105772,0.444693,0.631288,0.272978,0.638419,0.508255,0.286292,0.643293
,0.00188706,0.000264475,-0.00155806,1.02665,0.497309,0.486473,0.594159,0.920729,0.590222,0.561736,0.962171,0.507489,-0.0256357,0.501611,0.510693,0.307001,0.838827,0.730979,0.339801,0.926397,0.652248,0.531617,0.0188598,0.309877,0.543566,0.0194894,0.35984,0.555052,0.0542731,0.37722,0.399869,0.0507371,0.372424,0.258617,0.152728,0.50503,0.296716,0.136625,0.596727,0.667978,0.140992,0.367312,0.74572,0.316865,0.531292,0.622118,0.275316,0.607191
,2.58084e-05,-0.000490553,-0.00245823,0.912006,0.562201,0.21181,0.587929,0.901796,0.608136,0.501905,0.955263,0.574107,0.0890729,0.437915,0.786756,0.361972,0.866993,0.714587,0.312684,0.923908,0.53565,0.467504,0.054594,0.298776,0.485518,0.0368574,0.344299,0.536994,0.0890896,0.347744,0.387254,0.0822482,0.450324,0.416256,0.322891,0.644426,0.526656,0.349683,0.656058,0.595994,0.147364,0.283758,0.724014,0.292873,0.424806,0.700833,0.235873,0.519661
